%YAML 1.1
%TAG !u! tag:unity3d.com,2011:
--- !u!1 &5251823625818779155
GameObject:
  m_ObjectHideFlags: 0
  m_CorrespondingSourceObject: {fileID: 0}
  m_PrefabInstance: {fileID: 0}
  m_PrefabAsset: {fileID: 0}
  serializedVersion: 6
  m_Component:
  - component: {fileID: 9131435391914105856}
  - component: {fileID: 279898985147622966}
  - component: {fileID: 5827358642658908879}
  m_Layer: 0
  m_Name: Pickup_Blue
  m_TagString: Untagged
  m_Icon: {fileID: 0}
  m_NavMeshLayer: 0
  m_StaticEditorFlags: 0
  m_IsActive: 1
--- !u!4 &9131435391914105856
Transform:
  m_ObjectHideFlags: 0
  m_CorrespondingSourceObject: {fileID: 0}
  m_PrefabInstance: {fileID: 0}
  m_PrefabAsset: {fileID: 0}
  m_GameObject: {fileID: 5251823625818779155}
  m_LocalRotation: {x: 0.00000006657903, y: -0, z: -0, w: 1}
  m_LocalPosition: {x: 0, y: 0, z: 0}
  m_LocalScale: {x: 1, y: 1, z: 1}
  m_Children:
  - {fileID: 9104415217256186456}
  - {fileID: 855265108265422488}
  - {fileID: 6491793264567797909}
  - {fileID: 5707465755048737443}
  - {fileID: 8184085662825630789}
  m_Father: {fileID: 0}
  m_RootOrder: 0
  m_LocalEulerAnglesHint: {x: 0, y: 0, z: 0}
--- !u!33 &279898985147622966
MeshFilter:
  m_ObjectHideFlags: 0
  m_CorrespondingSourceObject: {fileID: 0}
  m_PrefabInstance: {fileID: 0}
  m_PrefabAsset: {fileID: 0}
  m_GameObject: {fileID: 5251823625818779155}
  m_Mesh: {fileID: 4300000, guid: d06c4bc96694ac3418f91631eb44902c, type: 3}
--- !u!23 &5827358642658908879
MeshRenderer:
  m_ObjectHideFlags: 0
  m_CorrespondingSourceObject: {fileID: 0}
  m_PrefabInstance: {fileID: 0}
  m_PrefabAsset: {fileID: 0}
  m_GameObject: {fileID: 5251823625818779155}
  m_Enabled: 1
  m_CastShadows: 1
  m_ReceiveShadows: 1
  m_DynamicOccludee: 1
  m_MotionVectors: 1
  m_LightProbeUsage: 1
  m_ReflectionProbeUsage: 1
  m_RayTracingMode: 2
  m_RayTraceProcedural: 0
  m_RenderingLayerMask: 1
  m_RendererPriority: 0
  m_Materials:
  - {fileID: 2100000, guid: 1bdb68a757980e04b9de4e323f74deb2, type: 2}
  m_StaticBatchInfo:
    firstSubMesh: 0
    subMeshCount: 0
  m_StaticBatchRoot: {fileID: 0}
  m_ProbeAnchor: {fileID: 0}
  m_LightProbeVolumeOverride: {fileID: 0}
  m_ScaleInLightmap: 1
  m_ReceiveGI: 1
  m_PreserveUVs: 0
  m_IgnoreNormalsForChartDetection: 0
  m_ImportantGI: 0
  m_StitchLightmapSeams: 1
  m_SelectedEditorRenderState: 3
  m_MinimumChartSize: 4
  m_AutoUVMaxDistance: 0.5
  m_AutoUVMaxAngle: 89
  m_LightmapParameters: {fileID: 0}
  m_SortingLayerID: 0
  m_SortingLayer: 0
  m_SortingOrder: 0
  m_AdditionalVertexStreams: {fileID: 0}
--- !u!1 &6916691469803000010
GameObject:
  m_ObjectHideFlags: 0
  m_CorrespondingSourceObject: {fileID: 0}
  m_PrefabInstance: {fileID: 0}
  m_PrefabAsset: {fileID: 0}
  serializedVersion: 6
  m_Component:
  - component: {fileID: 9104415217256186456}
  - component: {fileID: 590544580835896115}
  - component: {fileID: 5284164558588053466}
  m_Layer: 0
  m_Name: Pickup_Lights
  m_TagString: Untagged
  m_Icon: {fileID: 0}
  m_NavMeshLayer: 0
  m_StaticEditorFlags: 0
  m_IsActive: 1
--- !u!4 &9104415217256186456
Transform:
  m_ObjectHideFlags: 0
  m_CorrespondingSourceObject: {fileID: 0}
  m_PrefabInstance: {fileID: 0}
  m_PrefabAsset: {fileID: 0}
  m_GameObject: {fileID: 6916691469803000010}
  m_LocalRotation: {x: 1.4210855e-14, y: 0, z: -0, w: 1}
  m_LocalPosition: {x: -0, y: 0, z: 0}
  m_LocalScale: {x: 1, y: 1, z: 1}
  m_Children: []
  m_Father: {fileID: 9131435391914105856}
  m_RootOrder: 0
  m_LocalEulerAnglesHint: {x: 0, y: 0, z: 0}
--- !u!33 &590544580835896115
MeshFilter:
  m_ObjectHideFlags: 0
  m_CorrespondingSourceObject: {fileID: 0}
  m_PrefabInstance: {fileID: 0}
  m_PrefabAsset: {fileID: 0}
  m_GameObject: {fileID: 6916691469803000010}
  m_Mesh: {fileID: 4300002, guid: d06c4bc96694ac3418f91631eb44902c, type: 3}
--- !u!23 &5284164558588053466
MeshRenderer:
  m_ObjectHideFlags: 0
  m_CorrespondingSourceObject: {fileID: 0}
  m_PrefabInstance: {fileID: 0}
  m_PrefabAsset: {fileID: 0}
  m_GameObject: {fileID: 6916691469803000010}
  m_Enabled: 1
  m_CastShadows: 1
  m_ReceiveShadows: 1
  m_DynamicOccludee: 1
  m_MotionVectors: 1
  m_LightProbeUsage: 1
  m_ReflectionProbeUsage: 1
  m_RayTracingMode: 2
  m_RayTraceProcedural: 0
  m_RenderingLayerMask: 1
  m_RendererPriority: 0
  m_Materials:
  - {fileID: 2100000, guid: 1bdb68a757980e04b9de4e323f74deb2, type: 2}
  m_StaticBatchInfo:
    firstSubMesh: 0
    subMeshCount: 0
  m_StaticBatchRoot: {fileID: 0}
  m_ProbeAnchor: {fileID: 0}
  m_LightProbeVolumeOverride: {fileID: 0}
  m_ScaleInLightmap: 1
  m_ReceiveGI: 1
  m_PreserveUVs: 0
  m_IgnoreNormalsForChartDetection: 0
  m_ImportantGI: 0
  m_StitchLightmapSeams: 1
  m_SelectedEditorRenderState: 3
  m_MinimumChartSize: 4
  m_AutoUVMaxDistance: 0.5
  m_AutoUVMaxAngle: 89
  m_LightmapParameters: {fileID: 0}
  m_SortingLayerID: 0
  m_SortingLayer: 0
  m_SortingOrder: 0
  m_AdditionalVertexStreams: {fileID: 0}
--- !u!1001 &1461210304677251823
PrefabInstance:
  m_ObjectHideFlags: 0
  serializedVersion: 2
  m_Modification:
    m_TransformParent: {fileID: 9131435391914105856}
    m_Modifications:
    - target: {fileID: 6021220702385714361, guid: 38973bf18f62263499add1a44902c325,
        type: 3}
      propertyPath: m_Name
      value: Front Right
      objectReference: {fileID: 0}
    - target: {fileID: 7337759671727113898, guid: 38973bf18f62263499add1a44902c325,
        type: 3}
      propertyPath: m_RootOrder
      value: 4
      objectReference: {fileID: 0}
    - target: {fileID: 7337759671727113898, guid: 38973bf18f62263499add1a44902c325,
        type: 3}
      propertyPath: m_LocalPosition.x
      value: -0.6125
      objectReference: {fileID: 0}
    - target: {fileID: 7337759671727113898, guid: 38973bf18f62263499add1a44902c325,
        type: 3}
      propertyPath: m_LocalPosition.y
      value: 0
      objectReference: {fileID: 0}
    - target: {fileID: 7337759671727113898, guid: 38973bf18f62263499add1a44902c325,
        type: 3}
      propertyPath: m_LocalPosition.z
      value: -1.725
      objectReference: {fileID: 0}
    - target: {fileID: 7337759671727113898, guid: 38973bf18f62263499add1a44902c325,
        type: 3}
      propertyPath: m_LocalRotation.w
      value: 0
      objectReference: {fileID: 0}
    - target: {fileID: 7337759671727113898, guid: 38973bf18f62263499add1a44902c325,
        type: 3}
      propertyPath: m_LocalRotation.x
      value: -0
      objectReference: {fileID: 0}
    - target: {fileID: 7337759671727113898, guid: 38973bf18f62263499add1a44902c325,
        type: 3}
      propertyPath: m_LocalRotation.y
      value: 1
      objectReference: {fileID: 0}
    - target: {fileID: 7337759671727113898, guid: 38973bf18f62263499add1a44902c325,
        type: 3}
      propertyPath: m_LocalRotation.z
      value: -0
      objectReference: {fileID: 0}
    - target: {fileID: 7337759671727113898, guid: 38973bf18f62263499add1a44902c325,
        type: 3}
      propertyPath: m_LocalEulerAnglesHint.x
      value: 0
      objectReference: {fileID: 0}
    - target: {fileID: 7337759671727113898, guid: 38973bf18f62263499add1a44902c325,
        type: 3}
      propertyPath: m_LocalEulerAnglesHint.y
      value: 180
      objectReference: {fileID: 0}
    - target: {fileID: 7337759671727113898, guid: 38973bf18f62263499add1a44902c325,
        type: 3}
      propertyPath: m_LocalEulerAnglesHint.z
      value: 0
      objectReference: {fileID: 0}
    m_RemovedComponents: []
  m_SourcePrefab: {fileID: 100100000, guid: 38973bf18f62263499add1a44902c325, type: 3}
--- !u!4 &8184085662825630789 stripped
Transform:
  m_CorrespondingSourceObject: {fileID: 7337759671727113898, guid: 38973bf18f62263499add1a44902c325,
    type: 3}
  m_PrefabInstance: {fileID: 1461210304677251823}
  m_PrefabAsset: {fileID: 0}
--- !u!1001 &3089478510794357769
PrefabInstance:
  m_ObjectHideFlags: 0
  serializedVersion: 2
  m_Modification:
    m_TransformParent: {fileID: 9131435391914105856}
    m_Modifications:
    - target: {fileID: 6021220702385714361, guid: 38973bf18f62263499add1a44902c325,
        type: 3}
      propertyPath: m_Name
      value: Rear Right
      objectReference: {fileID: 0}
    - target: {fileID: 7337759671727113898, guid: 38973bf18f62263499add1a44902c325,
        type: 3}
      propertyPath: m_RootOrder
      value: 3
      objectReference: {fileID: 0}
    - target: {fileID: 7337759671727113898, guid: 38973bf18f62263499add1a44902c325,
        type: 3}
      propertyPath: m_LocalPosition.x
      value: -2.9625
      objectReference: {fileID: 0}
    - target: {fileID: 7337759671727113898, guid: 38973bf18f62263499add1a44902c325,
        type: 3}
      propertyPath: m_LocalPosition.y
      value: 0
      objectReference: {fileID: 0}
    - target: {fileID: 7337759671727113898, guid: 38973bf18f62263499add1a44902c325,
        type: 3}
      propertyPath: m_LocalPosition.z
      value: -1.725
      objectReference: {fileID: 0}
    - target: {fileID: 7337759671727113898, guid: 38973bf18f62263499add1a44902c325,
        type: 3}
      propertyPath: m_LocalRotation.w
      value: 0
      objectReference: {fileID: 0}
    - target: {fileID: 7337759671727113898, guid: 38973bf18f62263499add1a44902c325,
        type: 3}
      propertyPath: m_LocalRotation.x
      value: -0
      objectReference: {fileID: 0}
    - target: {fileID: 7337759671727113898, guid: 38973bf18f62263499add1a44902c325,
        type: 3}
      propertyPath: m_LocalRotation.y
      value: 1
      objectReference: {fileID: 0}
    - target: {fileID: 7337759671727113898, guid: 38973bf18f62263499add1a44902c325,
        type: 3}
      propertyPath: m_LocalRotation.z
      value: -0
      objectReference: {fileID: 0}
    - target: {fileID: 7337759671727113898, guid: 38973bf18f62263499add1a44902c325,
        type: 3}
      propertyPath: m_LocalEulerAnglesHint.x
      value: 0
      objectReference: {fileID: 0}
    - target: {fileID: 7337759671727113898, guid: 38973bf18f62263499add1a44902c325,
        type: 3}
      propertyPath: m_LocalEulerAnglesHint.y
      value: 180
      objectReference: {fileID: 0}
    - target: {fileID: 7337759671727113898, guid: 38973bf18f62263499add1a44902c325,
        type: 3}
      propertyPath: m_LocalEulerAnglesHint.z
      value: 0
      objectReference: {fileID: 0}
    m_RemovedComponents: []
  m_SourcePrefab: {fileID: 100100000, guid: 38973bf18f62263499add1a44902c325, type: 3}
--- !u!4 &5707465755048737443 stripped
Transform:
  m_CorrespondingSourceObject: {fileID: 7337759671727113898, guid: 38973bf18f62263499add1a44902c325,
    type: 3}
  m_PrefabInstance: {fileID: 3089478510794357769}
  m_PrefabAsset: {fileID: 0}
--- !u!1001 &4594672309073940031
PrefabInstance:
  m_ObjectHideFlags: 0
  serializedVersion: 2
  m_Modification:
    m_TransformParent: {fileID: 9131435391914105856}
    m_Modifications:
    - target: {fileID: 6021220702385714361, guid: 38973bf18f62263499add1a44902c325,
        type: 3}
      propertyPath: m_Name
      value: Rear Left
      objectReference: {fileID: 0}
    - target: {fileID: 7337759671727113898, guid: 38973bf18f62263499add1a44902c325,
        type: 3}
      propertyPath: m_RootOrder
      value: 2
      objectReference: {fileID: 0}
    - target: {fileID: 7337759671727113898, guid: 38973bf18f62263499add1a44902c325,
        type: 3}
      propertyPath: m_LocalPosition.x
      value: -2.9625
      objectReference: {fileID: 0}
    - target: {fileID: 7337759671727113898, guid: 38973bf18f62263499add1a44902c325,
        type: 3}
      propertyPath: m_LocalPosition.y
      value: 0
      objectReference: {fileID: 0}
    - target: {fileID: 7337759671727113898, guid: 38973bf18f62263499add1a44902c325,
        type: 3}
      propertyPath: m_LocalPosition.z
      value: -0.125
      objectReference: {fileID: 0}
    - target: {fileID: 7337759671727113898, guid: 38973bf18f62263499add1a44902c325,
        type: 3}
      propertyPath: m_LocalRotation.w
      value: 1
      objectReference: {fileID: 0}
    - target: {fileID: 7337759671727113898, guid: 38973bf18f62263499add1a44902c325,
        type: 3}
      propertyPath: m_LocalRotation.x
      value: -0
      objectReference: {fileID: 0}
    - target: {fileID: 7337759671727113898, guid: 38973bf18f62263499add1a44902c325,
        type: 3}
      propertyPath: m_LocalRotation.y
      value: -0
      objectReference: {fileID: 0}
    - target: {fileID: 7337759671727113898, guid: 38973bf18f62263499add1a44902c325,
        type: 3}
      propertyPath: m_LocalRotation.z
      value: -0
      objectReference: {fileID: 0}
    - target: {fileID: 7337759671727113898, guid: 38973bf18f62263499add1a44902c325,
        type: 3}
      propertyPath: m_LocalEulerAnglesHint.x
      value: 0
      objectReference: {fileID: 0}
    - target: {fileID: 7337759671727113898, guid: 38973bf18f62263499add1a44902c325,
        type: 3}
      propertyPath: m_LocalEulerAnglesHint.y
      value: 0
      objectReference: {fileID: 0}
    - target: {fileID: 7337759671727113898, guid: 38973bf18f62263499add1a44902c325,
        type: 3}
      propertyPath: m_LocalEulerAnglesHint.z
      value: 0
      objectReference: {fileID: 0}
    m_RemovedComponents: []
  m_SourcePrefab: {fileID: 100100000, guid: 38973bf18f62263499add1a44902c325, type: 3}
--- !u!4 &6491793264567797909 stripped
Transform:
  m_CorrespondingSourceObject: {fileID: 7337759671727113898, guid: 38973bf18f62263499add1a44902c325,
    type: 3}
  m_PrefabInstance: {fileID: 4594672309073940031}
  m_PrefabAsset: {fileID: 0}
--- !u!1001 &7929280519186483250
PrefabInstance:
  m_ObjectHideFlags: 0
  serializedVersion: 2
  m_Modification:
    m_TransformParent: {fileID: 9131435391914105856}
    m_Modifications:
    - target: {fileID: 6021220702385714361, guid: 38973bf18f62263499add1a44902c325,
        type: 3}
      propertyPath: m_Name
      value: Front Left
      objectReference: {fileID: 0}
    - target: {fileID: 7337759671727113898, guid: 38973bf18f62263499add1a44902c325,
        type: 3}
      propertyPath: m_RootOrder
      value: 1
      objectReference: {fileID: 0}
    - target: {fileID: 7337759671727113898, guid: 38973bf18f62263499add1a44902c325,
        type: 3}
      propertyPath: m_LocalPosition.x
      value: -0.6125
      objectReference: {fileID: 0}
    - target: {fileID: 7337759671727113898, guid: 38973bf18f62263499add1a44902c325,
        type: 3}
      propertyPath: m_LocalPosition.y
      value: 0
      objectReference: {fileID: 0}
    - target: {fileID: 7337759671727113898, guid: 38973bf18f62263499add1a44902c325,
        type: 3}
      propertyPath: m_LocalPosition.z
      value: -0.125
      objectReference: {fileID: 0}
    - target: {fileID: 7337759671727113898, guid: 38973bf18f62263499add1a44902c325,
        type: 3}
      propertyPath: m_LocalRotation.w
      value: 1
      objectReference: {fileID: 0}
    - target: {fileID: 7337759671727113898, guid: 38973bf18f62263499add1a44902c325,
        type: 3}
      propertyPath: m_LocalRotation.x
      value: -0
      objectReference: {fileID: 0}
    - target: {fileID: 7337759671727113898, guid: 38973bf18f62263499add1a44902c325,
        type: 3}
      propertyPath: m_LocalRotation.y
      value: -0
      objectReference: {fileID: 0}
    - target: {fileID: 7337759671727113898, guid: 38973bf18f62263499add1a44902c325,
        type: 3}
      propertyPath: m_LocalRotation.z
      value: -0
      objectReference: {fileID: 0}
    - target: {fileID: 7337759671727113898, guid: 38973bf18f62263499add1a44902c325,
        type: 3}
      propertyPath: m_LocalEulerAnglesHint.x
      value: 0
      objectReference: {fileID: 0}
    - target: {fileID: 7337759671727113898, guid: 38973bf18f62263499add1a44902c325,
        type: 3}
      propertyPath: m_LocalEulerAnglesHint.y
      value: 0
      objectReference: {fileID: 0}
    - target: {fileID: 7337759671727113898, guid: 38973bf18f62263499add1a44902c325,
        type: 3}
      propertyPath: m_LocalEulerAnglesHint.z
      value: 0
      objectReference: {fileID: 0}
    m_RemovedComponents: []
  m_SourcePrefab: {fileID: 100100000, guid: 38973bf18f62263499add1a44902c325, type: 3}
--- !u!4 &855265108265422488 stripped
Transform:
  m_CorrespondingSourceObject: {fileID: 7337759671727113898, guid: 38973bf18f62263499add1a44902c325,
    type: 3}
  m_PrefabInstance: {fileID: 7929280519186483250}
  m_PrefabAsset: {fileID: 0}
