%YAML 1.1
%TAG !u! tag:unity3d.com,2011:
--- !u!1 &8723256737241863063
GameObject:
  m_ObjectHideFlags: 0
  m_CorrespondingSourceObject: {fileID: 0}
  m_PrefabInstance: {fileID: 0}
  m_PrefabAsset: {fileID: 0}
  serializedVersion: 6
  m_Component:
  - component: {fileID: 7069285167180884838}
  m_Layer: 0
  m_Name: Building_38
  m_TagString: Untagged
  m_Icon: {fileID: 0}
  m_NavMeshLayer: 0
  m_StaticEditorFlags: 0
  m_IsActive: 1
--- !u!4 &7069285167180884838
Transform:
  m_ObjectHideFlags: 0
  m_CorrespondingSourceObject: {fileID: 0}
  m_PrefabInstance: {fileID: 0}
  m_PrefabAsset: {fileID: 0}
  m_GameObject: {fileID: 8723256737241863063}
  m_LocalRotation: {x: 0, y: 0, z: 0, w: 1}
  m_LocalPosition: {x: 0, y: 0, z: 0}
  m_LocalScale: {x: 1, y: 1, z: 1}
  m_Children:
  - {fileID: 8595207647387579768}
  - {fileID: 9056272820698827622}
  - {fileID: 9128342608692931014}
  - {fileID: 2683789041370174000}
  - {fileID: 6495453195843702524}
  - {fileID: 706994394388700527}
  - {fileID: 312557820812739108}
  - {fileID: 6123817088811130564}
  - {fileID: 817198867209632897}
  - {fileID: 2263478423399211986}
  - {fileID: 2046797295321151533}
  - {fileID: 8989603577221399413}
  - {fileID: 2929961924450597295}
  - {fileID: 3266686411363763600}
  - {fileID: 4461405935247764355}
  - {fileID: 1914482272219294243}
  - {fileID: 4895347555587655096}
  - {fileID: 5401081723779701094}
  - {fileID: 792767287618409575}
  - {fileID: 3145261817413290577}
  - {fileID: 8793314416263024266}
  - {fileID: 7444509359130102453}
  - {fileID: 8926229947598339407}
  - {fileID: 3278754428765526033}
  - {fileID: 1677521756787380464}
  - {fileID: 5762600374285555876}
  - {fileID: 6415204412818106321}
  - {fileID: 8950054201411269147}
  m_Father: {fileID: 0}
  m_RootOrder: 0
  m_LocalEulerAnglesHint: {x: 0, y: 0, z: 0}
--- !u!1001 &81097707114194893
PrefabInstance:
  m_ObjectHideFlags: 0
  serializedVersion: 2
  m_Modification:
    m_TransformParent: {fileID: 7069285167180884838}
    m_Modifications:
    - target: {fileID: 8683954612789038458, guid: 2842fbfa21002f54298f0aeb992e6415,
        type: 3}
      propertyPath: m_Name
      value: GardenBed2 (1)
      objectReference: {fileID: 0}
    - target: {fileID: 5681505803307138921, guid: 2842fbfa21002f54298f0aeb992e6415,
        type: 3}
      propertyPath: m_LocalPosition.x
      value: -8.392
      objectReference: {fileID: 0}
    - target: {fileID: 5681505803307138921, guid: 2842fbfa21002f54298f0aeb992e6415,
        type: 3}
      propertyPath: m_LocalPosition.y
      value: 0.15
      objectReference: {fileID: 0}
    - target: {fileID: 5681505803307138921, guid: 2842fbfa21002f54298f0aeb992e6415,
        type: 3}
      propertyPath: m_LocalPosition.z
      value: -3.759998
      objectReference: {fileID: 0}
    - target: {fileID: 5681505803307138921, guid: 2842fbfa21002f54298f0aeb992e6415,
        type: 3}
      propertyPath: m_LocalRotation.x
      value: 0
      objectReference: {fileID: 0}
    - target: {fileID: 5681505803307138921, guid: 2842fbfa21002f54298f0aeb992e6415,
        type: 3}
      propertyPath: m_LocalRotation.y
      value: 0.7071068
      objectReference: {fileID: 0}
    - target: {fileID: 5681505803307138921, guid: 2842fbfa21002f54298f0aeb992e6415,
        type: 3}
      propertyPath: m_LocalRotation.z
      value: 0
      objectReference: {fileID: 0}
    - target: {fileID: 5681505803307138921, guid: 2842fbfa21002f54298f0aeb992e6415,
        type: 3}
      propertyPath: m_LocalRotation.w
      value: 0.7071068
      objectReference: {fileID: 0}
    - target: {fileID: 5681505803307138921, guid: 2842fbfa21002f54298f0aeb992e6415,
        type: 3}
      propertyPath: m_RootOrder
      value: 25
      objectReference: {fileID: 0}
    - target: {fileID: 5681505803307138921, guid: 2842fbfa21002f54298f0aeb992e6415,
        type: 3}
      propertyPath: m_LocalEulerAnglesHint.x
      value: 0
      objectReference: {fileID: 0}
    - target: {fileID: 5681505803307138921, guid: 2842fbfa21002f54298f0aeb992e6415,
        type: 3}
      propertyPath: m_LocalEulerAnglesHint.y
      value: 90
      objectReference: {fileID: 0}
    - target: {fileID: 5681505803307138921, guid: 2842fbfa21002f54298f0aeb992e6415,
        type: 3}
      propertyPath: m_LocalEulerAnglesHint.z
      value: 0
      objectReference: {fileID: 0}
    m_RemovedComponents: []
  m_SourcePrefab: {fileID: 100100000, guid: 2842fbfa21002f54298f0aeb992e6415, type: 3}
--- !u!4 &5762600374285555876 stripped
Transform:
  m_CorrespondingSourceObject: {fileID: 5681505803307138921, guid: 2842fbfa21002f54298f0aeb992e6415,
    type: 3}
  m_PrefabInstance: {fileID: 81097707114194893}
  m_PrefabAsset: {fileID: 0}
--- !u!1001 &106175022892657971
PrefabInstance:
  m_ObjectHideFlags: 0
  serializedVersion: 2
  m_Modification:
    m_TransformParent: {fileID: 7069285167180884838}
    m_Modifications:
    - target: {fileID: 3293247596863567107, guid: 80761326030f37c4ca58f97545db667a,
        type: 3}
      propertyPath: m_Name
      value: Bush (8)
      objectReference: {fileID: 0}
    - target: {fileID: 2011049533800236816, guid: 80761326030f37c4ca58f97545db667a,
        type: 3}
      propertyPath: m_LocalPosition.x
      value: 0
      objectReference: {fileID: 0}
    - target: {fileID: 2011049533800236816, guid: 80761326030f37c4ca58f97545db667a,
        type: 3}
      propertyPath: m_LocalPosition.y
      value: 0.15
      objectReference: {fileID: 0}
    - target: {fileID: 2011049533800236816, guid: 80761326030f37c4ca58f97545db667a,
        type: 3}
      propertyPath: m_LocalPosition.z
      value: -5
      objectReference: {fileID: 0}
    - target: {fileID: 2011049533800236816, guid: 80761326030f37c4ca58f97545db667a,
        type: 3}
      propertyPath: m_LocalRotation.x
      value: 0
      objectReference: {fileID: 0}
    - target: {fileID: 2011049533800236816, guid: 80761326030f37c4ca58f97545db667a,
        type: 3}
      propertyPath: m_LocalRotation.y
      value: 0.7071068
      objectReference: {fileID: 0}
    - target: {fileID: 2011049533800236816, guid: 80761326030f37c4ca58f97545db667a,
        type: 3}
      propertyPath: m_LocalRotation.z
      value: 0
      objectReference: {fileID: 0}
    - target: {fileID: 2011049533800236816, guid: 80761326030f37c4ca58f97545db667a,
        type: 3}
      propertyPath: m_LocalRotation.w
      value: 0.7071068
      objectReference: {fileID: 0}
    - target: {fileID: 2011049533800236816, guid: 80761326030f37c4ca58f97545db667a,
        type: 3}
      propertyPath: m_RootOrder
      value: 15
      objectReference: {fileID: 0}
    - target: {fileID: 2011049533800236816, guid: 80761326030f37c4ca58f97545db667a,
        type: 3}
      propertyPath: m_LocalEulerAnglesHint.x
      value: 0
      objectReference: {fileID: 0}
    - target: {fileID: 2011049533800236816, guid: 80761326030f37c4ca58f97545db667a,
        type: 3}
      propertyPath: m_LocalEulerAnglesHint.y
      value: 90
      objectReference: {fileID: 0}
    - target: {fileID: 2011049533800236816, guid: 80761326030f37c4ca58f97545db667a,
        type: 3}
      propertyPath: m_LocalEulerAnglesHint.z
      value: 0
      objectReference: {fileID: 0}
    m_RemovedComponents: []
  m_SourcePrefab: {fileID: 100100000, guid: 80761326030f37c4ca58f97545db667a, type: 3}
--- !u!4 &1914482272219294243 stripped
Transform:
  m_CorrespondingSourceObject: {fileID: 2011049533800236816, guid: 80761326030f37c4ca58f97545db667a,
    type: 3}
  m_PrefabInstance: {fileID: 106175022892657971}
  m_PrefabAsset: {fileID: 0}
--- !u!1001 &116140683079668075
PrefabInstance:
  m_ObjectHideFlags: 0
  serializedVersion: 2
  m_Modification:
    m_TransformParent: {fileID: 7069285167180884838}
    m_Modifications:
    - target: {fileID: 4652090175675454976, guid: 715c826bb4fc25c429dc7c65bb8f8b43,
        type: 3}
      propertyPath: m_Name
      value: Grass (3)
      objectReference: {fileID: 0}
    - target: {fileID: 8562700260742177811, guid: 715c826bb4fc25c429dc7c65bb8f8b43,
        type: 3}
      propertyPath: m_LocalPosition.x
      value: 0
      objectReference: {fileID: 0}
    - target: {fileID: 8562700260742177811, guid: 715c826bb4fc25c429dc7c65bb8f8b43,
        type: 3}
      propertyPath: m_LocalPosition.y
      value: 0
      objectReference: {fileID: 0}
    - target: {fileID: 8562700260742177811, guid: 715c826bb4fc25c429dc7c65bb8f8b43,
        type: 3}
      propertyPath: m_LocalPosition.z
      value: -5
      objectReference: {fileID: 0}
    - target: {fileID: 8562700260742177811, guid: 715c826bb4fc25c429dc7c65bb8f8b43,
        type: 3}
      propertyPath: m_LocalRotation.x
      value: 0.00000006657903
      objectReference: {fileID: 0}
    - target: {fileID: 8562700260742177811, guid: 715c826bb4fc25c429dc7c65bb8f8b43,
        type: 3}
      propertyPath: m_LocalRotation.y
      value: -0
      objectReference: {fileID: 0}
    - target: {fileID: 8562700260742177811, guid: 715c826bb4fc25c429dc7c65bb8f8b43,
        type: 3}
      propertyPath: m_LocalRotation.z
      value: -0
      objectReference: {fileID: 0}
    - target: {fileID: 8562700260742177811, guid: 715c826bb4fc25c429dc7c65bb8f8b43,
        type: 3}
      propertyPath: m_LocalRotation.w
      value: 1
      objectReference: {fileID: 0}
    - target: {fileID: 8562700260742177811, guid: 715c826bb4fc25c429dc7c65bb8f8b43,
        type: 3}
      propertyPath: m_RootOrder
      value: 0
      objectReference: {fileID: 0}
    - target: {fileID: 8562700260742177811, guid: 715c826bb4fc25c429dc7c65bb8f8b43,
        type: 3}
      propertyPath: m_LocalEulerAnglesHint.x
      value: 0
      objectReference: {fileID: 0}
    - target: {fileID: 8562700260742177811, guid: 715c826bb4fc25c429dc7c65bb8f8b43,
        type: 3}
      propertyPath: m_LocalEulerAnglesHint.y
      value: 0
      objectReference: {fileID: 0}
    - target: {fileID: 8562700260742177811, guid: 715c826bb4fc25c429dc7c65bb8f8b43,
        type: 3}
      propertyPath: m_LocalEulerAnglesHint.z
      value: 0
      objectReference: {fileID: 0}
    m_RemovedComponents: []
  m_SourcePrefab: {fileID: 100100000, guid: 715c826bb4fc25c429dc7c65bb8f8b43, type: 3}
--- !u!4 &8595207647387579768 stripped
Transform:
  m_CorrespondingSourceObject: {fileID: 8562700260742177811, guid: 715c826bb4fc25c429dc7c65bb8f8b43,
    type: 3}
  m_PrefabInstance: {fileID: 116140683079668075}
  m_PrefabAsset: {fileID: 0}
--- !u!1001 &324772951798342850
PrefabInstance:
  m_ObjectHideFlags: 0
  serializedVersion: 2
  m_Modification:
    m_TransformParent: {fileID: 7069285167180884838}
    m_Modifications:
    - target: {fileID: 3293247596863567107, guid: 80761326030f37c4ca58f97545db667a,
        type: 3}
      propertyPath: m_Name
      value: Bush (1)
      objectReference: {fileID: 0}
    - target: {fileID: 2011049533800236816, guid: 80761326030f37c4ca58f97545db667a,
        type: 3}
      propertyPath: m_LocalPosition.x
      value: -14.5
      objectReference: {fileID: 0}
    - target: {fileID: 2011049533800236816, guid: 80761326030f37c4ca58f97545db667a,
        type: 3}
      propertyPath: m_LocalPosition.y
      value: 0.15
      objectReference: {fileID: 0}
    - target: {fileID: 2011049533800236816, guid: 80761326030f37c4ca58f97545db667a,
        type: 3}
      propertyPath: m_LocalPosition.z
      value: -5
      objectReference: {fileID: 0}
    - target: {fileID: 2011049533800236816, guid: 80761326030f37c4ca58f97545db667a,
        type: 3}
      propertyPath: m_LocalRotation.x
      value: 0
      objectReference: {fileID: 0}
    - target: {fileID: 2011049533800236816, guid: 80761326030f37c4ca58f97545db667a,
        type: 3}
      propertyPath: m_LocalRotation.y
      value: 0.7071068
      objectReference: {fileID: 0}
    - target: {fileID: 2011049533800236816, guid: 80761326030f37c4ca58f97545db667a,
        type: 3}
      propertyPath: m_LocalRotation.z
      value: 0
      objectReference: {fileID: 0}
    - target: {fileID: 2011049533800236816, guid: 80761326030f37c4ca58f97545db667a,
        type: 3}
      propertyPath: m_LocalRotation.w
      value: 0.7071068
      objectReference: {fileID: 0}
    - target: {fileID: 2011049533800236816, guid: 80761326030f37c4ca58f97545db667a,
        type: 3}
      propertyPath: m_RootOrder
      value: 9
      objectReference: {fileID: 0}
    - target: {fileID: 2011049533800236816, guid: 80761326030f37c4ca58f97545db667a,
        type: 3}
      propertyPath: m_LocalEulerAnglesHint.x
      value: 0
      objectReference: {fileID: 0}
    - target: {fileID: 2011049533800236816, guid: 80761326030f37c4ca58f97545db667a,
        type: 3}
      propertyPath: m_LocalEulerAnglesHint.y
      value: 90
      objectReference: {fileID: 0}
    - target: {fileID: 2011049533800236816, guid: 80761326030f37c4ca58f97545db667a,
        type: 3}
      propertyPath: m_LocalEulerAnglesHint.z
      value: 0
      objectReference: {fileID: 0}
    m_RemovedComponents: []
  m_SourcePrefab: {fileID: 100100000, guid: 80761326030f37c4ca58f97545db667a, type: 3}
--- !u!4 &2263478423399211986 stripped
Transform:
  m_CorrespondingSourceObject: {fileID: 2011049533800236816, guid: 80761326030f37c4ca58f97545db667a,
    type: 3}
  m_PrefabInstance: {fileID: 324772951798342850}
  m_PrefabAsset: {fileID: 0}
--- !u!1001 &544655930750943037
PrefabInstance:
  m_ObjectHideFlags: 0
  serializedVersion: 2
  m_Modification:
    m_TransformParent: {fileID: 7069285167180884838}
    m_Modifications:
    - target: {fileID: 3293247596863567107, guid: 80761326030f37c4ca58f97545db667a,
        type: 3}
      propertyPath: m_Name
      value: Bush (2)
      objectReference: {fileID: 0}
    - target: {fileID: 2011049533800236816, guid: 80761326030f37c4ca58f97545db667a,
        type: 3}
      propertyPath: m_LocalPosition.x
      value: -14.5
      objectReference: {fileID: 0}
    - target: {fileID: 2011049533800236816, guid: 80761326030f37c4ca58f97545db667a,
        type: 3}
      propertyPath: m_LocalPosition.y
      value: 0.15
      objectReference: {fileID: 0}
    - target: {fileID: 2011049533800236816, guid: 80761326030f37c4ca58f97545db667a,
        type: 3}
      propertyPath: m_LocalPosition.z
      value: -10
      objectReference: {fileID: 0}
    - target: {fileID: 2011049533800236816, guid: 80761326030f37c4ca58f97545db667a,
        type: 3}
      propertyPath: m_LocalRotation.x
      value: 0
      objectReference: {fileID: 0}
    - target: {fileID: 2011049533800236816, guid: 80761326030f37c4ca58f97545db667a,
        type: 3}
      propertyPath: m_LocalRotation.y
      value: 0.7071068
      objectReference: {fileID: 0}
    - target: {fileID: 2011049533800236816, guid: 80761326030f37c4ca58f97545db667a,
        type: 3}
      propertyPath: m_LocalRotation.z
      value: 0
      objectReference: {fileID: 0}
    - target: {fileID: 2011049533800236816, guid: 80761326030f37c4ca58f97545db667a,
        type: 3}
      propertyPath: m_LocalRotation.w
      value: 0.7071068
      objectReference: {fileID: 0}
    - target: {fileID: 2011049533800236816, guid: 80761326030f37c4ca58f97545db667a,
        type: 3}
      propertyPath: m_RootOrder
      value: 10
      objectReference: {fileID: 0}
    - target: {fileID: 2011049533800236816, guid: 80761326030f37c4ca58f97545db667a,
        type: 3}
      propertyPath: m_LocalEulerAnglesHint.x
      value: 0
      objectReference: {fileID: 0}
    - target: {fileID: 2011049533800236816, guid: 80761326030f37c4ca58f97545db667a,
        type: 3}
      propertyPath: m_LocalEulerAnglesHint.y
      value: 90
      objectReference: {fileID: 0}
    - target: {fileID: 2011049533800236816, guid: 80761326030f37c4ca58f97545db667a,
        type: 3}
      propertyPath: m_LocalEulerAnglesHint.z
      value: 0
      objectReference: {fileID: 0}
    m_RemovedComponents: []
  m_SourcePrefab: {fileID: 100100000, guid: 80761326030f37c4ca58f97545db667a, type: 3}
--- !u!4 &2046797295321151533 stripped
Transform:
  m_CorrespondingSourceObject: {fileID: 2011049533800236816, guid: 80761326030f37c4ca58f97545db667a,
    type: 3}
  m_PrefabInstance: {fileID: 544655930750943037}
  m_PrefabAsset: {fileID: 0}
--- !u!1001 &610996103505694165
PrefabInstance:
  m_ObjectHideFlags: 0
  serializedVersion: 2
  m_Modification:
    m_TransformParent: {fileID: 7069285167180884838}
    m_Modifications:
    - target: {fileID: 4652090175675454976, guid: 715c826bb4fc25c429dc7c65bb8f8b43,
        type: 3}
      propertyPath: m_Name
      value: Grass (6)
      objectReference: {fileID: 0}
    - target: {fileID: 8562700260742177811, guid: 715c826bb4fc25c429dc7c65bb8f8b43,
        type: 3}
      propertyPath: m_LocalPosition.x
      value: -5
      objectReference: {fileID: 0}
    - target: {fileID: 8562700260742177811, guid: 715c826bb4fc25c429dc7c65bb8f8b43,
        type: 3}
      propertyPath: m_LocalPosition.y
      value: 0
      objectReference: {fileID: 0}
    - target: {fileID: 8562700260742177811, guid: 715c826bb4fc25c429dc7c65bb8f8b43,
        type: 3}
      propertyPath: m_LocalPosition.z
      value: -10
      objectReference: {fileID: 0}
    - target: {fileID: 8562700260742177811, guid: 715c826bb4fc25c429dc7c65bb8f8b43,
        type: 3}
      propertyPath: m_LocalRotation.x
      value: 0.00000006657903
      objectReference: {fileID: 0}
    - target: {fileID: 8562700260742177811, guid: 715c826bb4fc25c429dc7c65bb8f8b43,
        type: 3}
      propertyPath: m_LocalRotation.y
      value: -0
      objectReference: {fileID: 0}
    - target: {fileID: 8562700260742177811, guid: 715c826bb4fc25c429dc7c65bb8f8b43,
        type: 3}
      propertyPath: m_LocalRotation.z
      value: -0
      objectReference: {fileID: 0}
    - target: {fileID: 8562700260742177811, guid: 715c826bb4fc25c429dc7c65bb8f8b43,
        type: 3}
      propertyPath: m_LocalRotation.w
      value: 1
      objectReference: {fileID: 0}
    - target: {fileID: 8562700260742177811, guid: 715c826bb4fc25c429dc7c65bb8f8b43,
        type: 3}
      propertyPath: m_RootOrder
      value: 2
      objectReference: {fileID: 0}
    - target: {fileID: 8562700260742177811, guid: 715c826bb4fc25c429dc7c65bb8f8b43,
        type: 3}
      propertyPath: m_LocalEulerAnglesHint.x
      value: 0
      objectReference: {fileID: 0}
    - target: {fileID: 8562700260742177811, guid: 715c826bb4fc25c429dc7c65bb8f8b43,
        type: 3}
      propertyPath: m_LocalEulerAnglesHint.y
      value: 0
      objectReference: {fileID: 0}
    - target: {fileID: 8562700260742177811, guid: 715c826bb4fc25c429dc7c65bb8f8b43,
        type: 3}
      propertyPath: m_LocalEulerAnglesHint.z
      value: 0
      objectReference: {fileID: 0}
    m_RemovedComponents: []
  m_SourcePrefab: {fileID: 100100000, guid: 715c826bb4fc25c429dc7c65bb8f8b43, type: 3}
--- !u!4 &9128342608692931014 stripped
Transform:
  m_CorrespondingSourceObject: {fileID: 8562700260742177811, guid: 715c826bb4fc25c429dc7c65bb8f8b43,
    type: 3}
  m_PrefabInstance: {fileID: 610996103505694165}
  m_PrefabAsset: {fileID: 0}
--- !u!1001 &750516571297777622
PrefabInstance:
  m_ObjectHideFlags: 0
  serializedVersion: 2
  m_Modification:
    m_TransformParent: {fileID: 7069285167180884838}
    m_Modifications:
    - target: {fileID: 8181360470309299897, guid: efc101d77bd5c9f41b5d15309ded0e47,
        type: 3}
      propertyPath: m_Name
      value: Building_38
      objectReference: {fileID: 0}
    - target: {fileID: 8181360470309141145, guid: efc101d77bd5c9f41b5d15309ded0e47,
        type: 3}
      propertyPath: m_LocalPosition.x
      value: -2.19
      objectReference: {fileID: 0}
    - target: {fileID: 8181360470309141145, guid: efc101d77bd5c9f41b5d15309ded0e47,
        type: 3}
      propertyPath: m_LocalPosition.y
      value: 0.15
      objectReference: {fileID: 0}
    - target: {fileID: 8181360470309141145, guid: efc101d77bd5c9f41b5d15309ded0e47,
        type: 3}
      propertyPath: m_LocalPosition.z
      value: -4.15
      objectReference: {fileID: 0}
    - target: {fileID: 8181360470309141145, guid: efc101d77bd5c9f41b5d15309ded0e47,
        type: 3}
      propertyPath: m_LocalRotation.x
      value: 0
      objectReference: {fileID: 0}
    - target: {fileID: 8181360470309141145, guid: efc101d77bd5c9f41b5d15309ded0e47,
        type: 3}
      propertyPath: m_LocalRotation.y
      value: -0
      objectReference: {fileID: 0}
    - target: {fileID: 8181360470309141145, guid: efc101d77bd5c9f41b5d15309ded0e47,
        type: 3}
      propertyPath: m_LocalRotation.z
      value: -0
      objectReference: {fileID: 0}
    - target: {fileID: 8181360470309141145, guid: efc101d77bd5c9f41b5d15309ded0e47,
        type: 3}
      propertyPath: m_LocalRotation.w
      value: 1
      objectReference: {fileID: 0}
    - target: {fileID: 8181360470309141145, guid: efc101d77bd5c9f41b5d15309ded0e47,
        type: 3}
      propertyPath: m_RootOrder
      value: 22
      objectReference: {fileID: 0}
    - target: {fileID: 8181360470309141145, guid: efc101d77bd5c9f41b5d15309ded0e47,
        type: 3}
      propertyPath: m_LocalEulerAnglesHint.x
      value: 0
      objectReference: {fileID: 0}
    - target: {fileID: 8181360470309141145, guid: efc101d77bd5c9f41b5d15309ded0e47,
        type: 3}
      propertyPath: m_LocalEulerAnglesHint.y
      value: 0
      objectReference: {fileID: 0}
    - target: {fileID: 8181360470309141145, guid: efc101d77bd5c9f41b5d15309ded0e47,
        type: 3}
      propertyPath: m_LocalEulerAnglesHint.z
      value: 0
      objectReference: {fileID: 0}
    m_RemovedComponents: []
  m_SourcePrefab: {fileID: 100100000, guid: efc101d77bd5c9f41b5d15309ded0e47, type: 3}
--- !u!4 &8926229947598339407 stripped
Transform:
  m_CorrespondingSourceObject: {fileID: 8181360470309141145, guid: efc101d77bd5c9f41b5d15309ded0e47,
    type: 3}
  m_PrefabInstance: {fileID: 750516571297777622}
  m_PrefabAsset: {fileID: 0}
--- !u!1001 &827125905358450549
PrefabInstance:
  m_ObjectHideFlags: 0
  serializedVersion: 2
  m_Modification:
    m_TransformParent: {fileID: 7069285167180884838}
    m_Modifications:
    - target: {fileID: 4652090175675454976, guid: 715c826bb4fc25c429dc7c65bb8f8b43,
        type: 3}
      propertyPath: m_Name
      value: Grass (4)
      objectReference: {fileID: 0}
    - target: {fileID: 8562700260742177811, guid: 715c826bb4fc25c429dc7c65bb8f8b43,
        type: 3}
      propertyPath: m_LocalPosition.x
      value: -5
      objectReference: {fileID: 0}
    - target: {fileID: 8562700260742177811, guid: 715c826bb4fc25c429dc7c65bb8f8b43,
        type: 3}
      propertyPath: m_LocalPosition.y
      value: 0
      objectReference: {fileID: 0}
    - target: {fileID: 8562700260742177811, guid: 715c826bb4fc25c429dc7c65bb8f8b43,
        type: 3}
      propertyPath: m_LocalPosition.z
      value: -5
      objectReference: {fileID: 0}
    - target: {fileID: 8562700260742177811, guid: 715c826bb4fc25c429dc7c65bb8f8b43,
        type: 3}
      propertyPath: m_LocalRotation.x
      value: 0.00000006657903
      objectReference: {fileID: 0}
    - target: {fileID: 8562700260742177811, guid: 715c826bb4fc25c429dc7c65bb8f8b43,
        type: 3}
      propertyPath: m_LocalRotation.y
      value: -0
      objectReference: {fileID: 0}
    - target: {fileID: 8562700260742177811, guid: 715c826bb4fc25c429dc7c65bb8f8b43,
        type: 3}
      propertyPath: m_LocalRotation.z
      value: -0
      objectReference: {fileID: 0}
    - target: {fileID: 8562700260742177811, guid: 715c826bb4fc25c429dc7c65bb8f8b43,
        type: 3}
      propertyPath: m_LocalRotation.w
      value: 1
      objectReference: {fileID: 0}
    - target: {fileID: 8562700260742177811, guid: 715c826bb4fc25c429dc7c65bb8f8b43,
        type: 3}
      propertyPath: m_RootOrder
      value: 1
      objectReference: {fileID: 0}
    - target: {fileID: 8562700260742177811, guid: 715c826bb4fc25c429dc7c65bb8f8b43,
        type: 3}
      propertyPath: m_LocalEulerAnglesHint.x
      value: 0
      objectReference: {fileID: 0}
    - target: {fileID: 8562700260742177811, guid: 715c826bb4fc25c429dc7c65bb8f8b43,
        type: 3}
      propertyPath: m_LocalEulerAnglesHint.y
      value: 0
      objectReference: {fileID: 0}
    - target: {fileID: 8562700260742177811, guid: 715c826bb4fc25c429dc7c65bb8f8b43,
        type: 3}
      propertyPath: m_LocalEulerAnglesHint.z
      value: 0
      objectReference: {fileID: 0}
    m_RemovedComponents: []
  m_SourcePrefab: {fileID: 100100000, guid: 715c826bb4fc25c429dc7c65bb8f8b43, type: 3}
--- !u!4 &9056272820698827622 stripped
Transform:
  m_CorrespondingSourceObject: {fileID: 8562700260742177811, guid: 715c826bb4fc25c429dc7c65bb8f8b43,
    type: 3}
  m_PrefabInstance: {fileID: 827125905358450549}
  m_PrefabAsset: {fileID: 0}
--- !u!1001 &1206939339980897169
PrefabInstance:
  m_ObjectHideFlags: 0
  serializedVersion: 2
  m_Modification:
    m_TransformParent: {fileID: 7069285167180884838}
    m_Modifications:
    - target: {fileID: 3293247596863567107, guid: 80761326030f37c4ca58f97545db667a,
        type: 3}
      propertyPath: m_Name
      value: Bush
      objectReference: {fileID: 0}
    - target: {fileID: 2011049533800236816, guid: 80761326030f37c4ca58f97545db667a,
        type: 3}
      propertyPath: m_LocalPosition.x
      value: -9.85
      objectReference: {fileID: 0}
    - target: {fileID: 2011049533800236816, guid: 80761326030f37c4ca58f97545db667a,
        type: 3}
      propertyPath: m_LocalPosition.y
      value: 0.15
      objectReference: {fileID: 0}
    - target: {fileID: 2011049533800236816, guid: 80761326030f37c4ca58f97545db667a,
        type: 3}
      propertyPath: m_LocalPosition.z
      value: 0
      objectReference: {fileID: 0}
    - target: {fileID: 2011049533800236816, guid: 80761326030f37c4ca58f97545db667a,
        type: 3}
      propertyPath: m_LocalRotation.x
      value: 0.00000006657903
      objectReference: {fileID: 0}
    - target: {fileID: 2011049533800236816, guid: 80761326030f37c4ca58f97545db667a,
        type: 3}
      propertyPath: m_LocalRotation.y
      value: -0
      objectReference: {fileID: 0}
    - target: {fileID: 2011049533800236816, guid: 80761326030f37c4ca58f97545db667a,
        type: 3}
      propertyPath: m_LocalRotation.z
      value: -0
      objectReference: {fileID: 0}
    - target: {fileID: 2011049533800236816, guid: 80761326030f37c4ca58f97545db667a,
        type: 3}
      propertyPath: m_LocalRotation.w
      value: 1
      objectReference: {fileID: 0}
    - target: {fileID: 2011049533800236816, guid: 80761326030f37c4ca58f97545db667a,
        type: 3}
      propertyPath: m_RootOrder
      value: 8
      objectReference: {fileID: 0}
    - target: {fileID: 2011049533800236816, guid: 80761326030f37c4ca58f97545db667a,
        type: 3}
      propertyPath: m_LocalEulerAnglesHint.x
      value: 0
      objectReference: {fileID: 0}
    - target: {fileID: 2011049533800236816, guid: 80761326030f37c4ca58f97545db667a,
        type: 3}
      propertyPath: m_LocalEulerAnglesHint.y
      value: 0
      objectReference: {fileID: 0}
    - target: {fileID: 2011049533800236816, guid: 80761326030f37c4ca58f97545db667a,
        type: 3}
      propertyPath: m_LocalEulerAnglesHint.z
      value: 0
      objectReference: {fileID: 0}
    - target: {fileID: 2011049533800236816, guid: 80761326030f37c4ca58f97545db667a,
        type: 3}
      propertyPath: m_LocalScale.x
      value: 1
      objectReference: {fileID: 0}
    m_RemovedComponents: []
  m_SourcePrefab: {fileID: 100100000, guid: 80761326030f37c4ca58f97545db667a, type: 3}
--- !u!4 &817198867209632897 stripped
Transform:
  m_CorrespondingSourceObject: {fileID: 2011049533800236816, guid: 80761326030f37c4ca58f97545db667a,
    type: 3}
  m_PrefabInstance: {fileID: 1206939339980897169}
  m_PrefabAsset: {fileID: 0}
--- !u!1001 &1218460371361944439
PrefabInstance:
  m_ObjectHideFlags: 0
  serializedVersion: 2
  m_Modification:
    m_TransformParent: {fileID: 7069285167180884838}
    m_Modifications:
    - target: {fileID: 3293247596863567107, guid: 80761326030f37c4ca58f97545db667a,
        type: 3}
      propertyPath: m_Name
      value: Bush (12)
      objectReference: {fileID: 0}
    - target: {fileID: 2011049533800236816, guid: 80761326030f37c4ca58f97545db667a,
        type: 3}
      propertyPath: m_LocalPosition.x
      value: -0.5
      objectReference: {fileID: 0}
    - target: {fileID: 2011049533800236816, guid: 80761326030f37c4ca58f97545db667a,
        type: 3}
      propertyPath: m_LocalPosition.y
      value: 0.15
      objectReference: {fileID: 0}
    - target: {fileID: 2011049533800236816, guid: 80761326030f37c4ca58f97545db667a,
        type: 3}
      propertyPath: m_LocalPosition.z
      value: 0
      objectReference: {fileID: 0}
    - target: {fileID: 2011049533800236816, guid: 80761326030f37c4ca58f97545db667a,
        type: 3}
      propertyPath: m_LocalRotation.x
      value: 0.00000006657903
      objectReference: {fileID: 0}
    - target: {fileID: 2011049533800236816, guid: 80761326030f37c4ca58f97545db667a,
        type: 3}
      propertyPath: m_LocalRotation.y
      value: -0
      objectReference: {fileID: 0}
    - target: {fileID: 2011049533800236816, guid: 80761326030f37c4ca58f97545db667a,
        type: 3}
      propertyPath: m_LocalRotation.z
      value: -0
      objectReference: {fileID: 0}
    - target: {fileID: 2011049533800236816, guid: 80761326030f37c4ca58f97545db667a,
        type: 3}
      propertyPath: m_LocalRotation.w
      value: 1
      objectReference: {fileID: 0}
    - target: {fileID: 2011049533800236816, guid: 80761326030f37c4ca58f97545db667a,
        type: 3}
      propertyPath: m_RootOrder
      value: 18
      objectReference: {fileID: 0}
    - target: {fileID: 2011049533800236816, guid: 80761326030f37c4ca58f97545db667a,
        type: 3}
      propertyPath: m_LocalEulerAnglesHint.x
      value: 0
      objectReference: {fileID: 0}
    - target: {fileID: 2011049533800236816, guid: 80761326030f37c4ca58f97545db667a,
        type: 3}
      propertyPath: m_LocalEulerAnglesHint.y
      value: 0
      objectReference: {fileID: 0}
    - target: {fileID: 2011049533800236816, guid: 80761326030f37c4ca58f97545db667a,
        type: 3}
      propertyPath: m_LocalEulerAnglesHint.z
      value: 0
      objectReference: {fileID: 0}
    - target: {fileID: 2011049533800236816, guid: 80761326030f37c4ca58f97545db667a,
        type: 3}
      propertyPath: m_LocalScale.x
      value: 1
      objectReference: {fileID: 0}
    m_RemovedComponents: []
  m_SourcePrefab: {fileID: 100100000, guid: 80761326030f37c4ca58f97545db667a, type: 3}
--- !u!4 &792767287618409575 stripped
Transform:
  m_CorrespondingSourceObject: {fileID: 2011049533800236816, guid: 80761326030f37c4ca58f97545db667a,
    type: 3}
  m_PrefabInstance: {fileID: 1218460371361944439}
  m_PrefabAsset: {fileID: 0}
--- !u!1001 &1890398358214479910
PrefabInstance:
  m_ObjectHideFlags: 0
  serializedVersion: 2
  m_Modification:
    m_TransformParent: {fileID: 7069285167180884838}
    m_Modifications:
    - target: {fileID: 137125980925016612, guid: a39f926a01713a242b8b2bb732293ccd,
        type: 3}
      propertyPath: m_Name
      value: Tree
      objectReference: {fileID: 0}
    - target: {fileID: 4016210872678860855, guid: a39f926a01713a242b8b2bb732293ccd,
        type: 3}
      propertyPath: m_LocalPosition.x
      value: -0.84
      objectReference: {fileID: 0}
    - target: {fileID: 4016210872678860855, guid: a39f926a01713a242b8b2bb732293ccd,
        type: 3}
      propertyPath: m_LocalPosition.y
      value: 0.15
      objectReference: {fileID: 0}
    - target: {fileID: 4016210872678860855, guid: a39f926a01713a242b8b2bb732293ccd,
        type: 3}
      propertyPath: m_LocalPosition.z
      value: -0.95
      objectReference: {fileID: 0}
    - target: {fileID: 4016210872678860855, guid: a39f926a01713a242b8b2bb732293ccd,
        type: 3}
      propertyPath: m_LocalRotation.x
      value: 0.00000006657903
      objectReference: {fileID: 0}
    - target: {fileID: 4016210872678860855, guid: a39f926a01713a242b8b2bb732293ccd,
        type: 3}
      propertyPath: m_LocalRotation.y
      value: -0
      objectReference: {fileID: 0}
    - target: {fileID: 4016210872678860855, guid: a39f926a01713a242b8b2bb732293ccd,
        type: 3}
      propertyPath: m_LocalRotation.z
      value: -0
      objectReference: {fileID: 0}
    - target: {fileID: 4016210872678860855, guid: a39f926a01713a242b8b2bb732293ccd,
        type: 3}
      propertyPath: m_LocalRotation.w
      value: 1
      objectReference: {fileID: 0}
    - target: {fileID: 4016210872678860855, guid: a39f926a01713a242b8b2bb732293ccd,
        type: 3}
      propertyPath: m_RootOrder
      value: 23
      objectReference: {fileID: 0}
    - target: {fileID: 4016210872678860855, guid: a39f926a01713a242b8b2bb732293ccd,
        type: 3}
      propertyPath: m_LocalEulerAnglesHint.x
      value: 0
      objectReference: {fileID: 0}
    - target: {fileID: 4016210872678860855, guid: a39f926a01713a242b8b2bb732293ccd,
        type: 3}
      propertyPath: m_LocalEulerAnglesHint.y
      value: 0
      objectReference: {fileID: 0}
    - target: {fileID: 4016210872678860855, guid: a39f926a01713a242b8b2bb732293ccd,
        type: 3}
      propertyPath: m_LocalEulerAnglesHint.z
      value: 0
      objectReference: {fileID: 0}
    m_RemovedComponents: []
  m_SourcePrefab: {fileID: 100100000, guid: a39f926a01713a242b8b2bb732293ccd, type: 3}
--- !u!4 &3278754428765526033 stripped
Transform:
  m_CorrespondingSourceObject: {fileID: 4016210872678860855, guid: a39f926a01713a242b8b2bb732293ccd,
    type: 3}
  m_PrefabInstance: {fileID: 1890398358214479910}
  m_PrefabAsset: {fileID: 0}
--- !u!1001 &2461491762739509975
PrefabInstance:
  m_ObjectHideFlags: 0
  serializedVersion: 2
  m_Modification:
    m_TransformParent: {fileID: 7069285167180884838}
    m_Modifications:
    - target: {fileID: 4652090175675454976, guid: 715c826bb4fc25c429dc7c65bb8f8b43,
        type: 3}
      propertyPath: m_Name
      value: Grass (13)
      objectReference: {fileID: 0}
    - target: {fileID: 8562700260742177811, guid: 715c826bb4fc25c429dc7c65bb8f8b43,
        type: 3}
      propertyPath: m_LocalPosition.x
      value: -10
      objectReference: {fileID: 0}
    - target: {fileID: 8562700260742177811, guid: 715c826bb4fc25c429dc7c65bb8f8b43,
        type: 3}
      propertyPath: m_LocalPosition.y
      value: 0
      objectReference: {fileID: 0}
    - target: {fileID: 8562700260742177811, guid: 715c826bb4fc25c429dc7c65bb8f8b43,
        type: 3}
      propertyPath: m_LocalPosition.z
      value: -5
      objectReference: {fileID: 0}
    - target: {fileID: 8562700260742177811, guid: 715c826bb4fc25c429dc7c65bb8f8b43,
        type: 3}
      propertyPath: m_LocalRotation.x
      value: 0.00000006657903
      objectReference: {fileID: 0}
    - target: {fileID: 8562700260742177811, guid: 715c826bb4fc25c429dc7c65bb8f8b43,
        type: 3}
      propertyPath: m_LocalRotation.y
      value: -0
      objectReference: {fileID: 0}
    - target: {fileID: 8562700260742177811, guid: 715c826bb4fc25c429dc7c65bb8f8b43,
        type: 3}
      propertyPath: m_LocalRotation.z
      value: -0
      objectReference: {fileID: 0}
    - target: {fileID: 8562700260742177811, guid: 715c826bb4fc25c429dc7c65bb8f8b43,
        type: 3}
      propertyPath: m_LocalRotation.w
      value: 1
      objectReference: {fileID: 0}
    - target: {fileID: 8562700260742177811, guid: 715c826bb4fc25c429dc7c65bb8f8b43,
        type: 3}
      propertyPath: m_RootOrder
      value: 7
      objectReference: {fileID: 0}
    - target: {fileID: 8562700260742177811, guid: 715c826bb4fc25c429dc7c65bb8f8b43,
        type: 3}
      propertyPath: m_LocalEulerAnglesHint.x
      value: 0
      objectReference: {fileID: 0}
    - target: {fileID: 8562700260742177811, guid: 715c826bb4fc25c429dc7c65bb8f8b43,
        type: 3}
      propertyPath: m_LocalEulerAnglesHint.y
      value: 0
      objectReference: {fileID: 0}
    - target: {fileID: 8562700260742177811, guid: 715c826bb4fc25c429dc7c65bb8f8b43,
        type: 3}
      propertyPath: m_LocalEulerAnglesHint.z
      value: 0
      objectReference: {fileID: 0}
    m_RemovedComponents: []
  m_SourcePrefab: {fileID: 100100000, guid: 715c826bb4fc25c429dc7c65bb8f8b43, type: 3}
--- !u!4 &6123817088811130564 stripped
Transform:
  m_CorrespondingSourceObject: {fileID: 8562700260742177811, guid: 715c826bb4fc25c429dc7c65bb8f8b43,
    type: 3}
  m_PrefabInstance: {fileID: 2461491762739509975}
  m_PrefabAsset: {fileID: 0}
--- !u!1001 &2738953742780198035
PrefabInstance:
  m_ObjectHideFlags: 0
  serializedVersion: 2
  m_Modification:
    m_TransformParent: {fileID: 7069285167180884838}
    m_Modifications:
    - target: {fileID: 3293247596863567107, guid: 80761326030f37c4ca58f97545db667a,
        type: 3}
      propertyPath: m_Name
      value: Bush (7)
      objectReference: {fileID: 0}
    - target: {fileID: 2011049533800236816, guid: 80761326030f37c4ca58f97545db667a,
        type: 3}
      propertyPath: m_LocalPosition.x
      value: 0
      objectReference: {fileID: 0}
    - target: {fileID: 2011049533800236816, guid: 80761326030f37c4ca58f97545db667a,
        type: 3}
      propertyPath: m_LocalPosition.y
      value: 0.15
      objectReference: {fileID: 0}
    - target: {fileID: 2011049533800236816, guid: 80761326030f37c4ca58f97545db667a,
        type: 3}
      propertyPath: m_LocalPosition.z
      value: -14.5
      objectReference: {fileID: 0}
    - target: {fileID: 2011049533800236816, guid: 80761326030f37c4ca58f97545db667a,
        type: 3}
      propertyPath: m_LocalRotation.x
      value: 0.00000006657903
      objectReference: {fileID: 0}
    - target: {fileID: 2011049533800236816, guid: 80761326030f37c4ca58f97545db667a,
        type: 3}
      propertyPath: m_LocalRotation.y
      value: -0
      objectReference: {fileID: 0}
    - target: {fileID: 2011049533800236816, guid: 80761326030f37c4ca58f97545db667a,
        type: 3}
      propertyPath: m_LocalRotation.z
      value: -0
      objectReference: {fileID: 0}
    - target: {fileID: 2011049533800236816, guid: 80761326030f37c4ca58f97545db667a,
        type: 3}
      propertyPath: m_LocalRotation.w
      value: 1
      objectReference: {fileID: 0}
    - target: {fileID: 2011049533800236816, guid: 80761326030f37c4ca58f97545db667a,
        type: 3}
      propertyPath: m_RootOrder
      value: 14
      objectReference: {fileID: 0}
    - target: {fileID: 2011049533800236816, guid: 80761326030f37c4ca58f97545db667a,
        type: 3}
      propertyPath: m_LocalEulerAnglesHint.x
      value: 0
      objectReference: {fileID: 0}
    - target: {fileID: 2011049533800236816, guid: 80761326030f37c4ca58f97545db667a,
        type: 3}
      propertyPath: m_LocalEulerAnglesHint.y
      value: 0
      objectReference: {fileID: 0}
    - target: {fileID: 2011049533800236816, guid: 80761326030f37c4ca58f97545db667a,
        type: 3}
      propertyPath: m_LocalEulerAnglesHint.z
      value: 0
      objectReference: {fileID: 0}
    - target: {fileID: 2011049533800236816, guid: 80761326030f37c4ca58f97545db667a,
        type: 3}
      propertyPath: m_LocalScale.x
      value: 1
      objectReference: {fileID: 0}
    m_RemovedComponents: []
  m_SourcePrefab: {fileID: 100100000, guid: 80761326030f37c4ca58f97545db667a, type: 3}
--- !u!4 &4461405935247764355 stripped
Transform:
  m_CorrespondingSourceObject: {fileID: 2011049533800236816, guid: 80761326030f37c4ca58f97545db667a,
    type: 3}
  m_PrefabInstance: {fileID: 2738953742780198035}
  m_PrefabAsset: {fileID: 0}
--- !u!1001 &3238280278025579247
PrefabInstance:
  m_ObjectHideFlags: 0
  serializedVersion: 2
  m_Modification:
    m_TransformParent: {fileID: 7069285167180884838}
    m_Modifications:
    - target: {fileID: 4652090175675454976, guid: 715c826bb4fc25c429dc7c65bb8f8b43,
        type: 3}
      propertyPath: m_Name
      value: Grass (11)
      objectReference: {fileID: 0}
    - target: {fileID: 8562700260742177811, guid: 715c826bb4fc25c429dc7c65bb8f8b43,
        type: 3}
      propertyPath: m_LocalPosition.x
      value: 0
      objectReference: {fileID: 0}
    - target: {fileID: 8562700260742177811, guid: 715c826bb4fc25c429dc7c65bb8f8b43,
        type: 3}
      propertyPath: m_LocalPosition.y
      value: 0
      objectReference: {fileID: 0}
    - target: {fileID: 8562700260742177811, guid: 715c826bb4fc25c429dc7c65bb8f8b43,
        type: 3}
      propertyPath: m_LocalPosition.z
      value: -10
      objectReference: {fileID: 0}
    - target: {fileID: 8562700260742177811, guid: 715c826bb4fc25c429dc7c65bb8f8b43,
        type: 3}
      propertyPath: m_LocalRotation.x
      value: 0.00000006657903
      objectReference: {fileID: 0}
    - target: {fileID: 8562700260742177811, guid: 715c826bb4fc25c429dc7c65bb8f8b43,
        type: 3}
      propertyPath: m_LocalRotation.y
      value: -0
      objectReference: {fileID: 0}
    - target: {fileID: 8562700260742177811, guid: 715c826bb4fc25c429dc7c65bb8f8b43,
        type: 3}
      propertyPath: m_LocalRotation.z
      value: -0
      objectReference: {fileID: 0}
    - target: {fileID: 8562700260742177811, guid: 715c826bb4fc25c429dc7c65bb8f8b43,
        type: 3}
      propertyPath: m_LocalRotation.w
      value: 1
      objectReference: {fileID: 0}
    - target: {fileID: 8562700260742177811, guid: 715c826bb4fc25c429dc7c65bb8f8b43,
        type: 3}
      propertyPath: m_RootOrder
      value: 4
      objectReference: {fileID: 0}
    - target: {fileID: 8562700260742177811, guid: 715c826bb4fc25c429dc7c65bb8f8b43,
        type: 3}
      propertyPath: m_LocalEulerAnglesHint.x
      value: 0
      objectReference: {fileID: 0}
    - target: {fileID: 8562700260742177811, guid: 715c826bb4fc25c429dc7c65bb8f8b43,
        type: 3}
      propertyPath: m_LocalEulerAnglesHint.y
      value: 0
      objectReference: {fileID: 0}
    - target: {fileID: 8562700260742177811, guid: 715c826bb4fc25c429dc7c65bb8f8b43,
        type: 3}
      propertyPath: m_LocalEulerAnglesHint.z
      value: 0
      objectReference: {fileID: 0}
    m_RemovedComponents: []
  m_SourcePrefab: {fileID: 100100000, guid: 715c826bb4fc25c429dc7c65bb8f8b43, type: 3}
--- !u!4 &6495453195843702524 stripped
Transform:
  m_CorrespondingSourceObject: {fileID: 8562700260742177811, guid: 715c826bb4fc25c429dc7c65bb8f8b43,
    type: 3}
  m_PrefabInstance: {fileID: 3238280278025579247}
  m_PrefabAsset: {fileID: 0}
--- !u!1001 &3480886757420174657
PrefabInstance:
  m_ObjectHideFlags: 0
  serializedVersion: 2
  m_Modification:
    m_TransformParent: {fileID: 7069285167180884838}
    m_Modifications:
    - target: {fileID: 3293247596863567107, guid: 80761326030f37c4ca58f97545db667a,
        type: 3}
      propertyPath: m_Name
      value: Bush (13)
      objectReference: {fileID: 0}
    - target: {fileID: 2011049533800236816, guid: 80761326030f37c4ca58f97545db667a,
        type: 3}
      propertyPath: m_LocalPosition.x
      value: -9.1
      objectReference: {fileID: 0}
    - target: {fileID: 2011049533800236816, guid: 80761326030f37c4ca58f97545db667a,
        type: 3}
      propertyPath: m_LocalPosition.y
      value: 0.15
      objectReference: {fileID: 0}
    - target: {fileID: 2011049533800236816, guid: 80761326030f37c4ca58f97545db667a,
        type: 3}
      propertyPath: m_LocalPosition.z
      value: -0.0000000060249
      objectReference: {fileID: 0}
    - target: {fileID: 2011049533800236816, guid: 80761326030f37c4ca58f97545db667a,
        type: 3}
      propertyPath: m_LocalRotation.x
      value: 0.00000006657903
      objectReference: {fileID: 0}
    - target: {fileID: 2011049533800236816, guid: 80761326030f37c4ca58f97545db667a,
        type: 3}
      propertyPath: m_LocalRotation.y
      value: -0
      objectReference: {fileID: 0}
    - target: {fileID: 2011049533800236816, guid: 80761326030f37c4ca58f97545db667a,
        type: 3}
      propertyPath: m_LocalRotation.z
      value: -0
      objectReference: {fileID: 0}
    - target: {fileID: 2011049533800236816, guid: 80761326030f37c4ca58f97545db667a,
        type: 3}
      propertyPath: m_LocalRotation.w
      value: 1
      objectReference: {fileID: 0}
    - target: {fileID: 2011049533800236816, guid: 80761326030f37c4ca58f97545db667a,
        type: 3}
      propertyPath: m_RootOrder
      value: 19
      objectReference: {fileID: 0}
    - target: {fileID: 2011049533800236816, guid: 80761326030f37c4ca58f97545db667a,
        type: 3}
      propertyPath: m_LocalEulerAnglesHint.x
      value: 0
      objectReference: {fileID: 0}
    - target: {fileID: 2011049533800236816, guid: 80761326030f37c4ca58f97545db667a,
        type: 3}
      propertyPath: m_LocalEulerAnglesHint.y
      value: 0
      objectReference: {fileID: 0}
    - target: {fileID: 2011049533800236816, guid: 80761326030f37c4ca58f97545db667a,
        type: 3}
      propertyPath: m_LocalEulerAnglesHint.z
      value: 0
      objectReference: {fileID: 0}
    - target: {fileID: 2011049533800236816, guid: 80761326030f37c4ca58f97545db667a,
        type: 3}
      propertyPath: m_LocalScale.x
      value: 0.15
      objectReference: {fileID: 0}
    - target: {fileID: 2011049533800236816, guid: 80761326030f37c4ca58f97545db667a,
        type: 3}
      propertyPath: m_LocalScale.y
      value: 2
      objectReference: {fileID: 0}
    - target: {fileID: 2011049533800236816, guid: 80761326030f37c4ca58f97545db667a,
        type: 3}
      propertyPath: m_LocalScale.z
      value: 1
      objectReference: {fileID: 0}
    m_RemovedComponents: []
  m_SourcePrefab: {fileID: 100100000, guid: 80761326030f37c4ca58f97545db667a, type: 3}
--- !u!4 &3145261817413290577 stripped
Transform:
  m_CorrespondingSourceObject: {fileID: 2011049533800236816, guid: 80761326030f37c4ca58f97545db667a,
    type: 3}
  m_PrefabInstance: {fileID: 3480886757420174657}
  m_PrefabAsset: {fileID: 0}
--- !u!1001 &3693512710045892287
PrefabInstance:
  m_ObjectHideFlags: 0
  serializedVersion: 2
  m_Modification:
    m_TransformParent: {fileID: 7069285167180884838}
    m_Modifications:
    - target: {fileID: 3293247596863567107, guid: 80761326030f37c4ca58f97545db667a,
        type: 3}
      propertyPath: m_Name
      value: Bush (5)
      objectReference: {fileID: 0}
    - target: {fileID: 2011049533800236816, guid: 80761326030f37c4ca58f97545db667a,
        type: 3}
      propertyPath: m_LocalPosition.x
      value: -10
      objectReference: {fileID: 0}
    - target: {fileID: 2011049533800236816, guid: 80761326030f37c4ca58f97545db667a,
        type: 3}
      propertyPath: m_LocalPosition.y
      value: 0.15
      objectReference: {fileID: 0}
    - target: {fileID: 2011049533800236816, guid: 80761326030f37c4ca58f97545db667a,
        type: 3}
      propertyPath: m_LocalPosition.z
      value: -14.5
      objectReference: {fileID: 0}
    - target: {fileID: 2011049533800236816, guid: 80761326030f37c4ca58f97545db667a,
        type: 3}
      propertyPath: m_LocalRotation.x
      value: 0.00000006657903
      objectReference: {fileID: 0}
    - target: {fileID: 2011049533800236816, guid: 80761326030f37c4ca58f97545db667a,
        type: 3}
      propertyPath: m_LocalRotation.y
      value: -0
      objectReference: {fileID: 0}
    - target: {fileID: 2011049533800236816, guid: 80761326030f37c4ca58f97545db667a,
        type: 3}
      propertyPath: m_LocalRotation.z
      value: -0
      objectReference: {fileID: 0}
    - target: {fileID: 2011049533800236816, guid: 80761326030f37c4ca58f97545db667a,
        type: 3}
      propertyPath: m_LocalRotation.w
      value: 1
      objectReference: {fileID: 0}
    - target: {fileID: 2011049533800236816, guid: 80761326030f37c4ca58f97545db667a,
        type: 3}
      propertyPath: m_RootOrder
      value: 12
      objectReference: {fileID: 0}
    - target: {fileID: 2011049533800236816, guid: 80761326030f37c4ca58f97545db667a,
        type: 3}
      propertyPath: m_LocalEulerAnglesHint.x
      value: 0
      objectReference: {fileID: 0}
    - target: {fileID: 2011049533800236816, guid: 80761326030f37c4ca58f97545db667a,
        type: 3}
      propertyPath: m_LocalEulerAnglesHint.y
      value: 0
      objectReference: {fileID: 0}
    - target: {fileID: 2011049533800236816, guid: 80761326030f37c4ca58f97545db667a,
        type: 3}
      propertyPath: m_LocalEulerAnglesHint.z
      value: 0
      objectReference: {fileID: 0}
    - target: {fileID: 2011049533800236816, guid: 80761326030f37c4ca58f97545db667a,
        type: 3}
      propertyPath: m_LocalScale.x
      value: 1
      objectReference: {fileID: 0}
    m_RemovedComponents: []
  m_SourcePrefab: {fileID: 100100000, guid: 80761326030f37c4ca58f97545db667a, type: 3}
--- !u!4 &2929961924450597295 stripped
Transform:
  m_CorrespondingSourceObject: {fileID: 2011049533800236816, guid: 80761326030f37c4ca58f97545db667a,
    type: 3}
  m_PrefabInstance: {fileID: 3693512710045892287}
  m_PrefabAsset: {fileID: 0}
--- !u!1001 &3944369453219578496
PrefabInstance:
  m_ObjectHideFlags: 0
  serializedVersion: 2
  m_Modification:
    m_TransformParent: {fileID: 7069285167180884838}
    m_Modifications:
    - target: {fileID: 3293247596863567107, guid: 80761326030f37c4ca58f97545db667a,
        type: 3}
      propertyPath: m_Name
      value: Bush (6)
      objectReference: {fileID: 0}
    - target: {fileID: 2011049533800236816, guid: 80761326030f37c4ca58f97545db667a,
        type: 3}
      propertyPath: m_LocalPosition.x
      value: -5
      objectReference: {fileID: 0}
    - target: {fileID: 2011049533800236816, guid: 80761326030f37c4ca58f97545db667a,
        type: 3}
      propertyPath: m_LocalPosition.y
      value: 0.15
      objectReference: {fileID: 0}
    - target: {fileID: 2011049533800236816, guid: 80761326030f37c4ca58f97545db667a,
        type: 3}
      propertyPath: m_LocalPosition.z
      value: -14.5
      objectReference: {fileID: 0}
    - target: {fileID: 2011049533800236816, guid: 80761326030f37c4ca58f97545db667a,
        type: 3}
      propertyPath: m_LocalRotation.x
      value: 0.00000006657903
      objectReference: {fileID: 0}
    - target: {fileID: 2011049533800236816, guid: 80761326030f37c4ca58f97545db667a,
        type: 3}
      propertyPath: m_LocalRotation.y
      value: -0
      objectReference: {fileID: 0}
    - target: {fileID: 2011049533800236816, guid: 80761326030f37c4ca58f97545db667a,
        type: 3}
      propertyPath: m_LocalRotation.z
      value: -0
      objectReference: {fileID: 0}
    - target: {fileID: 2011049533800236816, guid: 80761326030f37c4ca58f97545db667a,
        type: 3}
      propertyPath: m_LocalRotation.w
      value: 1
      objectReference: {fileID: 0}
    - target: {fileID: 2011049533800236816, guid: 80761326030f37c4ca58f97545db667a,
        type: 3}
      propertyPath: m_RootOrder
      value: 13
      objectReference: {fileID: 0}
    - target: {fileID: 2011049533800236816, guid: 80761326030f37c4ca58f97545db667a,
        type: 3}
      propertyPath: m_LocalEulerAnglesHint.x
      value: 0
      objectReference: {fileID: 0}
    - target: {fileID: 2011049533800236816, guid: 80761326030f37c4ca58f97545db667a,
        type: 3}
      propertyPath: m_LocalEulerAnglesHint.y
      value: 0
      objectReference: {fileID: 0}
    - target: {fileID: 2011049533800236816, guid: 80761326030f37c4ca58f97545db667a,
        type: 3}
      propertyPath: m_LocalEulerAnglesHint.z
      value: 0
      objectReference: {fileID: 0}
    - target: {fileID: 2011049533800236816, guid: 80761326030f37c4ca58f97545db667a,
        type: 3}
      propertyPath: m_LocalScale.x
      value: 1
      objectReference: {fileID: 0}
    m_RemovedComponents: []
  m_SourcePrefab: {fileID: 100100000, guid: 80761326030f37c4ca58f97545db667a, type: 3}
--- !u!4 &3266686411363763600 stripped
Transform:
  m_CorrespondingSourceObject: {fileID: 2011049533800236816, guid: 80761326030f37c4ca58f97545db667a,
    type: 3}
  m_PrefabInstance: {fileID: 3944369453219578496}
  m_PrefabAsset: {fileID: 0}
--- !u!1001 &4680228478707571223
PrefabInstance:
  m_ObjectHideFlags: 0
  serializedVersion: 2
  m_Modification:
    m_TransformParent: {fileID: 7069285167180884838}
    m_Modifications:
    - target: {fileID: 4379603171368236076, guid: d79e5f09437355a44adab193c0858058,
        type: 3}
      propertyPath: m_Name
      value: Concrete (3)
      objectReference: {fileID: 0}
    - target: {fileID: 4379603171368265740, guid: d79e5f09437355a44adab193c0858058,
        type: 3}
      propertyPath: m_LocalPosition.x
      value: -1.695
      objectReference: {fileID: 0}
    - target: {fileID: 4379603171368265740, guid: d79e5f09437355a44adab193c0858058,
        type: 3}
      propertyPath: m_LocalPosition.y
      value: 0.001
      objectReference: {fileID: 0}
    - target: {fileID: 4379603171368265740, guid: d79e5f09437355a44adab193c0858058,
        type: 3}
      propertyPath: m_LocalPosition.z
      value: -3.661
      objectReference: {fileID: 0}
    - target: {fileID: 4379603171368265740, guid: d79e5f09437355a44adab193c0858058,
        type: 3}
      propertyPath: m_LocalRotation.x
      value: 0.00000006657903
      objectReference: {fileID: 0}
    - target: {fileID: 4379603171368265740, guid: d79e5f09437355a44adab193c0858058,
        type: 3}
      propertyPath: m_LocalRotation.y
      value: -0
      objectReference: {fileID: 0}
    - target: {fileID: 4379603171368265740, guid: d79e5f09437355a44adab193c0858058,
        type: 3}
      propertyPath: m_LocalRotation.z
      value: -0
      objectReference: {fileID: 0}
    - target: {fileID: 4379603171368265740, guid: d79e5f09437355a44adab193c0858058,
        type: 3}
      propertyPath: m_LocalRotation.w
      value: 1
      objectReference: {fileID: 0}
    - target: {fileID: 4379603171368265740, guid: d79e5f09437355a44adab193c0858058,
        type: 3}
      propertyPath: m_RootOrder
      value: 27
      objectReference: {fileID: 0}
    - target: {fileID: 4379603171368265740, guid: d79e5f09437355a44adab193c0858058,
        type: 3}
      propertyPath: m_LocalEulerAnglesHint.x
      value: 0
      objectReference: {fileID: 0}
    - target: {fileID: 4379603171368265740, guid: d79e5f09437355a44adab193c0858058,
        type: 3}
      propertyPath: m_LocalEulerAnglesHint.y
      value: 0
      objectReference: {fileID: 0}
    - target: {fileID: 4379603171368265740, guid: d79e5f09437355a44adab193c0858058,
        type: 3}
      propertyPath: m_LocalEulerAnglesHint.z
      value: 0
      objectReference: {fileID: 0}
    - target: {fileID: 4379603171368265740, guid: d79e5f09437355a44adab193c0858058,
        type: 3}
      propertyPath: m_LocalScale.x
      value: 2.3
      objectReference: {fileID: 0}
    - target: {fileID: 4379603171368265740, guid: d79e5f09437355a44adab193c0858058,
        type: 3}
      propertyPath: m_LocalScale.z
      value: 1.9
      objectReference: {fileID: 0}
    m_RemovedComponents: []
  m_SourcePrefab: {fileID: 100100000, guid: d79e5f09437355a44adab193c0858058, type: 3}
--- !u!4 &8950054201411269147 stripped
Transform:
  m_CorrespondingSourceObject: {fileID: 4379603171368265740, guid: d79e5f09437355a44adab193c0858058,
    type: 3}
  m_PrefabInstance: {fileID: 4680228478707571223}
  m_PrefabAsset: {fileID: 0}
--- !u!1001 &5844777122523946614
PrefabInstance:
  m_ObjectHideFlags: 0
  serializedVersion: 2
  m_Modification:
    m_TransformParent: {fileID: 7069285167180884838}
    m_Modifications:
    - target: {fileID: 3293247596863567107, guid: 80761326030f37c4ca58f97545db667a,
        type: 3}
      propertyPath: m_Name
      value: Bush (10)
      objectReference: {fileID: 0}
    - target: {fileID: 2011049533800236816, guid: 80761326030f37c4ca58f97545db667a,
        type: 3}
      propertyPath: m_LocalPosition.x
      value: 0
      objectReference: {fileID: 0}
    - target: {fileID: 2011049533800236816, guid: 80761326030f37c4ca58f97545db667a,
        type: 3}
      propertyPath: m_LocalPosition.y
      value: 0.15
      objectReference: {fileID: 0}
    - target: {fileID: 2011049533800236816, guid: 80761326030f37c4ca58f97545db667a,
        type: 3}
      propertyPath: m_LocalPosition.z
      value: -15
      objectReference: {fileID: 0}
    - target: {fileID: 2011049533800236816, guid: 80761326030f37c4ca58f97545db667a,
        type: 3}
      propertyPath: m_LocalRotation.x
      value: 0
      objectReference: {fileID: 0}
    - target: {fileID: 2011049533800236816, guid: 80761326030f37c4ca58f97545db667a,
        type: 3}
      propertyPath: m_LocalRotation.y
      value: 0.7071068
      objectReference: {fileID: 0}
    - target: {fileID: 2011049533800236816, guid: 80761326030f37c4ca58f97545db667a,
        type: 3}
      propertyPath: m_LocalRotation.z
      value: 0
      objectReference: {fileID: 0}
    - target: {fileID: 2011049533800236816, guid: 80761326030f37c4ca58f97545db667a,
        type: 3}
      propertyPath: m_LocalRotation.w
      value: 0.7071068
      objectReference: {fileID: 0}
    - target: {fileID: 2011049533800236816, guid: 80761326030f37c4ca58f97545db667a,
        type: 3}
      propertyPath: m_RootOrder
      value: 17
      objectReference: {fileID: 0}
    - target: {fileID: 2011049533800236816, guid: 80761326030f37c4ca58f97545db667a,
        type: 3}
      propertyPath: m_LocalEulerAnglesHint.x
      value: 0
      objectReference: {fileID: 0}
    - target: {fileID: 2011049533800236816, guid: 80761326030f37c4ca58f97545db667a,
        type: 3}
      propertyPath: m_LocalEulerAnglesHint.y
      value: 90
      objectReference: {fileID: 0}
    - target: {fileID: 2011049533800236816, guid: 80761326030f37c4ca58f97545db667a,
        type: 3}
      propertyPath: m_LocalEulerAnglesHint.z
      value: 0
      objectReference: {fileID: 0}
    m_RemovedComponents: []
  m_SourcePrefab: {fileID: 100100000, guid: 80761326030f37c4ca58f97545db667a, type: 3}
--- !u!4 &5401081723779701094 stripped
Transform:
  m_CorrespondingSourceObject: {fileID: 2011049533800236816, guid: 80761326030f37c4ca58f97545db667a,
    type: 3}
  m_PrefabInstance: {fileID: 5844777122523946614}
  m_PrefabAsset: {fileID: 0}
--- !u!1001 &6046761366324917795
PrefabInstance:
  m_ObjectHideFlags: 0
  serializedVersion: 2
  m_Modification:
    m_TransformParent: {fileID: 7069285167180884838}
    m_Modifications:
    - target: {fileID: 4652090175675454976, guid: 715c826bb4fc25c429dc7c65bb8f8b43,
        type: 3}
      propertyPath: m_Name
      value: Grass (7)
      objectReference: {fileID: 0}
    - target: {fileID: 8562700260742177811, guid: 715c826bb4fc25c429dc7c65bb8f8b43,
        type: 3}
      propertyPath: m_LocalPosition.x
      value: -10
      objectReference: {fileID: 0}
    - target: {fileID: 8562700260742177811, guid: 715c826bb4fc25c429dc7c65bb8f8b43,
        type: 3}
      propertyPath: m_LocalPosition.y
      value: 0
      objectReference: {fileID: 0}
    - target: {fileID: 8562700260742177811, guid: 715c826bb4fc25c429dc7c65bb8f8b43,
        type: 3}
      propertyPath: m_LocalPosition.z
      value: -10
      objectReference: {fileID: 0}
    - target: {fileID: 8562700260742177811, guid: 715c826bb4fc25c429dc7c65bb8f8b43,
        type: 3}
      propertyPath: m_LocalRotation.x
      value: 0.00000006657903
      objectReference: {fileID: 0}
    - target: {fileID: 8562700260742177811, guid: 715c826bb4fc25c429dc7c65bb8f8b43,
        type: 3}
      propertyPath: m_LocalRotation.y
      value: -0
      objectReference: {fileID: 0}
    - target: {fileID: 8562700260742177811, guid: 715c826bb4fc25c429dc7c65bb8f8b43,
        type: 3}
      propertyPath: m_LocalRotation.z
      value: -0
      objectReference: {fileID: 0}
    - target: {fileID: 8562700260742177811, guid: 715c826bb4fc25c429dc7c65bb8f8b43,
        type: 3}
      propertyPath: m_LocalRotation.w
      value: 1
      objectReference: {fileID: 0}
    - target: {fileID: 8562700260742177811, guid: 715c826bb4fc25c429dc7c65bb8f8b43,
        type: 3}
      propertyPath: m_RootOrder
      value: 3
      objectReference: {fileID: 0}
    - target: {fileID: 8562700260742177811, guid: 715c826bb4fc25c429dc7c65bb8f8b43,
        type: 3}
      propertyPath: m_LocalEulerAnglesHint.x
      value: 0
      objectReference: {fileID: 0}
    - target: {fileID: 8562700260742177811, guid: 715c826bb4fc25c429dc7c65bb8f8b43,
        type: 3}
      propertyPath: m_LocalEulerAnglesHint.y
      value: 0
      objectReference: {fileID: 0}
    - target: {fileID: 8562700260742177811, guid: 715c826bb4fc25c429dc7c65bb8f8b43,
        type: 3}
      propertyPath: m_LocalEulerAnglesHint.z
      value: 0
      objectReference: {fileID: 0}
    m_RemovedComponents: []
  m_SourcePrefab: {fileID: 100100000, guid: 715c826bb4fc25c429dc7c65bb8f8b43, type: 3}
--- !u!4 &2683789041370174000 stripped
Transform:
  m_CorrespondingSourceObject: {fileID: 8562700260742177811, guid: 715c826bb4fc25c429dc7c65bb8f8b43,
    type: 3}
  m_PrefabInstance: {fileID: 6046761366324917795}
  m_PrefabAsset: {fileID: 0}
--- !u!1001 &6343155488129139368
PrefabInstance:
  m_ObjectHideFlags: 0
  serializedVersion: 2
  m_Modification:
    m_TransformParent: {fileID: 7069285167180884838}
    m_Modifications:
    - target: {fileID: 3293247596863567107, guid: 80761326030f37c4ca58f97545db667a,
        type: 3}
      propertyPath: m_Name
      value: Bush (9)
      objectReference: {fileID: 0}
    - target: {fileID: 2011049533800236816, guid: 80761326030f37c4ca58f97545db667a,
        type: 3}
      propertyPath: m_LocalPosition.x
      value: 0
      objectReference: {fileID: 0}
    - target: {fileID: 2011049533800236816, guid: 80761326030f37c4ca58f97545db667a,
        type: 3}
      propertyPath: m_LocalPosition.y
      value: 0.15
      objectReference: {fileID: 0}
    - target: {fileID: 2011049533800236816, guid: 80761326030f37c4ca58f97545db667a,
        type: 3}
      propertyPath: m_LocalPosition.z
      value: -10
      objectReference: {fileID: 0}
    - target: {fileID: 2011049533800236816, guid: 80761326030f37c4ca58f97545db667a,
        type: 3}
      propertyPath: m_LocalRotation.x
      value: 0
      objectReference: {fileID: 0}
    - target: {fileID: 2011049533800236816, guid: 80761326030f37c4ca58f97545db667a,
        type: 3}
      propertyPath: m_LocalRotation.y
      value: 0.7071068
      objectReference: {fileID: 0}
    - target: {fileID: 2011049533800236816, guid: 80761326030f37c4ca58f97545db667a,
        type: 3}
      propertyPath: m_LocalRotation.z
      value: 0
      objectReference: {fileID: 0}
    - target: {fileID: 2011049533800236816, guid: 80761326030f37c4ca58f97545db667a,
        type: 3}
      propertyPath: m_LocalRotation.w
      value: 0.7071068
      objectReference: {fileID: 0}
    - target: {fileID: 2011049533800236816, guid: 80761326030f37c4ca58f97545db667a,
        type: 3}
      propertyPath: m_RootOrder
      value: 16
      objectReference: {fileID: 0}
    - target: {fileID: 2011049533800236816, guid: 80761326030f37c4ca58f97545db667a,
        type: 3}
      propertyPath: m_LocalEulerAnglesHint.x
      value: 0
      objectReference: {fileID: 0}
    - target: {fileID: 2011049533800236816, guid: 80761326030f37c4ca58f97545db667a,
        type: 3}
      propertyPath: m_LocalEulerAnglesHint.y
      value: 90
      objectReference: {fileID: 0}
    - target: {fileID: 2011049533800236816, guid: 80761326030f37c4ca58f97545db667a,
        type: 3}
      propertyPath: m_LocalEulerAnglesHint.z
      value: 0
      objectReference: {fileID: 0}
    m_RemovedComponents: []
  m_SourcePrefab: {fileID: 100100000, guid: 80761326030f37c4ca58f97545db667a, type: 3}
--- !u!4 &4895347555587655096 stripped
Transform:
  m_CorrespondingSourceObject: {fileID: 2011049533800236816, guid: 80761326030f37c4ca58f97545db667a,
    type: 3}
  m_PrefabInstance: {fileID: 6343155488129139368}
  m_PrefabAsset: {fileID: 0}
--- !u!1001 &6457882913885925273
PrefabInstance:
  m_ObjectHideFlags: 0
  serializedVersion: 2
  m_Modification:
    m_TransformParent: {fileID: 7069285167180884838}
    m_Modifications:
    - target: {fileID: 8683954612789038458, guid: 2842fbfa21002f54298f0aeb992e6415,
        type: 3}
      propertyPath: m_Name
      value: GardenBed2
      objectReference: {fileID: 0}
    - target: {fileID: 5681505803307138921, guid: 2842fbfa21002f54298f0aeb992e6415,
        type: 3}
      propertyPath: m_LocalPosition.x
      value: -5.978
      objectReference: {fileID: 0}
    - target: {fileID: 5681505803307138921, guid: 2842fbfa21002f54298f0aeb992e6415,
        type: 3}
      propertyPath: m_LocalPosition.y
      value: 0.15
      objectReference: {fileID: 0}
    - target: {fileID: 5681505803307138921, guid: 2842fbfa21002f54298f0aeb992e6415,
        type: 3}
      propertyPath: m_LocalPosition.z
      value: -3.76
      objectReference: {fileID: 0}
    - target: {fileID: 5681505803307138921, guid: 2842fbfa21002f54298f0aeb992e6415,
        type: 3}
      propertyPath: m_LocalRotation.x
      value: 0
      objectReference: {fileID: 0}
    - target: {fileID: 5681505803307138921, guid: 2842fbfa21002f54298f0aeb992e6415,
        type: 3}
      propertyPath: m_LocalRotation.y
      value: 0.7071068
      objectReference: {fileID: 0}
    - target: {fileID: 5681505803307138921, guid: 2842fbfa21002f54298f0aeb992e6415,
        type: 3}
      propertyPath: m_LocalRotation.z
      value: 0
      objectReference: {fileID: 0}
    - target: {fileID: 5681505803307138921, guid: 2842fbfa21002f54298f0aeb992e6415,
        type: 3}
      propertyPath: m_LocalRotation.w
      value: 0.7071068
      objectReference: {fileID: 0}
    - target: {fileID: 5681505803307138921, guid: 2842fbfa21002f54298f0aeb992e6415,
        type: 3}
      propertyPath: m_RootOrder
      value: 24
      objectReference: {fileID: 0}
    - target: {fileID: 5681505803307138921, guid: 2842fbfa21002f54298f0aeb992e6415,
        type: 3}
      propertyPath: m_LocalEulerAnglesHint.x
      value: 0
      objectReference: {fileID: 0}
    - target: {fileID: 5681505803307138921, guid: 2842fbfa21002f54298f0aeb992e6415,
        type: 3}
      propertyPath: m_LocalEulerAnglesHint.y
      value: 90
      objectReference: {fileID: 0}
    - target: {fileID: 5681505803307138921, guid: 2842fbfa21002f54298f0aeb992e6415,
        type: 3}
      propertyPath: m_LocalEulerAnglesHint.z
      value: 0
      objectReference: {fileID: 0}
    m_RemovedComponents: []
  m_SourcePrefab: {fileID: 100100000, guid: 2842fbfa21002f54298f0aeb992e6415, type: 3}
--- !u!4 &1677521756787380464 stripped
Transform:
  m_CorrespondingSourceObject: {fileID: 5681505803307138921, guid: 2842fbfa21002f54298f0aeb992e6415,
    type: 3}
  m_PrefabInstance: {fileID: 6457882913885925273}
  m_PrefabAsset: {fileID: 0}
--- !u!1001 &7052793397233125786
PrefabInstance:
  m_ObjectHideFlags: 0
  serializedVersion: 2
  m_Modification:
    m_TransformParent: {fileID: 7069285167180884838}
    m_Modifications:
    - target: {fileID: 3293247596863567107, guid: 80761326030f37c4ca58f97545db667a,
        type: 3}
      propertyPath: m_Name
      value: Bush (14)
      objectReference: {fileID: 0}
    - target: {fileID: 2011049533800236816, guid: 80761326030f37c4ca58f97545db667a,
        type: 3}
      propertyPath: m_LocalPosition.x
      value: -5
      objectReference: {fileID: 0}
    - target: {fileID: 2011049533800236816, guid: 80761326030f37c4ca58f97545db667a,
        type: 3}
      propertyPath: m_LocalPosition.y
      value: 0.15
      objectReference: {fileID: 0}
    - target: {fileID: 2011049533800236816, guid: 80761326030f37c4ca58f97545db667a,
        type: 3}
      propertyPath: m_LocalPosition.z
      value: 0
      objectReference: {fileID: 0}
    - target: {fileID: 2011049533800236816, guid: 80761326030f37c4ca58f97545db667a,
        type: 3}
      propertyPath: m_LocalRotation.x
      value: 0.00000006657903
      objectReference: {fileID: 0}
    - target: {fileID: 2011049533800236816, guid: 80761326030f37c4ca58f97545db667a,
        type: 3}
      propertyPath: m_LocalRotation.y
      value: -0
      objectReference: {fileID: 0}
    - target: {fileID: 2011049533800236816, guid: 80761326030f37c4ca58f97545db667a,
        type: 3}
      propertyPath: m_LocalRotation.z
      value: -0
      objectReference: {fileID: 0}
    - target: {fileID: 2011049533800236816, guid: 80761326030f37c4ca58f97545db667a,
        type: 3}
      propertyPath: m_LocalRotation.w
      value: 1
      objectReference: {fileID: 0}
    - target: {fileID: 2011049533800236816, guid: 80761326030f37c4ca58f97545db667a,
        type: 3}
      propertyPath: m_RootOrder
      value: 20
      objectReference: {fileID: 0}
    - target: {fileID: 2011049533800236816, guid: 80761326030f37c4ca58f97545db667a,
        type: 3}
      propertyPath: m_LocalEulerAnglesHint.x
      value: 0
      objectReference: {fileID: 0}
    - target: {fileID: 2011049533800236816, guid: 80761326030f37c4ca58f97545db667a,
        type: 3}
      propertyPath: m_LocalEulerAnglesHint.y
      value: 0
      objectReference: {fileID: 0}
    - target: {fileID: 2011049533800236816, guid: 80761326030f37c4ca58f97545db667a,
        type: 3}
      propertyPath: m_LocalEulerAnglesHint.z
      value: 0
      objectReference: {fileID: 0}
    - target: {fileID: 2011049533800236816, guid: 80761326030f37c4ca58f97545db667a,
        type: 3}
      propertyPath: m_LocalScale.x
      value: 0.15
      objectReference: {fileID: 0}
    - target: {fileID: 2011049533800236816, guid: 80761326030f37c4ca58f97545db667a,
        type: 3}
      propertyPath: m_LocalScale.y
      value: 2
      objectReference: {fileID: 0}
    - target: {fileID: 2011049533800236816, guid: 80761326030f37c4ca58f97545db667a,
        type: 3}
      propertyPath: m_LocalScale.z
      value: 1
      objectReference: {fileID: 0}
    m_RemovedComponents: []
  m_SourcePrefab: {fileID: 100100000, guid: 80761326030f37c4ca58f97545db667a, type: 3}
--- !u!4 &8793314416263024266 stripped
Transform:
  m_CorrespondingSourceObject: {fileID: 2011049533800236816, guid: 80761326030f37c4ca58f97545db667a,
    type: 3}
  m_PrefabInstance: {fileID: 7052793397233125786}
  m_PrefabAsset: {fileID: 0}
--- !u!1001 &7331890489204854749
PrefabInstance:
  m_ObjectHideFlags: 0
  serializedVersion: 2
  m_Modification:
    m_TransformParent: {fileID: 7069285167180884838}
    m_Modifications:
    - target: {fileID: 4379603171368236076, guid: d79e5f09437355a44adab193c0858058,
        type: 3}
      propertyPath: m_Name
      value: Concrete (2)
      objectReference: {fileID: 0}
    - target: {fileID: 4379603171368265740, guid: d79e5f09437355a44adab193c0858058,
        type: 3}
      propertyPath: m_LocalPosition.x
      value: -5.75
      objectReference: {fileID: 0}
    - target: {fileID: 4379603171368265740, guid: d79e5f09437355a44adab193c0858058,
        type: 3}
      propertyPath: m_LocalPosition.y
      value: 0
      objectReference: {fileID: 0}
    - target: {fileID: 4379603171368265740, guid: d79e5f09437355a44adab193c0858058,
        type: 3}
      propertyPath: m_LocalPosition.z
      value: 0
      objectReference: {fileID: 0}
    - target: {fileID: 4379603171368265740, guid: d79e5f09437355a44adab193c0858058,
        type: 3}
      propertyPath: m_LocalRotation.x
      value: 0.00000006657903
      objectReference: {fileID: 0}
    - target: {fileID: 4379603171368265740, guid: d79e5f09437355a44adab193c0858058,
        type: 3}
      propertyPath: m_LocalRotation.y
      value: -0
      objectReference: {fileID: 0}
    - target: {fileID: 4379603171368265740, guid: d79e5f09437355a44adab193c0858058,
        type: 3}
      propertyPath: m_LocalRotation.z
      value: -0
      objectReference: {fileID: 0}
    - target: {fileID: 4379603171368265740, guid: d79e5f09437355a44adab193c0858058,
        type: 3}
      propertyPath: m_LocalRotation.w
      value: 1
      objectReference: {fileID: 0}
    - target: {fileID: 4379603171368265740, guid: d79e5f09437355a44adab193c0858058,
        type: 3}
      propertyPath: m_RootOrder
      value: 26
      objectReference: {fileID: 0}
    - target: {fileID: 4379603171368265740, guid: d79e5f09437355a44adab193c0858058,
        type: 3}
      propertyPath: m_LocalEulerAnglesHint.x
      value: 0
      objectReference: {fileID: 0}
    - target: {fileID: 4379603171368265740, guid: d79e5f09437355a44adab193c0858058,
        type: 3}
      propertyPath: m_LocalEulerAnglesHint.y
      value: 0
      objectReference: {fileID: 0}
    - target: {fileID: 4379603171368265740, guid: d79e5f09437355a44adab193c0858058,
        type: 3}
      propertyPath: m_LocalEulerAnglesHint.z
      value: 0
      objectReference: {fileID: 0}
    - target: {fileID: 4379603171368265740, guid: d79e5f09437355a44adab193c0858058,
        type: 3}
      propertyPath: m_LocalScale.x
      value: 0.67
      objectReference: {fileID: 0}
    - target: {fileID: 4379603171368265740, guid: d79e5f09437355a44adab193c0858058,
        type: 3}
      propertyPath: m_LocalScale.z
      value: 1
      objectReference: {fileID: 0}
    m_RemovedComponents: []
  m_SourcePrefab: {fileID: 100100000, guid: d79e5f09437355a44adab193c0858058, type: 3}
--- !u!4 &6415204412818106321 stripped
Transform:
  m_CorrespondingSourceObject: {fileID: 4379603171368265740, guid: d79e5f09437355a44adab193c0858058,
    type: 3}
  m_PrefabInstance: {fileID: 7331890489204854749}
  m_PrefabAsset: {fileID: 0}
--- !u!1001 &7433703790600782949
PrefabInstance:
  m_ObjectHideFlags: 0
  serializedVersion: 2
  m_Modification:
    m_TransformParent: {fileID: 7069285167180884838}
    m_Modifications:
    - target: {fileID: 3293247596863567107, guid: 80761326030f37c4ca58f97545db667a,
        type: 3}
      propertyPath: m_Name
      value: Bush (3)
      objectReference: {fileID: 0}
    - target: {fileID: 2011049533800236816, guid: 80761326030f37c4ca58f97545db667a,
        type: 3}
      propertyPath: m_LocalPosition.x
      value: -14.5
      objectReference: {fileID: 0}
    - target: {fileID: 2011049533800236816, guid: 80761326030f37c4ca58f97545db667a,
        type: 3}
      propertyPath: m_LocalPosition.y
      value: 0.15
      objectReference: {fileID: 0}
    - target: {fileID: 2011049533800236816, guid: 80761326030f37c4ca58f97545db667a,
        type: 3}
      propertyPath: m_LocalPosition.z
      value: -15
      objectReference: {fileID: 0}
    - target: {fileID: 2011049533800236816, guid: 80761326030f37c4ca58f97545db667a,
        type: 3}
      propertyPath: m_LocalRotation.x
      value: 0
      objectReference: {fileID: 0}
    - target: {fileID: 2011049533800236816, guid: 80761326030f37c4ca58f97545db667a,
        type: 3}
      propertyPath: m_LocalRotation.y
      value: 0.7071068
      objectReference: {fileID: 0}
    - target: {fileID: 2011049533800236816, guid: 80761326030f37c4ca58f97545db667a,
        type: 3}
      propertyPath: m_LocalRotation.z
      value: 0
      objectReference: {fileID: 0}
    - target: {fileID: 2011049533800236816, guid: 80761326030f37c4ca58f97545db667a,
        type: 3}
      propertyPath: m_LocalRotation.w
      value: 0.7071068
      objectReference: {fileID: 0}
    - target: {fileID: 2011049533800236816, guid: 80761326030f37c4ca58f97545db667a,
        type: 3}
      propertyPath: m_RootOrder
      value: 11
      objectReference: {fileID: 0}
    - target: {fileID: 2011049533800236816, guid: 80761326030f37c4ca58f97545db667a,
        type: 3}
      propertyPath: m_LocalEulerAnglesHint.x
      value: 0
      objectReference: {fileID: 0}
    - target: {fileID: 2011049533800236816, guid: 80761326030f37c4ca58f97545db667a,
        type: 3}
      propertyPath: m_LocalEulerAnglesHint.y
      value: 90
      objectReference: {fileID: 0}
    - target: {fileID: 2011049533800236816, guid: 80761326030f37c4ca58f97545db667a,
        type: 3}
      propertyPath: m_LocalEulerAnglesHint.z
      value: 0
      objectReference: {fileID: 0}
    m_RemovedComponents: []
  m_SourcePrefab: {fileID: 100100000, guid: 80761326030f37c4ca58f97545db667a, type: 3}
--- !u!4 &8989603577221399413 stripped
Transform:
  m_CorrespondingSourceObject: {fileID: 2011049533800236816, guid: 80761326030f37c4ca58f97545db667a,
    type: 3}
  m_PrefabInstance: {fileID: 7433703790600782949}
  m_PrefabAsset: {fileID: 0}
--- !u!1001 &8251367660965520951
PrefabInstance:
  m_ObjectHideFlags: 0
  serializedVersion: 2
  m_Modification:
    m_TransformParent: {fileID: 7069285167180884838}
    m_Modifications:
    - target: {fileID: 4652090175675454976, guid: 715c826bb4fc25c429dc7c65bb8f8b43,
        type: 3}
      propertyPath: m_Name
      value: Grass (10)
      objectReference: {fileID: 0}
    - target: {fileID: 8562700260742177811, guid: 715c826bb4fc25c429dc7c65bb8f8b43,
        type: 3}
      propertyPath: m_LocalPosition.x
      value: 0
      objectReference: {fileID: 0}
    - target: {fileID: 8562700260742177811, guid: 715c826bb4fc25c429dc7c65bb8f8b43,
        type: 3}
      propertyPath: m_LocalPosition.y
      value: 0
      objectReference: {fileID: 0}
    - target: {fileID: 8562700260742177811, guid: 715c826bb4fc25c429dc7c65bb8f8b43,
        type: 3}
      propertyPath: m_LocalPosition.z
      value: 0
      objectReference: {fileID: 0}
    - target: {fileID: 8562700260742177811, guid: 715c826bb4fc25c429dc7c65bb8f8b43,
        type: 3}
      propertyPath: m_LocalRotation.x
      value: 0.00000006657903
      objectReference: {fileID: 0}
    - target: {fileID: 8562700260742177811, guid: 715c826bb4fc25c429dc7c65bb8f8b43,
        type: 3}
      propertyPath: m_LocalRotation.y
      value: -0
      objectReference: {fileID: 0}
    - target: {fileID: 8562700260742177811, guid: 715c826bb4fc25c429dc7c65bb8f8b43,
        type: 3}
      propertyPath: m_LocalRotation.z
      value: -0
      objectReference: {fileID: 0}
    - target: {fileID: 8562700260742177811, guid: 715c826bb4fc25c429dc7c65bb8f8b43,
        type: 3}
      propertyPath: m_LocalRotation.w
      value: 1
      objectReference: {fileID: 0}
    - target: {fileID: 8562700260742177811, guid: 715c826bb4fc25c429dc7c65bb8f8b43,
        type: 3}
      propertyPath: m_RootOrder
      value: 6
      objectReference: {fileID: 0}
    - target: {fileID: 8562700260742177811, guid: 715c826bb4fc25c429dc7c65bb8f8b43,
        type: 3}
      propertyPath: m_LocalEulerAnglesHint.x
      value: 0
      objectReference: {fileID: 0}
    - target: {fileID: 8562700260742177811, guid: 715c826bb4fc25c429dc7c65bb8f8b43,
        type: 3}
      propertyPath: m_LocalEulerAnglesHint.y
      value: 0
      objectReference: {fileID: 0}
    - target: {fileID: 8562700260742177811, guid: 715c826bb4fc25c429dc7c65bb8f8b43,
        type: 3}
      propertyPath: m_LocalEulerAnglesHint.z
      value: 0
      objectReference: {fileID: 0}
    - target: {fileID: 8562700260742177811, guid: 715c826bb4fc25c429dc7c65bb8f8b43,
        type: 3}
      propertyPath: m_LocalScale.x
      value: 1.15
      objectReference: {fileID: 0}
    m_RemovedComponents: []
  m_SourcePrefab: {fileID: 100100000, guid: 715c826bb4fc25c429dc7c65bb8f8b43, type: 3}
--- !u!4 &312557820812739108 stripped
Transform:
  m_CorrespondingSourceObject: {fileID: 8562700260742177811, guid: 715c826bb4fc25c429dc7c65bb8f8b43,
    type: 3}
  m_PrefabInstance: {fileID: 8251367660965520951}
  m_PrefabAsset: {fileID: 0}
--- !u!1001 &8649048855131622495
PrefabInstance:
  m_ObjectHideFlags: 0
  serializedVersion: 2
  m_Modification:
    m_TransformParent: {fileID: 7069285167180884838}
    m_Modifications:
    - target: {fileID: 2958007416753304825, guid: b096b6abeb206c348b2758c176ecb51e,
        type: 3}
      propertyPath: m_Name
      value: Tree2
      objectReference: {fileID: 0}
    - target: {fileID: 2958007416753304825, guid: b096b6abeb206c348b2758c176ecb51e,
        type: 3}
      propertyPath: m_IsActive
      value: 1
      objectReference: {fileID: 0}
    - target: {fileID: 2258464821934278378, guid: b096b6abeb206c348b2758c176ecb51e,
        type: 3}
      propertyPath: m_LocalPosition.x
      value: -11.81
      objectReference: {fileID: 0}
    - target: {fileID: 2258464821934278378, guid: b096b6abeb206c348b2758c176ecb51e,
        type: 3}
      propertyPath: m_LocalPosition.y
      value: 0.15
      objectReference: {fileID: 0}
    - target: {fileID: 2258464821934278378, guid: b096b6abeb206c348b2758c176ecb51e,
        type: 3}
      propertyPath: m_LocalPosition.z
      value: -0.95
      objectReference: {fileID: 0}
    - target: {fileID: 2258464821934278378, guid: b096b6abeb206c348b2758c176ecb51e,
        type: 3}
      propertyPath: m_LocalRotation.x
      value: 0.00000006657903
      objectReference: {fileID: 0}
    - target: {fileID: 2258464821934278378, guid: b096b6abeb206c348b2758c176ecb51e,
        type: 3}
      propertyPath: m_LocalRotation.y
      value: -0
      objectReference: {fileID: 0}
    - target: {fileID: 2258464821934278378, guid: b096b6abeb206c348b2758c176ecb51e,
        type: 3}
      propertyPath: m_LocalRotation.z
      value: -0
      objectReference: {fileID: 0}
    - target: {fileID: 2258464821934278378, guid: b096b6abeb206c348b2758c176ecb51e,
        type: 3}
      propertyPath: m_LocalRotation.w
      value: 1
      objectReference: {fileID: 0}
    - target: {fileID: 2258464821934278378, guid: b096b6abeb206c348b2758c176ecb51e,
        type: 3}
      propertyPath: m_RootOrder
      value: 21
      objectReference: {fileID: 0}
    - target: {fileID: 2258464821934278378, guid: b096b6abeb206c348b2758c176ecb51e,
        type: 3}
      propertyPath: m_LocalEulerAnglesHint.x
      value: 0
      objectReference: {fileID: 0}
    - target: {fileID: 2258464821934278378, guid: b096b6abeb206c348b2758c176ecb51e,
        type: 3}
      propertyPath: m_LocalEulerAnglesHint.y
      value: 0
      objectReference: {fileID: 0}
    - target: {fileID: 2258464821934278378, guid: b096b6abeb206c348b2758c176ecb51e,
        type: 3}
      propertyPath: m_LocalEulerAnglesHint.z
      value: 0
      objectReference: {fileID: 0}
    m_RemovedComponents: []
  m_SourcePrefab: {fileID: 100100000, guid: b096b6abeb206c348b2758c176ecb51e, type: 3}
--- !u!4 &7444509359130102453 stripped
Transform:
  m_CorrespondingSourceObject: {fileID: 2258464821934278378, guid: b096b6abeb206c348b2758c176ecb51e,
    type: 3}
  m_PrefabInstance: {fileID: 8649048855131622495}
  m_PrefabAsset: {fileID: 0}
--- !u!1001 &9159034264146524540
PrefabInstance:
  m_ObjectHideFlags: 0
  serializedVersion: 2
  m_Modification:
    m_TransformParent: {fileID: 7069285167180884838}
    m_Modifications:
    - target: {fileID: 4652090175675454976, guid: 715c826bb4fc25c429dc7c65bb8f8b43,
        type: 3}
      propertyPath: m_Name
      value: Grass (5)
      objectReference: {fileID: 0}
    - target: {fileID: 8562700260742177811, guid: 715c826bb4fc25c429dc7c65bb8f8b43,
        type: 3}
      propertyPath: m_LocalPosition.x
      value: -9.1
      objectReference: {fileID: 0}
    - target: {fileID: 8562700260742177811, guid: 715c826bb4fc25c429dc7c65bb8f8b43,
        type: 3}
      propertyPath: m_LocalPosition.y
      value: 0
      objectReference: {fileID: 0}
    - target: {fileID: 8562700260742177811, guid: 715c826bb4fc25c429dc7c65bb8f8b43,
        type: 3}
      propertyPath: m_LocalPosition.z
      value: 0
      objectReference: {fileID: 0}
    - target: {fileID: 8562700260742177811, guid: 715c826bb4fc25c429dc7c65bb8f8b43,
        type: 3}
      propertyPath: m_LocalRotation.x
      value: 0.00000006657903
      objectReference: {fileID: 0}
    - target: {fileID: 8562700260742177811, guid: 715c826bb4fc25c429dc7c65bb8f8b43,
        type: 3}
      propertyPath: m_LocalRotation.y
      value: -0
      objectReference: {fileID: 0}
    - target: {fileID: 8562700260742177811, guid: 715c826bb4fc25c429dc7c65bb8f8b43,
        type: 3}
      propertyPath: m_LocalRotation.z
      value: -0
      objectReference: {fileID: 0}
    - target: {fileID: 8562700260742177811, guid: 715c826bb4fc25c429dc7c65bb8f8b43,
        type: 3}
      propertyPath: m_LocalRotation.w
      value: 1
      objectReference: {fileID: 0}
    - target: {fileID: 8562700260742177811, guid: 715c826bb4fc25c429dc7c65bb8f8b43,
        type: 3}
      propertyPath: m_RootOrder
      value: 5
      objectReference: {fileID: 0}
    - target: {fileID: 8562700260742177811, guid: 715c826bb4fc25c429dc7c65bb8f8b43,
        type: 3}
      propertyPath: m_LocalEulerAnglesHint.x
      value: 0
      objectReference: {fileID: 0}
    - target: {fileID: 8562700260742177811, guid: 715c826bb4fc25c429dc7c65bb8f8b43,
        type: 3}
      propertyPath: m_LocalEulerAnglesHint.y
      value: 0
      objectReference: {fileID: 0}
    - target: {fileID: 8562700260742177811, guid: 715c826bb4fc25c429dc7c65bb8f8b43,
        type: 3}
      propertyPath: m_LocalEulerAnglesHint.z
      value: 0
      objectReference: {fileID: 0}
    - target: {fileID: 8562700260742177811, guid: 715c826bb4fc25c429dc7c65bb8f8b43,
        type: 3}
      propertyPath: m_LocalScale.x
      value: 1.18
      objectReference: {fileID: 0}
    m_RemovedComponents: []
  m_SourcePrefab: {fileID: 100100000, guid: 715c826bb4fc25c429dc7c65bb8f8b43, type: 3}
--- !u!4 &706994394388700527 stripped
Transform:
  m_CorrespondingSourceObject: {fileID: 8562700260742177811, guid: 715c826bb4fc25c429dc7c65bb8f8b43,
    type: 3}
  m_PrefabInstance: {fileID: 9159034264146524540}
  m_PrefabAsset: {fileID: 0}
