%YAML 1.1
%TAG !u! tag:unity3d.com,2011:
--- !u!1 &6431607056607732777
GameObject:
  m_ObjectHideFlags: 0
  m_CorrespondingSourceObject: {fileID: 0}
  m_PrefabInstance: {fileID: 0}
  m_PrefabAsset: {fileID: 0}
  serializedVersion: 6
  m_Component:
  - component: {fileID: 6311186369975340615}
  m_Layer: 0
  m_Name: Building_42
  m_TagString: Untagged
  m_Icon: {fileID: 0}
  m_NavMeshLayer: 0
  m_StaticEditorFlags: 0
  m_IsActive: 1
--- !u!4 &6311186369975340615
Transform:
  m_ObjectHideFlags: 0
  m_CorrespondingSourceObject: {fileID: 0}
  m_PrefabInstance: {fileID: 0}
  m_PrefabAsset: {fileID: 0}
  m_GameObject: {fileID: 6431607056607732777}
  m_LocalRotation: {x: 0, y: 0, z: 0, w: 1}
  m_LocalPosition: {x: 0, y: 0, z: 0}
  m_LocalScale: {x: 1, y: 1, z: 1}
  m_Children:
  - {fileID: 8480830274047074322}
  - {fileID: 5318220227784493916}
  - {fileID: 7729508178611126477}
  - {fileID: 7069093494601384170}
  - {fileID: 5097552599242624727}
  - {fileID: 7059056018893267577}
  - {fileID: 3263453529276443592}
  - {fileID: 8901709863585051174}
  - {fileID: 1003931361462061922}
  - {fileID: 3713141558252847323}
  - {fileID: 6527808186835701710}
  - {fileID: 1940644063716144106}
  - {fileID: 4452599538617744245}
  - {fileID: 1081635107199057606}
  - {fileID: 4401886874816429192}
  m_Father: {fileID: 0}
  m_RootOrder: 0
  m_LocalEulerAnglesHint: {x: 0, y: 0, z: 0}
--- !u!1001 &1099093210635086039
PrefabInstance:
  m_ObjectHideFlags: 0
  serializedVersion: 2
  m_Modification:
    m_TransformParent: {fileID: 6311186369975340615}
    m_Modifications:
    - target: {fileID: 4379603171368236076, guid: d79e5f09437355a44adab193c0858058,
        type: 3}
      propertyPath: m_Name
      value: Concrete (19)
      objectReference: {fileID: 0}
    - target: {fileID: 4379603171368265740, guid: d79e5f09437355a44adab193c0858058,
        type: 3}
      propertyPath: m_LocalPosition.x
      value: -20
      objectReference: {fileID: 0}
    - target: {fileID: 4379603171368265740, guid: d79e5f09437355a44adab193c0858058,
        type: 3}
      propertyPath: m_LocalPosition.y
      value: 0
      objectReference: {fileID: 0}
    - target: {fileID: 4379603171368265740, guid: d79e5f09437355a44adab193c0858058,
        type: 3}
      propertyPath: m_LocalPosition.z
      value: -5
      objectReference: {fileID: 0}
    - target: {fileID: 4379603171368265740, guid: d79e5f09437355a44adab193c0858058,
        type: 3}
      propertyPath: m_LocalRotation.x
      value: 0.00000008146034
      objectReference: {fileID: 0}
    - target: {fileID: 4379603171368265740, guid: d79e5f09437355a44adab193c0858058,
        type: 3}
      propertyPath: m_LocalRotation.y
      value: -0
      objectReference: {fileID: 0}
    - target: {fileID: 4379603171368265740, guid: d79e5f09437355a44adab193c0858058,
        type: 3}
      propertyPath: m_LocalRotation.z
      value: -0
      objectReference: {fileID: 0}
    - target: {fileID: 4379603171368265740, guid: d79e5f09437355a44adab193c0858058,
        type: 3}
      propertyPath: m_LocalRotation.w
      value: 1
      objectReference: {fileID: 0}
    - target: {fileID: 4379603171368265740, guid: d79e5f09437355a44adab193c0858058,
        type: 3}
      propertyPath: m_RootOrder
      value: 9
      objectReference: {fileID: 0}
    - target: {fileID: 4379603171368265740, guid: d79e5f09437355a44adab193c0858058,
        type: 3}
      propertyPath: m_LocalEulerAnglesHint.x
      value: 0
      objectReference: {fileID: 0}
    - target: {fileID: 4379603171368265740, guid: d79e5f09437355a44adab193c0858058,
        type: 3}
      propertyPath: m_LocalEulerAnglesHint.y
      value: 0
      objectReference: {fileID: 0}
    - target: {fileID: 4379603171368265740, guid: d79e5f09437355a44adab193c0858058,
        type: 3}
      propertyPath: m_LocalEulerAnglesHint.z
      value: 0
      objectReference: {fileID: 0}
    - target: {fileID: 4379603171368265740, guid: d79e5f09437355a44adab193c0858058,
        type: 3}
      propertyPath: m_LocalScale.x
      value: 1
      objectReference: {fileID: 0}
    - target: {fileID: 4379603171368265740, guid: d79e5f09437355a44adab193c0858058,
        type: 3}
      propertyPath: m_LocalScale.z
      value: 2
      objectReference: {fileID: 0}
    m_RemovedComponents: []
  m_SourcePrefab: {fileID: 100100000, guid: d79e5f09437355a44adab193c0858058, type: 3}
--- !u!4 &3713141558252847323 stripped
Transform:
  m_CorrespondingSourceObject: {fileID: 4379603171368265740, guid: d79e5f09437355a44adab193c0858058,
    type: 3}
  m_PrefabInstance: {fileID: 1099093210635086039}
  m_PrefabAsset: {fileID: 0}
--- !u!1001 &1264777367655547844
PrefabInstance:
  m_ObjectHideFlags: 0
  serializedVersion: 2
  m_Modification:
    m_TransformParent: {fileID: 6311186369975340615}
    m_Modifications:
    - target: {fileID: 4379603171368236076, guid: d79e5f09437355a44adab193c0858058,
        type: 3}
      propertyPath: m_Name
      value: Concrete (16)
      objectReference: {fileID: 0}
    - target: {fileID: 4379603171368265740, guid: d79e5f09437355a44adab193c0858058,
        type: 3}
      propertyPath: m_LocalPosition.x
      value: -5
      objectReference: {fileID: 0}
    - target: {fileID: 4379603171368265740, guid: d79e5f09437355a44adab193c0858058,
        type: 3}
      propertyPath: m_LocalPosition.y
      value: 0
      objectReference: {fileID: 0}
    - target: {fileID: 4379603171368265740, guid: d79e5f09437355a44adab193c0858058,
        type: 3}
      propertyPath: m_LocalPosition.z
      value: -5
      objectReference: {fileID: 0}
    - target: {fileID: 4379603171368265740, guid: d79e5f09437355a44adab193c0858058,
        type: 3}
      propertyPath: m_LocalRotation.x
      value: 0.00000008146034
      objectReference: {fileID: 0}
    - target: {fileID: 4379603171368265740, guid: d79e5f09437355a44adab193c0858058,
        type: 3}
      propertyPath: m_LocalRotation.y
      value: -0
      objectReference: {fileID: 0}
    - target: {fileID: 4379603171368265740, guid: d79e5f09437355a44adab193c0858058,
        type: 3}
      propertyPath: m_LocalRotation.z
      value: -0
      objectReference: {fileID: 0}
    - target: {fileID: 4379603171368265740, guid: d79e5f09437355a44adab193c0858058,
        type: 3}
      propertyPath: m_LocalRotation.w
      value: 1
      objectReference: {fileID: 0}
    - target: {fileID: 4379603171368265740, guid: d79e5f09437355a44adab193c0858058,
        type: 3}
      propertyPath: m_RootOrder
      value: 6
      objectReference: {fileID: 0}
    - target: {fileID: 4379603171368265740, guid: d79e5f09437355a44adab193c0858058,
        type: 3}
      propertyPath: m_LocalEulerAnglesHint.x
      value: 0
      objectReference: {fileID: 0}
    - target: {fileID: 4379603171368265740, guid: d79e5f09437355a44adab193c0858058,
        type: 3}
      propertyPath: m_LocalEulerAnglesHint.y
      value: 0
      objectReference: {fileID: 0}
    - target: {fileID: 4379603171368265740, guid: d79e5f09437355a44adab193c0858058,
        type: 3}
      propertyPath: m_LocalEulerAnglesHint.z
      value: 0
      objectReference: {fileID: 0}
    - target: {fileID: 4379603171368265740, guid: d79e5f09437355a44adab193c0858058,
        type: 3}
      propertyPath: m_LocalScale.x
      value: 1
      objectReference: {fileID: 0}
    - target: {fileID: 4379603171368265740, guid: d79e5f09437355a44adab193c0858058,
        type: 3}
      propertyPath: m_LocalScale.z
      value: 2
      objectReference: {fileID: 0}
    m_RemovedComponents: []
  m_SourcePrefab: {fileID: 100100000, guid: d79e5f09437355a44adab193c0858058, type: 3}
--- !u!4 &3263453529276443592 stripped
Transform:
  m_CorrespondingSourceObject: {fileID: 4379603171368265740, guid: d79e5f09437355a44adab193c0858058,
    type: 3}
  m_PrefabInstance: {fileID: 1264777367655547844}
  m_PrefabAsset: {fileID: 0}
--- !u!1001 &2749998011824282598
PrefabInstance:
  m_ObjectHideFlags: 0
  serializedVersion: 2
  m_Modification:
    m_TransformParent: {fileID: 6311186369975340615}
    m_Modifications:
    - target: {fileID: 4379603171368236076, guid: d79e5f09437355a44adab193c0858058,
        type: 3}
      propertyPath: m_Name
      value: Concrete (21)
      objectReference: {fileID: 0}
    - target: {fileID: 4379603171368265740, guid: d79e5f09437355a44adab193c0858058,
        type: 3}
      propertyPath: m_LocalPosition.x
      value: -20
      objectReference: {fileID: 0}
    - target: {fileID: 4379603171368265740, guid: d79e5f09437355a44adab193c0858058,
        type: 3}
      propertyPath: m_LocalPosition.y
      value: 0
      objectReference: {fileID: 0}
    - target: {fileID: 4379603171368265740, guid: d79e5f09437355a44adab193c0858058,
        type: 3}
      propertyPath: m_LocalPosition.z
      value: 0
      objectReference: {fileID: 0}
    - target: {fileID: 4379603171368265740, guid: d79e5f09437355a44adab193c0858058,
        type: 3}
      propertyPath: m_LocalRotation.x
      value: 0.00000008146034
      objectReference: {fileID: 0}
    - target: {fileID: 4379603171368265740, guid: d79e5f09437355a44adab193c0858058,
        type: 3}
      propertyPath: m_LocalRotation.y
      value: -0
      objectReference: {fileID: 0}
    - target: {fileID: 4379603171368265740, guid: d79e5f09437355a44adab193c0858058,
        type: 3}
      propertyPath: m_LocalRotation.z
      value: -0
      objectReference: {fileID: 0}
    - target: {fileID: 4379603171368265740, guid: d79e5f09437355a44adab193c0858058,
        type: 3}
      propertyPath: m_LocalRotation.w
      value: 1
      objectReference: {fileID: 0}
    - target: {fileID: 4379603171368265740, guid: d79e5f09437355a44adab193c0858058,
        type: 3}
      propertyPath: m_RootOrder
      value: 11
      objectReference: {fileID: 0}
    - target: {fileID: 4379603171368265740, guid: d79e5f09437355a44adab193c0858058,
        type: 3}
      propertyPath: m_LocalEulerAnglesHint.x
      value: 0
      objectReference: {fileID: 0}
    - target: {fileID: 4379603171368265740, guid: d79e5f09437355a44adab193c0858058,
        type: 3}
      propertyPath: m_LocalEulerAnglesHint.y
      value: 0
      objectReference: {fileID: 0}
    - target: {fileID: 4379603171368265740, guid: d79e5f09437355a44adab193c0858058,
        type: 3}
      propertyPath: m_LocalEulerAnglesHint.z
      value: 0
      objectReference: {fileID: 0}
    - target: {fileID: 4379603171368265740, guid: d79e5f09437355a44adab193c0858058,
        type: 3}
      propertyPath: m_LocalScale.x
      value: 1
      objectReference: {fileID: 0}
    - target: {fileID: 4379603171368265740, guid: d79e5f09437355a44adab193c0858058,
        type: 3}
      propertyPath: m_LocalScale.z
      value: 1.4
      objectReference: {fileID: 0}
    m_RemovedComponents: []
  m_SourcePrefab: {fileID: 100100000, guid: d79e5f09437355a44adab193c0858058, type: 3}
--- !u!4 &1940644063716144106 stripped
Transform:
  m_CorrespondingSourceObject: {fileID: 4379603171368265740, guid: d79e5f09437355a44adab193c0858058,
    type: 3}
  m_PrefabInstance: {fileID: 2749998011824282598}
  m_PrefabAsset: {fileID: 0}
--- !u!1001 &3542599665243808622
PrefabInstance:
  m_ObjectHideFlags: 0
  serializedVersion: 2
  m_Modification:
    m_TransformParent: {fileID: 6311186369975340615}
    m_Modifications:
    - target: {fileID: 4379603171368236076, guid: d79e5f09437355a44adab193c0858058,
        type: 3}
      propertyPath: m_Name
      value: Concrete (18)
      objectReference: {fileID: 0}
    - target: {fileID: 4379603171368265740, guid: d79e5f09437355a44adab193c0858058,
        type: 3}
      propertyPath: m_LocalPosition.x
      value: -15
      objectReference: {fileID: 0}
    - target: {fileID: 4379603171368265740, guid: d79e5f09437355a44adab193c0858058,
        type: 3}
      propertyPath: m_LocalPosition.y
      value: 0
      objectReference: {fileID: 0}
    - target: {fileID: 4379603171368265740, guid: d79e5f09437355a44adab193c0858058,
        type: 3}
      propertyPath: m_LocalPosition.z
      value: -5
      objectReference: {fileID: 0}
    - target: {fileID: 4379603171368265740, guid: d79e5f09437355a44adab193c0858058,
        type: 3}
      propertyPath: m_LocalRotation.x
      value: 0.00000008146034
      objectReference: {fileID: 0}
    - target: {fileID: 4379603171368265740, guid: d79e5f09437355a44adab193c0858058,
        type: 3}
      propertyPath: m_LocalRotation.y
      value: -0
      objectReference: {fileID: 0}
    - target: {fileID: 4379603171368265740, guid: d79e5f09437355a44adab193c0858058,
        type: 3}
      propertyPath: m_LocalRotation.z
      value: -0
      objectReference: {fileID: 0}
    - target: {fileID: 4379603171368265740, guid: d79e5f09437355a44adab193c0858058,
        type: 3}
      propertyPath: m_LocalRotation.w
      value: 1
      objectReference: {fileID: 0}
    - target: {fileID: 4379603171368265740, guid: d79e5f09437355a44adab193c0858058,
        type: 3}
      propertyPath: m_RootOrder
      value: 8
      objectReference: {fileID: 0}
    - target: {fileID: 4379603171368265740, guid: d79e5f09437355a44adab193c0858058,
        type: 3}
      propertyPath: m_LocalEulerAnglesHint.x
      value: 0
      objectReference: {fileID: 0}
    - target: {fileID: 4379603171368265740, guid: d79e5f09437355a44adab193c0858058,
        type: 3}
      propertyPath: m_LocalEulerAnglesHint.y
      value: 0
      objectReference: {fileID: 0}
    - target: {fileID: 4379603171368265740, guid: d79e5f09437355a44adab193c0858058,
        type: 3}
      propertyPath: m_LocalEulerAnglesHint.z
      value: 0
      objectReference: {fileID: 0}
    - target: {fileID: 4379603171368265740, guid: d79e5f09437355a44adab193c0858058,
        type: 3}
      propertyPath: m_LocalScale.x
      value: 1
      objectReference: {fileID: 0}
    - target: {fileID: 4379603171368265740, guid: d79e5f09437355a44adab193c0858058,
        type: 3}
      propertyPath: m_LocalScale.z
      value: 2
      objectReference: {fileID: 0}
    m_RemovedComponents: []
  m_SourcePrefab: {fileID: 100100000, guid: d79e5f09437355a44adab193c0858058, type: 3}
--- !u!4 &1003931361462061922 stripped
Transform:
  m_CorrespondingSourceObject: {fileID: 4379603171368265740, guid: d79e5f09437355a44adab193c0858058,
    type: 3}
  m_PrefabInstance: {fileID: 3542599665243808622}
  m_PrefabAsset: {fileID: 0}
--- !u!1001 &4745243743874040239
PrefabInstance:
  m_ObjectHideFlags: 0
  serializedVersion: 2
  m_Modification:
    m_TransformParent: {fileID: 6311186369975340615}
    m_Modifications:
    - target: {fileID: 8683954612789038458, guid: 2842fbfa21002f54298f0aeb992e6415,
        type: 3}
      propertyPath: m_Name
      value: GardenBed2
      objectReference: {fileID: 0}
    - target: {fileID: 5681505803307138921, guid: 2842fbfa21002f54298f0aeb992e6415,
        type: 3}
      propertyPath: m_LocalPosition.x
      value: -1.39
      objectReference: {fileID: 0}
    - target: {fileID: 5681505803307138921, guid: 2842fbfa21002f54298f0aeb992e6415,
        type: 3}
      propertyPath: m_LocalPosition.y
      value: 0.15
      objectReference: {fileID: 0}
    - target: {fileID: 5681505803307138921, guid: 2842fbfa21002f54298f0aeb992e6415,
        type: 3}
      propertyPath: m_LocalPosition.z
      value: -2.17
      objectReference: {fileID: 0}
    - target: {fileID: 5681505803307138921, guid: 2842fbfa21002f54298f0aeb992e6415,
        type: 3}
      propertyPath: m_LocalRotation.x
      value: 0.00000006657903
      objectReference: {fileID: 0}
    - target: {fileID: 5681505803307138921, guid: 2842fbfa21002f54298f0aeb992e6415,
        type: 3}
      propertyPath: m_LocalRotation.y
      value: -0
      objectReference: {fileID: 0}
    - target: {fileID: 5681505803307138921, guid: 2842fbfa21002f54298f0aeb992e6415,
        type: 3}
      propertyPath: m_LocalRotation.z
      value: -0
      objectReference: {fileID: 0}
    - target: {fileID: 5681505803307138921, guid: 2842fbfa21002f54298f0aeb992e6415,
        type: 3}
      propertyPath: m_LocalRotation.w
      value: 1
      objectReference: {fileID: 0}
    - target: {fileID: 5681505803307138921, guid: 2842fbfa21002f54298f0aeb992e6415,
        type: 3}
      propertyPath: m_RootOrder
      value: 13
      objectReference: {fileID: 0}
    - target: {fileID: 5681505803307138921, guid: 2842fbfa21002f54298f0aeb992e6415,
        type: 3}
      propertyPath: m_LocalEulerAnglesHint.x
      value: 0
      objectReference: {fileID: 0}
    - target: {fileID: 5681505803307138921, guid: 2842fbfa21002f54298f0aeb992e6415,
        type: 3}
      propertyPath: m_LocalEulerAnglesHint.y
      value: 0
      objectReference: {fileID: 0}
    - target: {fileID: 5681505803307138921, guid: 2842fbfa21002f54298f0aeb992e6415,
        type: 3}
      propertyPath: m_LocalEulerAnglesHint.z
      value: 0
      objectReference: {fileID: 0}
    m_RemovedComponents: []
  m_SourcePrefab: {fileID: 100100000, guid: 2842fbfa21002f54298f0aeb992e6415, type: 3}
--- !u!4 &1081635107199057606 stripped
Transform:
  m_CorrespondingSourceObject: {fileID: 5681505803307138921, guid: 2842fbfa21002f54298f0aeb992e6415,
    type: 3}
  m_PrefabInstance: {fileID: 4745243743874040239}
  m_PrefabAsset: {fileID: 0}
--- !u!1001 &5138114681634265642
PrefabInstance:
  m_ObjectHideFlags: 0
  serializedVersion: 2
  m_Modification:
    m_TransformParent: {fileID: 6311186369975340615}
    m_Modifications:
    - target: {fileID: 4379603171368236076, guid: d79e5f09437355a44adab193c0858058,
        type: 3}
      propertyPath: m_Name
      value: Concrete (17)
      objectReference: {fileID: 0}
    - target: {fileID: 4379603171368265740, guid: d79e5f09437355a44adab193c0858058,
        type: 3}
      propertyPath: m_LocalPosition.x
      value: -10
      objectReference: {fileID: 0}
    - target: {fileID: 4379603171368265740, guid: d79e5f09437355a44adab193c0858058,
        type: 3}
      propertyPath: m_LocalPosition.y
      value: 0
      objectReference: {fileID: 0}
    - target: {fileID: 4379603171368265740, guid: d79e5f09437355a44adab193c0858058,
        type: 3}
      propertyPath: m_LocalPosition.z
      value: -5
      objectReference: {fileID: 0}
    - target: {fileID: 4379603171368265740, guid: d79e5f09437355a44adab193c0858058,
        type: 3}
      propertyPath: m_LocalRotation.x
      value: 0.00000008146034
      objectReference: {fileID: 0}
    - target: {fileID: 4379603171368265740, guid: d79e5f09437355a44adab193c0858058,
        type: 3}
      propertyPath: m_LocalRotation.y
      value: -0
      objectReference: {fileID: 0}
    - target: {fileID: 4379603171368265740, guid: d79e5f09437355a44adab193c0858058,
        type: 3}
      propertyPath: m_LocalRotation.z
      value: -0
      objectReference: {fileID: 0}
    - target: {fileID: 4379603171368265740, guid: d79e5f09437355a44adab193c0858058,
        type: 3}
      propertyPath: m_LocalRotation.w
      value: 1
      objectReference: {fileID: 0}
    - target: {fileID: 4379603171368265740, guid: d79e5f09437355a44adab193c0858058,
        type: 3}
      propertyPath: m_RootOrder
      value: 7
      objectReference: {fileID: 0}
    - target: {fileID: 4379603171368265740, guid: d79e5f09437355a44adab193c0858058,
        type: 3}
      propertyPath: m_LocalEulerAnglesHint.x
      value: 0
      objectReference: {fileID: 0}
    - target: {fileID: 4379603171368265740, guid: d79e5f09437355a44adab193c0858058,
        type: 3}
      propertyPath: m_LocalEulerAnglesHint.y
      value: 0
      objectReference: {fileID: 0}
    - target: {fileID: 4379603171368265740, guid: d79e5f09437355a44adab193c0858058,
        type: 3}
      propertyPath: m_LocalEulerAnglesHint.z
      value: 0
      objectReference: {fileID: 0}
    - target: {fileID: 4379603171368265740, guid: d79e5f09437355a44adab193c0858058,
        type: 3}
      propertyPath: m_LocalScale.x
      value: 1
      objectReference: {fileID: 0}
    - target: {fileID: 4379603171368265740, guid: d79e5f09437355a44adab193c0858058,
        type: 3}
      propertyPath: m_LocalScale.z
      value: 2
      objectReference: {fileID: 0}
    m_RemovedComponents: []
  m_SourcePrefab: {fileID: 100100000, guid: d79e5f09437355a44adab193c0858058, type: 3}
--- !u!4 &8901709863585051174 stripped
Transform:
  m_CorrespondingSourceObject: {fileID: 4379603171368265740, guid: d79e5f09437355a44adab193c0858058,
    type: 3}
  m_PrefabInstance: {fileID: 5138114681634265642}
  m_PrefabAsset: {fileID: 0}
--- !u!1001 &5501136323907395687
PrefabInstance:
  m_ObjectHideFlags: 0
  serializedVersion: 2
  m_Modification:
    m_TransformParent: {fileID: 6311186369975340615}
    m_Modifications:
    - target: {fileID: 403612343161616155, guid: 4b0be938ec95de14399a5e4fac57d0a8,
        type: 3}
      propertyPath: m_Name
      value: GarbageContainer
      objectReference: {fileID: 0}
    - target: {fileID: 403612343161580347, guid: 4b0be938ec95de14399a5e4fac57d0a8,
        type: 3}
      propertyPath: m_LocalPosition.x
      value: -23.3
      objectReference: {fileID: 0}
    - target: {fileID: 403612343161580347, guid: 4b0be938ec95de14399a5e4fac57d0a8,
        type: 3}
      propertyPath: m_LocalPosition.y
      value: 0.15
      objectReference: {fileID: 0}
    - target: {fileID: 403612343161580347, guid: 4b0be938ec95de14399a5e4fac57d0a8,
        type: 3}
      propertyPath: m_LocalPosition.z
      value: -3.11
      objectReference: {fileID: 0}
    - target: {fileID: 403612343161580347, guid: 4b0be938ec95de14399a5e4fac57d0a8,
        type: 3}
      propertyPath: m_LocalRotation.x
      value: 0.000000057601245
      objectReference: {fileID: 0}
    - target: {fileID: 403612343161580347, guid: 4b0be938ec95de14399a5e4fac57d0a8,
        type: 3}
      propertyPath: m_LocalRotation.y
      value: -0.70710576
      objectReference: {fileID: 0}
    - target: {fileID: 403612343161580347, guid: 4b0be938ec95de14399a5e4fac57d0a8,
        type: 3}
      propertyPath: m_LocalRotation.z
      value: 0.00000005760109
      objectReference: {fileID: 0}
    - target: {fileID: 403612343161580347, guid: 4b0be938ec95de14399a5e4fac57d0a8,
        type: 3}
      propertyPath: m_LocalRotation.w
      value: 0.7071079
      objectReference: {fileID: 0}
    - target: {fileID: 403612343161580347, guid: 4b0be938ec95de14399a5e4fac57d0a8,
        type: 3}
      propertyPath: m_RootOrder
      value: 1
      objectReference: {fileID: 0}
    - target: {fileID: 403612343161580347, guid: 4b0be938ec95de14399a5e4fac57d0a8,
        type: 3}
      propertyPath: m_LocalEulerAnglesHint.x
      value: 0
      objectReference: {fileID: 0}
    - target: {fileID: 403612343161580347, guid: 4b0be938ec95de14399a5e4fac57d0a8,
        type: 3}
      propertyPath: m_LocalEulerAnglesHint.y
      value: -90.00001
      objectReference: {fileID: 0}
    - target: {fileID: 403612343161580347, guid: 4b0be938ec95de14399a5e4fac57d0a8,
        type: 3}
      propertyPath: m_LocalEulerAnglesHint.z
      value: 0
      objectReference: {fileID: 0}
    m_RemovedComponents: []
  m_SourcePrefab: {fileID: 100100000, guid: 4b0be938ec95de14399a5e4fac57d0a8, type: 3}
--- !u!4 &5318220227784493916 stripped
Transform:
  m_CorrespondingSourceObject: {fileID: 403612343161580347, guid: 4b0be938ec95de14399a5e4fac57d0a8,
    type: 3}
  m_PrefabInstance: {fileID: 5501136323907395687}
  m_PrefabAsset: {fileID: 0}
--- !u!1001 &6306098707649767617
PrefabInstance:
  m_ObjectHideFlags: 0
  serializedVersion: 2
  m_Modification:
    m_TransformParent: {fileID: 6311186369975340615}
    m_Modifications:
    - target: {fileID: 4379603171368236076, guid: d79e5f09437355a44adab193c0858058,
        type: 3}
      propertyPath: m_Name
      value: Concrete
      objectReference: {fileID: 0}
    - target: {fileID: 4379603171368265740, guid: d79e5f09437355a44adab193c0858058,
        type: 3}
      propertyPath: m_LocalPosition.x
      value: 0
      objectReference: {fileID: 0}
    - target: {fileID: 4379603171368265740, guid: d79e5f09437355a44adab193c0858058,
        type: 3}
      propertyPath: m_LocalPosition.y
      value: 0
      objectReference: {fileID: 0}
    - target: {fileID: 4379603171368265740, guid: d79e5f09437355a44adab193c0858058,
        type: 3}
      propertyPath: m_LocalPosition.z
      value: 0
      objectReference: {fileID: 0}
    - target: {fileID: 4379603171368265740, guid: d79e5f09437355a44adab193c0858058,
        type: 3}
      propertyPath: m_LocalRotation.x
      value: 0.00000008146034
      objectReference: {fileID: 0}
    - target: {fileID: 4379603171368265740, guid: d79e5f09437355a44adab193c0858058,
        type: 3}
      propertyPath: m_LocalRotation.y
      value: -0
      objectReference: {fileID: 0}
    - target: {fileID: 4379603171368265740, guid: d79e5f09437355a44adab193c0858058,
        type: 3}
      propertyPath: m_LocalRotation.z
      value: -0
      objectReference: {fileID: 0}
    - target: {fileID: 4379603171368265740, guid: d79e5f09437355a44adab193c0858058,
        type: 3}
      propertyPath: m_LocalRotation.w
      value: 1
      objectReference: {fileID: 0}
    - target: {fileID: 4379603171368265740, guid: d79e5f09437355a44adab193c0858058,
        type: 3}
      propertyPath: m_RootOrder
      value: 2
      objectReference: {fileID: 0}
    - target: {fileID: 4379603171368265740, guid: d79e5f09437355a44adab193c0858058,
        type: 3}
      propertyPath: m_LocalEulerAnglesHint.x
      value: 0
      objectReference: {fileID: 0}
    - target: {fileID: 4379603171368265740, guid: d79e5f09437355a44adab193c0858058,
        type: 3}
      propertyPath: m_LocalEulerAnglesHint.y
      value: 0
      objectReference: {fileID: 0}
    - target: {fileID: 4379603171368265740, guid: d79e5f09437355a44adab193c0858058,
        type: 3}
      propertyPath: m_LocalEulerAnglesHint.z
      value: 0
      objectReference: {fileID: 0}
    m_RemovedComponents: []
  m_SourcePrefab: {fileID: 100100000, guid: d79e5f09437355a44adab193c0858058, type: 3}
--- !u!4 &7729508178611126477 stripped
Transform:
  m_CorrespondingSourceObject: {fileID: 4379603171368265740, guid: d79e5f09437355a44adab193c0858058,
    type: 3}
  m_PrefabInstance: {fileID: 6306098707649767617}
  m_PrefabAsset: {fileID: 0}
--- !u!1001 &6715350748477196917
PrefabInstance:
  m_ObjectHideFlags: 0
  serializedVersion: 2
  m_Modification:
    m_TransformParent: {fileID: 6311186369975340615}
    m_Modifications:
    - target: {fileID: 4379603171368236076, guid: d79e5f09437355a44adab193c0858058,
        type: 3}
      propertyPath: m_Name
      value: Concrete (15)
      objectReference: {fileID: 0}
    - target: {fileID: 4379603171368265740, guid: d79e5f09437355a44adab193c0858058,
        type: 3}
      propertyPath: m_LocalPosition.x
      value: 0
      objectReference: {fileID: 0}
    - target: {fileID: 4379603171368265740, guid: d79e5f09437355a44adab193c0858058,
        type: 3}
      propertyPath: m_LocalPosition.y
      value: 0
      objectReference: {fileID: 0}
    - target: {fileID: 4379603171368265740, guid: d79e5f09437355a44adab193c0858058,
        type: 3}
      propertyPath: m_LocalPosition.z
      value: -5
      objectReference: {fileID: 0}
    - target: {fileID: 4379603171368265740, guid: d79e5f09437355a44adab193c0858058,
        type: 3}
      propertyPath: m_LocalRotation.x
      value: 0.00000008146034
      objectReference: {fileID: 0}
    - target: {fileID: 4379603171368265740, guid: d79e5f09437355a44adab193c0858058,
        type: 3}
      propertyPath: m_LocalRotation.y
      value: -0
      objectReference: {fileID: 0}
    - target: {fileID: 4379603171368265740, guid: d79e5f09437355a44adab193c0858058,
        type: 3}
      propertyPath: m_LocalRotation.z
      value: -0
      objectReference: {fileID: 0}
    - target: {fileID: 4379603171368265740, guid: d79e5f09437355a44adab193c0858058,
        type: 3}
      propertyPath: m_LocalRotation.w
      value: 1
      objectReference: {fileID: 0}
    - target: {fileID: 4379603171368265740, guid: d79e5f09437355a44adab193c0858058,
        type: 3}
      propertyPath: m_RootOrder
      value: 5
      objectReference: {fileID: 0}
    - target: {fileID: 4379603171368265740, guid: d79e5f09437355a44adab193c0858058,
        type: 3}
      propertyPath: m_LocalEulerAnglesHint.x
      value: 0
      objectReference: {fileID: 0}
    - target: {fileID: 4379603171368265740, guid: d79e5f09437355a44adab193c0858058,
        type: 3}
      propertyPath: m_LocalEulerAnglesHint.y
      value: 0
      objectReference: {fileID: 0}
    - target: {fileID: 4379603171368265740, guid: d79e5f09437355a44adab193c0858058,
        type: 3}
      propertyPath: m_LocalEulerAnglesHint.z
      value: 0
      objectReference: {fileID: 0}
    - target: {fileID: 4379603171368265740, guid: d79e5f09437355a44adab193c0858058,
        type: 3}
      propertyPath: m_LocalScale.x
      value: 1
      objectReference: {fileID: 0}
    - target: {fileID: 4379603171368265740, guid: d79e5f09437355a44adab193c0858058,
        type: 3}
      propertyPath: m_LocalScale.z
      value: 2
      objectReference: {fileID: 0}
    m_RemovedComponents: []
  m_SourcePrefab: {fileID: 100100000, guid: d79e5f09437355a44adab193c0858058, type: 3}
--- !u!4 &7059056018893267577 stripped
Transform:
  m_CorrespondingSourceObject: {fileID: 4379603171368265740, guid: d79e5f09437355a44adab193c0858058,
    type: 3}
  m_PrefabInstance: {fileID: 6715350748477196917}
  m_PrefabAsset: {fileID: 0}
--- !u!1001 &6835636255706441958
PrefabInstance:
  m_ObjectHideFlags: 0
  serializedVersion: 2
  m_Modification:
    m_TransformParent: {fileID: 6311186369975340615}
    m_Modifications:
    - target: {fileID: 4379603171368236076, guid: d79e5f09437355a44adab193c0858058,
        type: 3}
      propertyPath: m_Name
      value: Concrete (1)
      objectReference: {fileID: 0}
    - target: {fileID: 4379603171368265740, guid: d79e5f09437355a44adab193c0858058,
        type: 3}
      propertyPath: m_LocalPosition.x
      value: -5
      objectReference: {fileID: 0}
    - target: {fileID: 4379603171368265740, guid: d79e5f09437355a44adab193c0858058,
        type: 3}
      propertyPath: m_LocalPosition.y
      value: 0
      objectReference: {fileID: 0}
    - target: {fileID: 4379603171368265740, guid: d79e5f09437355a44adab193c0858058,
        type: 3}
      propertyPath: m_LocalPosition.z
      value: 0
      objectReference: {fileID: 0}
    - target: {fileID: 4379603171368265740, guid: d79e5f09437355a44adab193c0858058,
        type: 3}
      propertyPath: m_LocalRotation.x
      value: 0.00000008146034
      objectReference: {fileID: 0}
    - target: {fileID: 4379603171368265740, guid: d79e5f09437355a44adab193c0858058,
        type: 3}
      propertyPath: m_LocalRotation.y
      value: -0
      objectReference: {fileID: 0}
    - target: {fileID: 4379603171368265740, guid: d79e5f09437355a44adab193c0858058,
        type: 3}
      propertyPath: m_LocalRotation.z
      value: -0
      objectReference: {fileID: 0}
    - target: {fileID: 4379603171368265740, guid: d79e5f09437355a44adab193c0858058,
        type: 3}
      propertyPath: m_LocalRotation.w
      value: 1
      objectReference: {fileID: 0}
    - target: {fileID: 4379603171368265740, guid: d79e5f09437355a44adab193c0858058,
        type: 3}
      propertyPath: m_RootOrder
      value: 3
      objectReference: {fileID: 0}
    - target: {fileID: 4379603171368265740, guid: d79e5f09437355a44adab193c0858058,
        type: 3}
      propertyPath: m_LocalEulerAnglesHint.x
      value: 0
      objectReference: {fileID: 0}
    - target: {fileID: 4379603171368265740, guid: d79e5f09437355a44adab193c0858058,
        type: 3}
      propertyPath: m_LocalEulerAnglesHint.y
      value: 0
      objectReference: {fileID: 0}
    - target: {fileID: 4379603171368265740, guid: d79e5f09437355a44adab193c0858058,
        type: 3}
      propertyPath: m_LocalEulerAnglesHint.z
      value: 0
      objectReference: {fileID: 0}
    m_RemovedComponents: []
  m_SourcePrefab: {fileID: 100100000, guid: d79e5f09437355a44adab193c0858058, type: 3}
--- !u!4 &7069093494601384170 stripped
Transform:
  m_CorrespondingSourceObject: {fileID: 4379603171368265740, guid: d79e5f09437355a44adab193c0858058,
    type: 3}
  m_PrefabInstance: {fileID: 6835636255706441958}
  m_PrefabAsset: {fileID: 0}
--- !u!1001 &7091182766930495763
PrefabInstance:
  m_ObjectHideFlags: 0
  serializedVersion: 2
  m_Modification:
    m_TransformParent: {fileID: 6311186369975340615}
    m_Modifications:
    - target: {fileID: 1718412517592560929, guid: e0ad546f809b8564292966bd9a408774,
        type: 3}
      propertyPath: m_Name
      value: Building_42
      objectReference: {fileID: 0}
    - target: {fileID: 1718412517593049345, guid: e0ad546f809b8564292966bd9a408774,
        type: 3}
      propertyPath: m_LocalPosition.x
      value: -2.3899994
      objectReference: {fileID: 0}
    - target: {fileID: 1718412517593049345, guid: e0ad546f809b8564292966bd9a408774,
        type: 3}
      propertyPath: m_LocalPosition.y
      value: 0.15
      objectReference: {fileID: 0}
    - target: {fileID: 1718412517593049345, guid: e0ad546f809b8564292966bd9a408774,
        type: 3}
      propertyPath: m_LocalPosition.z
      value: -0.78000045
      objectReference: {fileID: 0}
    - target: {fileID: 1718412517593049345, guid: e0ad546f809b8564292966bd9a408774,
        type: 3}
      propertyPath: m_LocalRotation.x
      value: 0.00000008146034
      objectReference: {fileID: 0}
    - target: {fileID: 1718412517593049345, guid: e0ad546f809b8564292966bd9a408774,
        type: 3}
      propertyPath: m_LocalRotation.y
      value: 0
      objectReference: {fileID: 0}
    - target: {fileID: 1718412517593049345, guid: e0ad546f809b8564292966bd9a408774,
        type: 3}
      propertyPath: m_LocalRotation.z
      value: -0
      objectReference: {fileID: 0}
    - target: {fileID: 1718412517593049345, guid: e0ad546f809b8564292966bd9a408774,
        type: 3}
      propertyPath: m_LocalRotation.w
      value: 1
      objectReference: {fileID: 0}
    - target: {fileID: 1718412517593049345, guid: e0ad546f809b8564292966bd9a408774,
        type: 3}
      propertyPath: m_RootOrder
      value: 0
      objectReference: {fileID: 0}
    - target: {fileID: 1718412517593049345, guid: e0ad546f809b8564292966bd9a408774,
        type: 3}
      propertyPath: m_LocalEulerAnglesHint.x
      value: 0
      objectReference: {fileID: 0}
    - target: {fileID: 1718412517593049345, guid: e0ad546f809b8564292966bd9a408774,
        type: 3}
      propertyPath: m_LocalEulerAnglesHint.y
      value: 0
      objectReference: {fileID: 0}
    - target: {fileID: 1718412517593049345, guid: e0ad546f809b8564292966bd9a408774,
        type: 3}
      propertyPath: m_LocalEulerAnglesHint.z
      value: 0
      objectReference: {fileID: 0}
    m_RemovedComponents: []
  m_SourcePrefab: {fileID: 100100000, guid: e0ad546f809b8564292966bd9a408774, type: 3}
--- !u!4 &8480830274047074322 stripped
Transform:
  m_CorrespondingSourceObject: {fileID: 1718412517593049345, guid: e0ad546f809b8564292966bd9a408774,
    type: 3}
  m_PrefabInstance: {fileID: 7091182766930495763}
  m_PrefabAsset: {fileID: 0}
--- !u!1001 &7372417967300995010
PrefabInstance:
  m_ObjectHideFlags: 0
  serializedVersion: 2
  m_Modification:
    m_TransformParent: {fileID: 6311186369975340615}
    m_Modifications:
    - target: {fileID: 4379603171368236076, guid: d79e5f09437355a44adab193c0858058,
        type: 3}
      propertyPath: m_Name
      value: Concrete (20)
      objectReference: {fileID: 0}
    - target: {fileID: 4379603171368265740, guid: d79e5f09437355a44adab193c0858058,
        type: 3}
      propertyPath: m_LocalPosition.x
      value: -15
      objectReference: {fileID: 0}
    - target: {fileID: 4379603171368265740, guid: d79e5f09437355a44adab193c0858058,
        type: 3}
      propertyPath: m_LocalPosition.y
      value: 0
      objectReference: {fileID: 0}
    - target: {fileID: 4379603171368265740, guid: d79e5f09437355a44adab193c0858058,
        type: 3}
      propertyPath: m_LocalPosition.z
      value: 0
      objectReference: {fileID: 0}
    - target: {fileID: 4379603171368265740, guid: d79e5f09437355a44adab193c0858058,
        type: 3}
      propertyPath: m_LocalRotation.x
      value: 0.00000008146034
      objectReference: {fileID: 0}
    - target: {fileID: 4379603171368265740, guid: d79e5f09437355a44adab193c0858058,
        type: 3}
      propertyPath: m_LocalRotation.y
      value: -0
      objectReference: {fileID: 0}
    - target: {fileID: 4379603171368265740, guid: d79e5f09437355a44adab193c0858058,
        type: 3}
      propertyPath: m_LocalRotation.z
      value: -0
      objectReference: {fileID: 0}
    - target: {fileID: 4379603171368265740, guid: d79e5f09437355a44adab193c0858058,
        type: 3}
      propertyPath: m_LocalRotation.w
      value: 1
      objectReference: {fileID: 0}
    - target: {fileID: 4379603171368265740, guid: d79e5f09437355a44adab193c0858058,
        type: 3}
      propertyPath: m_RootOrder
      value: 10
      objectReference: {fileID: 0}
    - target: {fileID: 4379603171368265740, guid: d79e5f09437355a44adab193c0858058,
        type: 3}
      propertyPath: m_LocalEulerAnglesHint.x
      value: 0
      objectReference: {fileID: 0}
    - target: {fileID: 4379603171368265740, guid: d79e5f09437355a44adab193c0858058,
        type: 3}
      propertyPath: m_LocalEulerAnglesHint.y
      value: 0
      objectReference: {fileID: 0}
    - target: {fileID: 4379603171368265740, guid: d79e5f09437355a44adab193c0858058,
        type: 3}
      propertyPath: m_LocalEulerAnglesHint.z
      value: 0
      objectReference: {fileID: 0}
    - target: {fileID: 4379603171368265740, guid: d79e5f09437355a44adab193c0858058,
        type: 3}
      propertyPath: m_LocalScale.x
      value: 1
      objectReference: {fileID: 0}
    - target: {fileID: 4379603171368265740, guid: d79e5f09437355a44adab193c0858058,
        type: 3}
      propertyPath: m_LocalScale.z
      value: 1.4
      objectReference: {fileID: 0}
    m_RemovedComponents: []
  m_SourcePrefab: {fileID: 100100000, guid: d79e5f09437355a44adab193c0858058, type: 3}
--- !u!4 &6527808186835701710 stripped
Transform:
  m_CorrespondingSourceObject: {fileID: 4379603171368265740, guid: d79e5f09437355a44adab193c0858058,
    type: 3}
  m_PrefabInstance: {fileID: 7372417967300995010}
  m_PrefabAsset: {fileID: 0}
--- !u!1001 &8344721127621395425
PrefabInstance:
  m_ObjectHideFlags: 0
  serializedVersion: 2
  m_Modification:
    m_TransformParent: {fileID: 6311186369975340615}
    m_Modifications:
    - target: {fileID: 8683954612789038458, guid: 2842fbfa21002f54298f0aeb992e6415,
        type: 3}
      propertyPath: m_Name
      value: GardenBed2 (1)
      objectReference: {fileID: 0}
    - target: {fileID: 5681505803307138921, guid: 2842fbfa21002f54298f0aeb992e6415,
        type: 3}
      propertyPath: m_LocalPosition.x
      value: -1.39
      objectReference: {fileID: 0}
    - target: {fileID: 5681505803307138921, guid: 2842fbfa21002f54298f0aeb992e6415,
        type: 3}
      propertyPath: m_LocalPosition.y
      value: 0.15
      objectReference: {fileID: 0}
    - target: {fileID: 5681505803307138921, guid: 2842fbfa21002f54298f0aeb992e6415,
        type: 3}
      propertyPath: m_LocalPosition.z
      value: -6.17
      objectReference: {fileID: 0}
    - target: {fileID: 5681505803307138921, guid: 2842fbfa21002f54298f0aeb992e6415,
        type: 3}
      propertyPath: m_LocalRotation.x
      value: 0.00000006657903
      objectReference: {fileID: 0}
    - target: {fileID: 5681505803307138921, guid: 2842fbfa21002f54298f0aeb992e6415,
        type: 3}
      propertyPath: m_LocalRotation.y
      value: -0
      objectReference: {fileID: 0}
    - target: {fileID: 5681505803307138921, guid: 2842fbfa21002f54298f0aeb992e6415,
        type: 3}
      propertyPath: m_LocalRotation.z
      value: -0
      objectReference: {fileID: 0}
    - target: {fileID: 5681505803307138921, guid: 2842fbfa21002f54298f0aeb992e6415,
        type: 3}
      propertyPath: m_LocalRotation.w
      value: 1
      objectReference: {fileID: 0}
    - target: {fileID: 5681505803307138921, guid: 2842fbfa21002f54298f0aeb992e6415,
        type: 3}
      propertyPath: m_RootOrder
      value: 14
      objectReference: {fileID: 0}
    - target: {fileID: 5681505803307138921, guid: 2842fbfa21002f54298f0aeb992e6415,
        type: 3}
      propertyPath: m_LocalEulerAnglesHint.x
      value: 0
      objectReference: {fileID: 0}
    - target: {fileID: 5681505803307138921, guid: 2842fbfa21002f54298f0aeb992e6415,
        type: 3}
      propertyPath: m_LocalEulerAnglesHint.y
      value: 0
      objectReference: {fileID: 0}
    - target: {fileID: 5681505803307138921, guid: 2842fbfa21002f54298f0aeb992e6415,
        type: 3}
      propertyPath: m_LocalEulerAnglesHint.z
      value: 0
      objectReference: {fileID: 0}
    m_RemovedComponents: []
  m_SourcePrefab: {fileID: 100100000, guid: 2842fbfa21002f54298f0aeb992e6415, type: 3}
--- !u!4 &4401886874816429192 stripped
Transform:
  m_CorrespondingSourceObject: {fileID: 5681505803307138921, guid: 2842fbfa21002f54298f0aeb992e6415,
    type: 3}
  m_PrefabInstance: {fileID: 8344721127621395425}
  m_PrefabAsset: {fileID: 0}
--- !u!1001 &8484656444417802493
PrefabInstance:
  m_ObjectHideFlags: 0
  serializedVersion: 2
  m_Modification:
    m_TransformParent: {fileID: 6311186369975340615}
    m_Modifications:
    - target: {fileID: 9092231624186562971, guid: 5cc32babc276b0142b14a12198e0c663,
        type: 3}
      propertyPath: m_Name
      value: Bench
      objectReference: {fileID: 0}
    - target: {fileID: 5221151522626239368, guid: 5cc32babc276b0142b14a12198e0c663,
        type: 3}
      propertyPath: m_LocalPosition.x
      value: -1.36
      objectReference: {fileID: 0}
    - target: {fileID: 5221151522626239368, guid: 5cc32babc276b0142b14a12198e0c663,
        type: 3}
      propertyPath: m_LocalPosition.y
      value: 0.15
      objectReference: {fileID: 0}
    - target: {fileID: 5221151522626239368, guid: 5cc32babc276b0142b14a12198e0c663,
        type: 3}
      propertyPath: m_LocalPosition.z
      value: -5.65
      objectReference: {fileID: 0}
    - target: {fileID: 5221151522626239368, guid: 5cc32babc276b0142b14a12198e0c663,
        type: 3}
      propertyPath: m_LocalRotation.x
      value: 0.000000047078558
      objectReference: {fileID: 0}
    - target: {fileID: 5221151522626239368, guid: 5cc32babc276b0142b14a12198e0c663,
        type: 3}
      propertyPath: m_LocalRotation.y
      value: 0.70710576
      objectReference: {fileID: 0}
    - target: {fileID: 5221151522626239368, guid: 5cc32babc276b0142b14a12198e0c663,
        type: 3}
      propertyPath: m_LocalRotation.z
      value: -0.00000004707842
      objectReference: {fileID: 0}
    - target: {fileID: 5221151522626239368, guid: 5cc32babc276b0142b14a12198e0c663,
        type: 3}
      propertyPath: m_LocalRotation.w
      value: 0.70710784
      objectReference: {fileID: 0}
    - target: {fileID: 5221151522626239368, guid: 5cc32babc276b0142b14a12198e0c663,
        type: 3}
      propertyPath: m_RootOrder
      value: 12
      objectReference: {fileID: 0}
    - target: {fileID: 5221151522626239368, guid: 5cc32babc276b0142b14a12198e0c663,
        type: 3}
      propertyPath: m_LocalEulerAnglesHint.x
      value: 0
      objectReference: {fileID: 0}
    - target: {fileID: 5221151522626239368, guid: 5cc32babc276b0142b14a12198e0c663,
        type: 3}
      propertyPath: m_LocalEulerAnglesHint.y
      value: 90.00001
      objectReference: {fileID: 0}
    - target: {fileID: 5221151522626239368, guid: 5cc32babc276b0142b14a12198e0c663,
        type: 3}
      propertyPath: m_LocalEulerAnglesHint.z
      value: 0
      objectReference: {fileID: 0}
    m_RemovedComponents: []
  m_SourcePrefab: {fileID: 100100000, guid: 5cc32babc276b0142b14a12198e0c663, type: 3}
--- !u!4 &4452599538617744245 stripped
Transform:
  m_CorrespondingSourceObject: {fileID: 5221151522626239368, guid: 5cc32babc276b0142b14a12198e0c663,
    type: 3}
  m_PrefabInstance: {fileID: 8484656444417802493}
  m_PrefabAsset: {fileID: 0}
--- !u!1001 &8825187156091578075
PrefabInstance:
  m_ObjectHideFlags: 0
  serializedVersion: 2
  m_Modification:
    m_TransformParent: {fileID: 6311186369975340615}
    m_Modifications:
    - target: {fileID: 4379603171368236076, guid: d79e5f09437355a44adab193c0858058,
        type: 3}
      propertyPath: m_Name
      value: Concrete (14)
      objectReference: {fileID: 0}
    - target: {fileID: 4379603171368265740, guid: d79e5f09437355a44adab193c0858058,
        type: 3}
      propertyPath: m_LocalPosition.x
      value: -10
      objectReference: {fileID: 0}
    - target: {fileID: 4379603171368265740, guid: d79e5f09437355a44adab193c0858058,
        type: 3}
      propertyPath: m_LocalPosition.y
      value: 0
      objectReference: {fileID: 0}
    - target: {fileID: 4379603171368265740, guid: d79e5f09437355a44adab193c0858058,
        type: 3}
      propertyPath: m_LocalPosition.z
      value: 0
      objectReference: {fileID: 0}
    - target: {fileID: 4379603171368265740, guid: d79e5f09437355a44adab193c0858058,
        type: 3}
      propertyPath: m_LocalRotation.x
      value: 0.00000008146034
      objectReference: {fileID: 0}
    - target: {fileID: 4379603171368265740, guid: d79e5f09437355a44adab193c0858058,
        type: 3}
      propertyPath: m_LocalRotation.y
      value: -0
      objectReference: {fileID: 0}
    - target: {fileID: 4379603171368265740, guid: d79e5f09437355a44adab193c0858058,
        type: 3}
      propertyPath: m_LocalRotation.z
      value: -0
      objectReference: {fileID: 0}
    - target: {fileID: 4379603171368265740, guid: d79e5f09437355a44adab193c0858058,
        type: 3}
      propertyPath: m_LocalRotation.w
      value: 1
      objectReference: {fileID: 0}
    - target: {fileID: 4379603171368265740, guid: d79e5f09437355a44adab193c0858058,
        type: 3}
      propertyPath: m_RootOrder
      value: 4
      objectReference: {fileID: 0}
    - target: {fileID: 4379603171368265740, guid: d79e5f09437355a44adab193c0858058,
        type: 3}
      propertyPath: m_LocalEulerAnglesHint.x
      value: 0
      objectReference: {fileID: 0}
    - target: {fileID: 4379603171368265740, guid: d79e5f09437355a44adab193c0858058,
        type: 3}
      propertyPath: m_LocalEulerAnglesHint.y
      value: 0
      objectReference: {fileID: 0}
    - target: {fileID: 4379603171368265740, guid: d79e5f09437355a44adab193c0858058,
        type: 3}
      propertyPath: m_LocalEulerAnglesHint.z
      value: 0
      objectReference: {fileID: 0}
    m_RemovedComponents: []
  m_SourcePrefab: {fileID: 100100000, guid: d79e5f09437355a44adab193c0858058, type: 3}
--- !u!4 &5097552599242624727 stripped
Transform:
  m_CorrespondingSourceObject: {fileID: 4379603171368265740, guid: d79e5f09437355a44adab193c0858058,
    type: 3}
  m_PrefabInstance: {fileID: 8825187156091578075}
  m_PrefabAsset: {fileID: 0}
