%YAML 1.1
%TAG !u! tag:unity3d.com,2011:
--- !u!1 &1313890618270907559
GameObject:
  m_ObjectHideFlags: 0
  m_CorrespondingSourceObject: {fileID: 0}
  m_PrefabInstance: {fileID: 0}
  m_PrefabAsset: {fileID: 0}
  serializedVersion: 6
  m_Component:
  - component: {fileID: 1313890618270907556}
  m_Layer: 0
  m_Name: Building_18
  m_TagString: Untagged
  m_Icon: {fileID: 0}
  m_NavMeshLayer: 0
  m_StaticEditorFlags: 0
  m_IsActive: 1
--- !u!4 &1313890618270907556
Transform:
  m_ObjectHideFlags: 0
  m_CorrespondingSourceObject: {fileID: 0}
  m_PrefabInstance: {fileID: 0}
  m_PrefabAsset: {fileID: 0}
  m_GameObject: {fileID: 1313890618270907559}
  m_LocalRotation: {x: 0, y: 0, z: 0, w: 1}
  m_LocalPosition: {x: 0, y: 0, z: 0}
  m_LocalScale: {x: 1, y: 1, z: 1}
  m_Children:
  - {fileID: 3679925198464099186}
  - {fileID: 9161766375296334730}
  - {fileID: 6507315721528884960}
  - {fileID: 8987965190394955166}
  - {fileID: 833357743516083712}
  - {fileID: 4970987994519061950}
  - {fileID: 4556510142152567461}
  - {fileID: 8973708634912605086}
  m_Father: {fileID: 0}
  m_RootOrder: 0
  m_LocalEulerAnglesHint: {x: 0, y: 0, z: 0}
--- !u!1001 &287245438697046697
PrefabInstance:
  m_ObjectHideFlags: 0
  serializedVersion: 2
  m_Modification:
    m_TransformParent: {fileID: 1313890618270907556}
    m_Modifications:
    - target: {fileID: 4379603171368236076, guid: d79e5f09437355a44adab193c0858058,
        type: 3}
      propertyPath: m_Name
      value: Concrete (2)
      objectReference: {fileID: 0}
    - target: {fileID: 4379603171368265740, guid: d79e5f09437355a44adab193c0858058,
        type: 3}
      propertyPath: m_LocalPosition.x
      value: 0
      objectReference: {fileID: 0}
    - target: {fileID: 4379603171368265740, guid: d79e5f09437355a44adab193c0858058,
        type: 3}
      propertyPath: m_LocalPosition.y
      value: 0
      objectReference: {fileID: 0}
    - target: {fileID: 4379603171368265740, guid: d79e5f09437355a44adab193c0858058,
        type: 3}
      propertyPath: m_LocalPosition.z
      value: 0
      objectReference: {fileID: 0}
    - target: {fileID: 4379603171368265740, guid: d79e5f09437355a44adab193c0858058,
        type: 3}
      propertyPath: m_LocalRotation.x
      value: 0.00000008146034
      objectReference: {fileID: 0}
    - target: {fileID: 4379603171368265740, guid: d79e5f09437355a44adab193c0858058,
        type: 3}
      propertyPath: m_LocalRotation.y
      value: -0
      objectReference: {fileID: 0}
    - target: {fileID: 4379603171368265740, guid: d79e5f09437355a44adab193c0858058,
        type: 3}
      propertyPath: m_LocalRotation.z
      value: -0
      objectReference: {fileID: 0}
    - target: {fileID: 4379603171368265740, guid: d79e5f09437355a44adab193c0858058,
        type: 3}
      propertyPath: m_LocalRotation.w
      value: 1
      objectReference: {fileID: 0}
    - target: {fileID: 4379603171368265740, guid: d79e5f09437355a44adab193c0858058,
        type: 3}
      propertyPath: m_RootOrder
      value: 6
      objectReference: {fileID: 0}
    - target: {fileID: 4379603171368265740, guid: d79e5f09437355a44adab193c0858058,
        type: 3}
      propertyPath: m_LocalEulerAnglesHint.x
      value: 0
      objectReference: {fileID: 0}
    - target: {fileID: 4379603171368265740, guid: d79e5f09437355a44adab193c0858058,
        type: 3}
      propertyPath: m_LocalEulerAnglesHint.y
      value: 0
      objectReference: {fileID: 0}
    - target: {fileID: 4379603171368265740, guid: d79e5f09437355a44adab193c0858058,
        type: 3}
      propertyPath: m_LocalEulerAnglesHint.z
      value: 0
      objectReference: {fileID: 0}
    m_RemovedComponents: []
  m_SourcePrefab: {fileID: 100100000, guid: d79e5f09437355a44adab193c0858058, type: 3}
--- !u!4 &4556510142152567461 stripped
Transform:
  m_CorrespondingSourceObject: {fileID: 4379603171368265740, guid: d79e5f09437355a44adab193c0858058,
    type: 3}
  m_PrefabInstance: {fileID: 287245438697046697}
  m_PrefabAsset: {fileID: 0}
--- !u!1001 &1313890617297247338
PrefabInstance:
  m_ObjectHideFlags: 0
  serializedVersion: 2
  m_Modification:
    m_TransformParent: {fileID: 1313890618270907556}
    m_Modifications:
    - target: {fileID: 1689132634406931723, guid: 9e0300663af811c49a711e10ccd3dcdd,
        type: 3}
      propertyPath: m_Name
      value: Building_18
      objectReference: {fileID: 0}
    - target: {fileID: 2389820368338468632, guid: 9e0300663af811c49a711e10ccd3dcdd,
        type: 3}
      propertyPath: m_LocalPosition.x
      value: -1.62
      objectReference: {fileID: 0}
    - target: {fileID: 2389820368338468632, guid: 9e0300663af811c49a711e10ccd3dcdd,
        type: 3}
      propertyPath: m_LocalPosition.y
      value: 0.15
      objectReference: {fileID: 0}
    - target: {fileID: 2389820368338468632, guid: 9e0300663af811c49a711e10ccd3dcdd,
        type: 3}
      propertyPath: m_LocalPosition.z
      value: -1.18
      objectReference: {fileID: 0}
    - target: {fileID: 2389820368338468632, guid: 9e0300663af811c49a711e10ccd3dcdd,
        type: 3}
      propertyPath: m_LocalRotation.x
      value: 0.00000006657903
      objectReference: {fileID: 0}
    - target: {fileID: 2389820368338468632, guid: 9e0300663af811c49a711e10ccd3dcdd,
        type: 3}
      propertyPath: m_LocalRotation.y
      value: -0
      objectReference: {fileID: 0}
    - target: {fileID: 2389820368338468632, guid: 9e0300663af811c49a711e10ccd3dcdd,
        type: 3}
      propertyPath: m_LocalRotation.z
      value: -0
      objectReference: {fileID: 0}
    - target: {fileID: 2389820368338468632, guid: 9e0300663af811c49a711e10ccd3dcdd,
        type: 3}
      propertyPath: m_LocalRotation.w
      value: 1
      objectReference: {fileID: 0}
    - target: {fileID: 2389820368338468632, guid: 9e0300663af811c49a711e10ccd3dcdd,
        type: 3}
      propertyPath: m_RootOrder
      value: 0
      objectReference: {fileID: 0}
    - target: {fileID: 2389820368338468632, guid: 9e0300663af811c49a711e10ccd3dcdd,
        type: 3}
      propertyPath: m_LocalEulerAnglesHint.x
      value: 0
      objectReference: {fileID: 0}
    - target: {fileID: 2389820368338468632, guid: 9e0300663af811c49a711e10ccd3dcdd,
        type: 3}
      propertyPath: m_LocalEulerAnglesHint.y
      value: 0
      objectReference: {fileID: 0}
    - target: {fileID: 2389820368338468632, guid: 9e0300663af811c49a711e10ccd3dcdd,
        type: 3}
      propertyPath: m_LocalEulerAnglesHint.z
      value: 0
      objectReference: {fileID: 0}
    m_RemovedComponents: []
  m_SourcePrefab: {fileID: 100100000, guid: 9e0300663af811c49a711e10ccd3dcdd, type: 3}
--- !u!4 &3679925198464099186 stripped
Transform:
  m_CorrespondingSourceObject: {fileID: 2389820368338468632, guid: 9e0300663af811c49a711e10ccd3dcdd,
    type: 3}
  m_PrefabInstance: {fileID: 1313890617297247338}
  m_PrefabAsset: {fileID: 0}
--- !u!1001 &1313890618001016168
PrefabInstance:
  m_ObjectHideFlags: 0
  serializedVersion: 2
  m_Modification:
    m_TransformParent: {fileID: 1313890618270907556}
    m_Modifications:
    - target: {fileID: 9092231624186562971, guid: 5cc32babc276b0142b14a12198e0c663,
        type: 3}
      propertyPath: m_Name
      value: Bench
      objectReference: {fileID: 0}
    - target: {fileID: 5221151522626239368, guid: 5cc32babc276b0142b14a12198e0c663,
        type: 3}
      propertyPath: m_LocalPosition.x
      value: -9.468
      objectReference: {fileID: 0}
    - target: {fileID: 5221151522626239368, guid: 5cc32babc276b0142b14a12198e0c663,
        type: 3}
      propertyPath: m_LocalPosition.y
      value: 0.15
      objectReference: {fileID: 0}
    - target: {fileID: 5221151522626239368, guid: 5cc32babc276b0142b14a12198e0c663,
        type: 3}
      propertyPath: m_LocalPosition.z
      value: -2.3304462
      objectReference: {fileID: 0}
    - target: {fileID: 5221151522626239368, guid: 5cc32babc276b0142b14a12198e0c663,
        type: 3}
      propertyPath: m_LocalRotation.x
      value: -0
      objectReference: {fileID: 0}
    - target: {fileID: 5221151522626239368, guid: 5cc32babc276b0142b14a12198e0c663,
        type: 3}
      propertyPath: m_LocalRotation.y
      value: -0.7071068
      objectReference: {fileID: 0}
    - target: {fileID: 5221151522626239368, guid: 5cc32babc276b0142b14a12198e0c663,
        type: 3}
      propertyPath: m_LocalRotation.z
      value: -0
      objectReference: {fileID: 0}
    - target: {fileID: 5221151522626239368, guid: 5cc32babc276b0142b14a12198e0c663,
        type: 3}
      propertyPath: m_LocalRotation.w
      value: 0.7071068
      objectReference: {fileID: 0}
    - target: {fileID: 5221151522626239368, guid: 5cc32babc276b0142b14a12198e0c663,
        type: 3}
      propertyPath: m_RootOrder
      value: 2
      objectReference: {fileID: 0}
    - target: {fileID: 5221151522626239368, guid: 5cc32babc276b0142b14a12198e0c663,
        type: 3}
      propertyPath: m_LocalEulerAnglesHint.x
      value: 0
      objectReference: {fileID: 0}
    - target: {fileID: 5221151522626239368, guid: 5cc32babc276b0142b14a12198e0c663,
        type: 3}
      propertyPath: m_LocalEulerAnglesHint.y
      value: -90
      objectReference: {fileID: 0}
    - target: {fileID: 5221151522626239368, guid: 5cc32babc276b0142b14a12198e0c663,
        type: 3}
      propertyPath: m_LocalEulerAnglesHint.z
      value: 0
      objectReference: {fileID: 0}
    m_RemovedComponents: []
  m_SourcePrefab: {fileID: 100100000, guid: 5cc32babc276b0142b14a12198e0c663, type: 3}
--- !u!4 &6507315721528884960 stripped
Transform:
  m_CorrespondingSourceObject: {fileID: 5221151522626239368, guid: 5cc32babc276b0142b14a12198e0c663,
    type: 3}
  m_PrefabInstance: {fileID: 1313890618001016168}
  m_PrefabAsset: {fileID: 0}
--- !u!1001 &1313890618664831394
PrefabInstance:
  m_ObjectHideFlags: 0
  serializedVersion: 2
  m_Modification:
    m_TransformParent: {fileID: 1313890618270907556}
    m_Modifications:
    - target: {fileID: 6576830698199269435, guid: a35044c7b78864a4d9bf2cc24e01eaea,
        type: 3}
      propertyPath: m_Name
      value: AdBoardCafe (1)
      objectReference: {fileID: 0}
    - target: {fileID: 7862934704563663400, guid: a35044c7b78864a4d9bf2cc24e01eaea,
        type: 3}
      propertyPath: m_LocalPosition.x
      value: -1.6966379
      objectReference: {fileID: 0}
    - target: {fileID: 7862934704563663400, guid: a35044c7b78864a4d9bf2cc24e01eaea,
        type: 3}
      propertyPath: m_LocalPosition.y
      value: 0.15
      objectReference: {fileID: 0}
    - target: {fileID: 7862934704563663400, guid: a35044c7b78864a4d9bf2cc24e01eaea,
        type: 3}
      propertyPath: m_LocalPosition.z
      value: 1.75
      objectReference: {fileID: 0}
    - target: {fileID: 7862934704563663400, guid: a35044c7b78864a4d9bf2cc24e01eaea,
        type: 3}
      propertyPath: m_LocalRotation.x
      value: 0.00000006657903
      objectReference: {fileID: 0}
    - target: {fileID: 7862934704563663400, guid: a35044c7b78864a4d9bf2cc24e01eaea,
        type: 3}
      propertyPath: m_LocalRotation.y
      value: -0
      objectReference: {fileID: 0}
    - target: {fileID: 7862934704563663400, guid: a35044c7b78864a4d9bf2cc24e01eaea,
        type: 3}
      propertyPath: m_LocalRotation.z
      value: -0
      objectReference: {fileID: 0}
    - target: {fileID: 7862934704563663400, guid: a35044c7b78864a4d9bf2cc24e01eaea,
        type: 3}
      propertyPath: m_LocalRotation.w
      value: 1
      objectReference: {fileID: 0}
    - target: {fileID: 7862934704563663400, guid: a35044c7b78864a4d9bf2cc24e01eaea,
        type: 3}
      propertyPath: m_RootOrder
      value: 1
      objectReference: {fileID: 0}
    - target: {fileID: 7862934704563663400, guid: a35044c7b78864a4d9bf2cc24e01eaea,
        type: 3}
      propertyPath: m_LocalEulerAnglesHint.x
      value: 0
      objectReference: {fileID: 0}
    - target: {fileID: 7862934704563663400, guid: a35044c7b78864a4d9bf2cc24e01eaea,
        type: 3}
      propertyPath: m_LocalEulerAnglesHint.y
      value: 0
      objectReference: {fileID: 0}
    - target: {fileID: 7862934704563663400, guid: a35044c7b78864a4d9bf2cc24e01eaea,
        type: 3}
      propertyPath: m_LocalEulerAnglesHint.z
      value: 0
      objectReference: {fileID: 0}
    m_RemovedComponents: []
  m_SourcePrefab: {fileID: 100100000, guid: a35044c7b78864a4d9bf2cc24e01eaea, type: 3}
--- !u!4 &9161766375296334730 stripped
Transform:
  m_CorrespondingSourceObject: {fileID: 7862934704563663400, guid: a35044c7b78864a4d9bf2cc24e01eaea,
    type: 3}
  m_PrefabInstance: {fileID: 1313890618664831394}
  m_PrefabAsset: {fileID: 0}
--- !u!1001 &3987893019399196172
PrefabInstance:
  m_ObjectHideFlags: 0
  serializedVersion: 2
  m_Modification:
    m_TransformParent: {fileID: 1313890618270907556}
    m_Modifications:
    - target: {fileID: 4379603171368236076, guid: d79e5f09437355a44adab193c0858058,
        type: 3}
      propertyPath: m_Name
      value: Concrete
      objectReference: {fileID: 0}
    - target: {fileID: 4379603171368265740, guid: d79e5f09437355a44adab193c0858058,
        type: 3}
      propertyPath: m_LocalPosition.x
      value: -5
      objectReference: {fileID: 0}
    - target: {fileID: 4379603171368265740, guid: d79e5f09437355a44adab193c0858058,
        type: 3}
      propertyPath: m_LocalPosition.y
      value: 0
      objectReference: {fileID: 0}
    - target: {fileID: 4379603171368265740, guid: d79e5f09437355a44adab193c0858058,
        type: 3}
      propertyPath: m_LocalPosition.z
      value: 0
      objectReference: {fileID: 0}
    - target: {fileID: 4379603171368265740, guid: d79e5f09437355a44adab193c0858058,
        type: 3}
      propertyPath: m_LocalRotation.x
      value: 0.00000008146034
      objectReference: {fileID: 0}
    - target: {fileID: 4379603171368265740, guid: d79e5f09437355a44adab193c0858058,
        type: 3}
      propertyPath: m_LocalRotation.y
      value: -0
      objectReference: {fileID: 0}
    - target: {fileID: 4379603171368265740, guid: d79e5f09437355a44adab193c0858058,
        type: 3}
      propertyPath: m_LocalRotation.z
      value: -0
      objectReference: {fileID: 0}
    - target: {fileID: 4379603171368265740, guid: d79e5f09437355a44adab193c0858058,
        type: 3}
      propertyPath: m_LocalRotation.w
      value: 1
      objectReference: {fileID: 0}
    - target: {fileID: 4379603171368265740, guid: d79e5f09437355a44adab193c0858058,
        type: 3}
      propertyPath: m_RootOrder
      value: 4
      objectReference: {fileID: 0}
    - target: {fileID: 4379603171368265740, guid: d79e5f09437355a44adab193c0858058,
        type: 3}
      propertyPath: m_LocalEulerAnglesHint.x
      value: 0
      objectReference: {fileID: 0}
    - target: {fileID: 4379603171368265740, guid: d79e5f09437355a44adab193c0858058,
        type: 3}
      propertyPath: m_LocalEulerAnglesHint.y
      value: 0
      objectReference: {fileID: 0}
    - target: {fileID: 4379603171368265740, guid: d79e5f09437355a44adab193c0858058,
        type: 3}
      propertyPath: m_LocalEulerAnglesHint.z
      value: 0
      objectReference: {fileID: 0}
    m_RemovedComponents: []
  m_SourcePrefab: {fileID: 100100000, guid: d79e5f09437355a44adab193c0858058, type: 3}
--- !u!4 &833357743516083712 stripped
Transform:
  m_CorrespondingSourceObject: {fileID: 4379603171368265740, guid: d79e5f09437355a44adab193c0858058,
    type: 3}
  m_PrefabInstance: {fileID: 3987893019399196172}
  m_PrefabAsset: {fileID: 0}
--- !u!1001 &4633779142213905298
PrefabInstance:
  m_ObjectHideFlags: 0
  serializedVersion: 2
  m_Modification:
    m_TransformParent: {fileID: 1313890618270907556}
    m_Modifications:
    - target: {fileID: 4379603171368236076, guid: d79e5f09437355a44adab193c0858058,
        type: 3}
      propertyPath: m_Name
      value: Concrete (3)
      objectReference: {fileID: 0}
    - target: {fileID: 4379603171368265740, guid: d79e5f09437355a44adab193c0858058,
        type: 3}
      propertyPath: m_LocalPosition.x
      value: 0
      objectReference: {fileID: 0}
    - target: {fileID: 4379603171368265740, guid: d79e5f09437355a44adab193c0858058,
        type: 3}
      propertyPath: m_LocalPosition.y
      value: 0
      objectReference: {fileID: 0}
    - target: {fileID: 4379603171368265740, guid: d79e5f09437355a44adab193c0858058,
        type: 3}
      propertyPath: m_LocalPosition.z
      value: -5
      objectReference: {fileID: 0}
    - target: {fileID: 4379603171368265740, guid: d79e5f09437355a44adab193c0858058,
        type: 3}
      propertyPath: m_LocalRotation.x
      value: 0.00000008146034
      objectReference: {fileID: 0}
    - target: {fileID: 4379603171368265740, guid: d79e5f09437355a44adab193c0858058,
        type: 3}
      propertyPath: m_LocalRotation.y
      value: -0
      objectReference: {fileID: 0}
    - target: {fileID: 4379603171368265740, guid: d79e5f09437355a44adab193c0858058,
        type: 3}
      propertyPath: m_LocalRotation.z
      value: -0
      objectReference: {fileID: 0}
    - target: {fileID: 4379603171368265740, guid: d79e5f09437355a44adab193c0858058,
        type: 3}
      propertyPath: m_LocalRotation.w
      value: 1
      objectReference: {fileID: 0}
    - target: {fileID: 4379603171368265740, guid: d79e5f09437355a44adab193c0858058,
        type: 3}
      propertyPath: m_RootOrder
      value: 7
      objectReference: {fileID: 0}
    - target: {fileID: 4379603171368265740, guid: d79e5f09437355a44adab193c0858058,
        type: 3}
      propertyPath: m_LocalEulerAnglesHint.x
      value: 0
      objectReference: {fileID: 0}
    - target: {fileID: 4379603171368265740, guid: d79e5f09437355a44adab193c0858058,
        type: 3}
      propertyPath: m_LocalEulerAnglesHint.y
      value: 0
      objectReference: {fileID: 0}
    - target: {fileID: 4379603171368265740, guid: d79e5f09437355a44adab193c0858058,
        type: 3}
      propertyPath: m_LocalEulerAnglesHint.z
      value: 0
      objectReference: {fileID: 0}
    - target: {fileID: 4379603171368265740, guid: d79e5f09437355a44adab193c0858058,
        type: 3}
      propertyPath: m_LocalScale.x
      value: 1
      objectReference: {fileID: 0}
    - target: {fileID: 4379603171368265740, guid: d79e5f09437355a44adab193c0858058,
        type: 3}
      propertyPath: m_LocalScale.z
      value: 2
      objectReference: {fileID: 0}
    m_RemovedComponents: []
  m_SourcePrefab: {fileID: 100100000, guid: d79e5f09437355a44adab193c0858058, type: 3}
--- !u!4 &8973708634912605086 stripped
Transform:
  m_CorrespondingSourceObject: {fileID: 4379603171368265740, guid: d79e5f09437355a44adab193c0858058,
    type: 3}
  m_PrefabInstance: {fileID: 4633779142213905298}
  m_PrefabAsset: {fileID: 0}
--- !u!1001 &8663525863202893234
PrefabInstance:
  m_ObjectHideFlags: 0
  serializedVersion: 2
  m_Modification:
    m_TransformParent: {fileID: 1313890618270907556}
    m_Modifications:
    - target: {fileID: 4379603171368236076, guid: d79e5f09437355a44adab193c0858058,
        type: 3}
      propertyPath: m_Name
      value: Concrete (1)
      objectReference: {fileID: 0}
    - target: {fileID: 4379603171368265740, guid: d79e5f09437355a44adab193c0858058,
        type: 3}
      propertyPath: m_LocalPosition.x
      value: -5
      objectReference: {fileID: 0}
    - target: {fileID: 4379603171368265740, guid: d79e5f09437355a44adab193c0858058,
        type: 3}
      propertyPath: m_LocalPosition.y
      value: 0
      objectReference: {fileID: 0}
    - target: {fileID: 4379603171368265740, guid: d79e5f09437355a44adab193c0858058,
        type: 3}
      propertyPath: m_LocalPosition.z
      value: -5
      objectReference: {fileID: 0}
    - target: {fileID: 4379603171368265740, guid: d79e5f09437355a44adab193c0858058,
        type: 3}
      propertyPath: m_LocalRotation.x
      value: 0.00000008146034
      objectReference: {fileID: 0}
    - target: {fileID: 4379603171368265740, guid: d79e5f09437355a44adab193c0858058,
        type: 3}
      propertyPath: m_LocalRotation.y
      value: -0
      objectReference: {fileID: 0}
    - target: {fileID: 4379603171368265740, guid: d79e5f09437355a44adab193c0858058,
        type: 3}
      propertyPath: m_LocalRotation.z
      value: -0
      objectReference: {fileID: 0}
    - target: {fileID: 4379603171368265740, guid: d79e5f09437355a44adab193c0858058,
        type: 3}
      propertyPath: m_LocalRotation.w
      value: 1
      objectReference: {fileID: 0}
    - target: {fileID: 4379603171368265740, guid: d79e5f09437355a44adab193c0858058,
        type: 3}
      propertyPath: m_RootOrder
      value: 5
      objectReference: {fileID: 0}
    - target: {fileID: 4379603171368265740, guid: d79e5f09437355a44adab193c0858058,
        type: 3}
      propertyPath: m_LocalEulerAnglesHint.x
      value: 0
      objectReference: {fileID: 0}
    - target: {fileID: 4379603171368265740, guid: d79e5f09437355a44adab193c0858058,
        type: 3}
      propertyPath: m_LocalEulerAnglesHint.y
      value: 0
      objectReference: {fileID: 0}
    - target: {fileID: 4379603171368265740, guid: d79e5f09437355a44adab193c0858058,
        type: 3}
      propertyPath: m_LocalEulerAnglesHint.z
      value: 0
      objectReference: {fileID: 0}
    - target: {fileID: 4379603171368265740, guid: d79e5f09437355a44adab193c0858058,
        type: 3}
      propertyPath: m_LocalScale.x
      value: 1
      objectReference: {fileID: 0}
    - target: {fileID: 4379603171368265740, guid: d79e5f09437355a44adab193c0858058,
        type: 3}
      propertyPath: m_LocalScale.z
      value: 2
      objectReference: {fileID: 0}
    m_RemovedComponents: []
  m_SourcePrefab: {fileID: 100100000, guid: d79e5f09437355a44adab193c0858058, type: 3}
--- !u!4 &4970987994519061950 stripped
Transform:
  m_CorrespondingSourceObject: {fileID: 4379603171368265740, guid: d79e5f09437355a44adab193c0858058,
    type: 3}
  m_PrefabInstance: {fileID: 8663525863202893234}
  m_PrefabAsset: {fileID: 0}
--- !u!1001 &8728611534597172901
PrefabInstance:
  m_ObjectHideFlags: 0
  serializedVersion: 2
  m_Modification:
    m_TransformParent: {fileID: 1313890618270907556}
    m_Modifications:
    - target: {fileID: 403612343161616155, guid: 4b0be938ec95de14399a5e4fac57d0a8,
        type: 3}
      propertyPath: m_Name
      value: GarbageContainer
      objectReference: {fileID: 0}
    - target: {fileID: 403612343161580347, guid: 4b0be938ec95de14399a5e4fac57d0a8,
        type: 3}
      propertyPath: m_LocalPosition.x
      value: -0.45
      objectReference: {fileID: 0}
    - target: {fileID: 403612343161580347, guid: 4b0be938ec95de14399a5e4fac57d0a8,
        type: 3}
      propertyPath: m_LocalPosition.y
      value: 0.15
      objectReference: {fileID: 0}
    - target: {fileID: 403612343161580347, guid: 4b0be938ec95de14399a5e4fac57d0a8,
        type: 3}
      propertyPath: m_LocalPosition.z
      value: -4.42
      objectReference: {fileID: 0}
    - target: {fileID: 403612343161580347, guid: 4b0be938ec95de14399a5e4fac57d0a8,
        type: 3}
      propertyPath: m_LocalRotation.x
      value: 0
      objectReference: {fileID: 0}
    - target: {fileID: 403612343161580347, guid: 4b0be938ec95de14399a5e4fac57d0a8,
        type: 3}
      propertyPath: m_LocalRotation.y
      value: 0.7071068
      objectReference: {fileID: 0}
    - target: {fileID: 403612343161580347, guid: 4b0be938ec95de14399a5e4fac57d0a8,
        type: 3}
      propertyPath: m_LocalRotation.z
      value: 0
      objectReference: {fileID: 0}
    - target: {fileID: 403612343161580347, guid: 4b0be938ec95de14399a5e4fac57d0a8,
        type: 3}
      propertyPath: m_LocalRotation.w
      value: 0.7071068
      objectReference: {fileID: 0}
    - target: {fileID: 403612343161580347, guid: 4b0be938ec95de14399a5e4fac57d0a8,
        type: 3}
      propertyPath: m_RootOrder
      value: 3
      objectReference: {fileID: 0}
    - target: {fileID: 403612343161580347, guid: 4b0be938ec95de14399a5e4fac57d0a8,
        type: 3}
      propertyPath: m_LocalEulerAnglesHint.x
      value: 0
      objectReference: {fileID: 0}
    - target: {fileID: 403612343161580347, guid: 4b0be938ec95de14399a5e4fac57d0a8,
        type: 3}
      propertyPath: m_LocalEulerAnglesHint.y
      value: 90
      objectReference: {fileID: 0}
    - target: {fileID: 403612343161580347, guid: 4b0be938ec95de14399a5e4fac57d0a8,
        type: 3}
      propertyPath: m_LocalEulerAnglesHint.z
      value: 0
      objectReference: {fileID: 0}
    m_RemovedComponents: []
  m_SourcePrefab: {fileID: 100100000, guid: 4b0be938ec95de14399a5e4fac57d0a8, type: 3}
--- !u!4 &8987965190394955166 stripped
Transform:
  m_CorrespondingSourceObject: {fileID: 403612343161580347, guid: 4b0be938ec95de14399a5e4fac57d0a8,
    type: 3}
  m_PrefabInstance: {fileID: 8728611534597172901}
  m_PrefabAsset: {fileID: 0}
