%YAML 1.1
%TAG !u! tag:unity3d.com,2011:
--- !u!1 &6007391587524256771
GameObject:
  m_ObjectHideFlags: 0
  m_CorrespondingSourceObject: {fileID: 0}
  m_PrefabInstance: {fileID: 0}
  m_PrefabAsset: {fileID: 0}
  serializedVersion: 6
  m_Component:
  - component: {fileID: 1848658608965570971}
  m_Layer: 0
  m_Name: Building_33
  m_TagString: Untagged
  m_Icon: {fileID: 0}
  m_NavMeshLayer: 0
  m_StaticEditorFlags: 0
  m_IsActive: 1
--- !u!4 &1848658608965570971
Transform:
  m_ObjectHideFlags: 0
  m_CorrespondingSourceObject: {fileID: 0}
  m_PrefabInstance: {fileID: 0}
  m_PrefabAsset: {fileID: 0}
  m_GameObject: {fileID: 6007391587524256771}
  m_LocalRotation: {x: 0, y: 0, z: 0, w: 1}
  m_LocalPosition: {x: 0, y: 0, z: 0}
  m_LocalScale: {x: 1, y: 1, z: 1}
  m_Children:
  - {fileID: 2555238498452804269}
  - {fileID: 37793502832433981}
  - {fileID: 4401573892625044660}
  - {fileID: 717557406043243067}
  - {fileID: 2127835619904602987}
  - {fileID: 7088478634780516490}
  - {fileID: 647468281630116340}
  - {fileID: 6982306043236342047}
  - {fileID: 8030427183844317802}
  - {fileID: 8061886623059740426}
  - {fileID: 1992125821184652399}
  - {fileID: 1717897747732611373}
  - {fileID: 8991701761015446649}
  - {fileID: 4301874450295426344}
  - {fileID: 1117493630392604011}
  - {fileID: 372398756673746861}
  - {fileID: 3608639968451769173}
  - {fileID: 6256293870777817623}
  - {fileID: 6472128756038941179}
  - {fileID: 5620582401831052544}
  - {fileID: 2074169152192769798}
  - {fileID: 1589492044363172652}
  - {fileID: 6282536364433693728}
  - {fileID: 7157225899372432896}
  - {fileID: 8510044805000818560}
  - {fileID: 4997134211171831724}
  - {fileID: 5035018379194711363}
  - {fileID: 2893783021215239345}
  - {fileID: 7054364196595911522}
  - {fileID: 3281859176212981544}
  m_Father: {fileID: 0}
  m_RootOrder: 0
  m_LocalEulerAnglesHint: {x: 0, y: 0, z: 0}
--- !u!1001 &21916584343303039
PrefabInstance:
  m_ObjectHideFlags: 0
  serializedVersion: 2
  m_Modification:
    m_TransformParent: {fileID: 1848658608965570971}
    m_Modifications:
    - target: {fileID: 3293247596863567107, guid: 80761326030f37c4ca58f97545db667a,
        type: 3}
      propertyPath: m_Name
      value: Bush
      objectReference: {fileID: 0}
    - target: {fileID: 2011049533800236816, guid: 80761326030f37c4ca58f97545db667a,
        type: 3}
      propertyPath: m_LocalPosition.x
      value: -17.5
      objectReference: {fileID: 0}
    - target: {fileID: 2011049533800236816, guid: 80761326030f37c4ca58f97545db667a,
        type: 3}
      propertyPath: m_LocalPosition.y
      value: 0.15
      objectReference: {fileID: 0}
    - target: {fileID: 2011049533800236816, guid: 80761326030f37c4ca58f97545db667a,
        type: 3}
      propertyPath: m_LocalPosition.z
      value: 0
      objectReference: {fileID: 0}
    - target: {fileID: 2011049533800236816, guid: 80761326030f37c4ca58f97545db667a,
        type: 3}
      propertyPath: m_LocalRotation.x
      value: 0.00000006657903
      objectReference: {fileID: 0}
    - target: {fileID: 2011049533800236816, guid: 80761326030f37c4ca58f97545db667a,
        type: 3}
      propertyPath: m_LocalRotation.y
      value: -0
      objectReference: {fileID: 0}
    - target: {fileID: 2011049533800236816, guid: 80761326030f37c4ca58f97545db667a,
        type: 3}
      propertyPath: m_LocalRotation.z
      value: -0
      objectReference: {fileID: 0}
    - target: {fileID: 2011049533800236816, guid: 80761326030f37c4ca58f97545db667a,
        type: 3}
      propertyPath: m_LocalRotation.w
      value: 1
      objectReference: {fileID: 0}
    - target: {fileID: 2011049533800236816, guid: 80761326030f37c4ca58f97545db667a,
        type: 3}
      propertyPath: m_RootOrder
      value: 10
      objectReference: {fileID: 0}
    - target: {fileID: 2011049533800236816, guid: 80761326030f37c4ca58f97545db667a,
        type: 3}
      propertyPath: m_LocalEulerAnglesHint.x
      value: 0
      objectReference: {fileID: 0}
    - target: {fileID: 2011049533800236816, guid: 80761326030f37c4ca58f97545db667a,
        type: 3}
      propertyPath: m_LocalEulerAnglesHint.y
      value: 0
      objectReference: {fileID: 0}
    - target: {fileID: 2011049533800236816, guid: 80761326030f37c4ca58f97545db667a,
        type: 3}
      propertyPath: m_LocalEulerAnglesHint.z
      value: 0
      objectReference: {fileID: 0}
    - target: {fileID: 2011049533800236816, guid: 80761326030f37c4ca58f97545db667a,
        type: 3}
      propertyPath: m_LocalScale.x
      value: 0.4
      objectReference: {fileID: 0}
    m_RemovedComponents: []
  m_SourcePrefab: {fileID: 100100000, guid: 80761326030f37c4ca58f97545db667a, type: 3}
--- !u!4 &1992125821184652399 stripped
Transform:
  m_CorrespondingSourceObject: {fileID: 2011049533800236816, guid: 80761326030f37c4ca58f97545db667a,
    type: 3}
  m_PrefabInstance: {fileID: 21916584343303039}
  m_PrefabAsset: {fileID: 0}
--- !u!1001 &445484467208707487
PrefabInstance:
  m_ObjectHideFlags: 0
  serializedVersion: 2
  m_Modification:
    m_TransformParent: {fileID: 1848658608965570971}
    m_Modifications:
    - target: {fileID: 4861581741073305107, guid: 0d50aeda72c4662478997e7d55588d03,
        type: 3}
      propertyPath: m_Name
      value: Building_33
      objectReference: {fileID: 0}
    - target: {fileID: 4861581741073404467, guid: 0d50aeda72c4662478997e7d55588d03,
        type: 3}
      propertyPath: m_LocalPosition.x
      value: -2.5
      objectReference: {fileID: 0}
    - target: {fileID: 4861581741073404467, guid: 0d50aeda72c4662478997e7d55588d03,
        type: 3}
      propertyPath: m_LocalPosition.y
      value: 0.15
      objectReference: {fileID: 0}
    - target: {fileID: 4861581741073404467, guid: 0d50aeda72c4662478997e7d55588d03,
        type: 3}
      propertyPath: m_LocalPosition.z
      value: -4.23
      objectReference: {fileID: 0}
    - target: {fileID: 4861581741073404467, guid: 0d50aeda72c4662478997e7d55588d03,
        type: 3}
      propertyPath: m_LocalRotation.x
      value: 0
      objectReference: {fileID: 0}
    - target: {fileID: 4861581741073404467, guid: 0d50aeda72c4662478997e7d55588d03,
        type: 3}
      propertyPath: m_LocalRotation.y
      value: -0
      objectReference: {fileID: 0}
    - target: {fileID: 4861581741073404467, guid: 0d50aeda72c4662478997e7d55588d03,
        type: 3}
      propertyPath: m_LocalRotation.z
      value: -0
      objectReference: {fileID: 0}
    - target: {fileID: 4861581741073404467, guid: 0d50aeda72c4662478997e7d55588d03,
        type: 3}
      propertyPath: m_LocalRotation.w
      value: 1
      objectReference: {fileID: 0}
    - target: {fileID: 4861581741073404467, guid: 0d50aeda72c4662478997e7d55588d03,
        type: 3}
      propertyPath: m_RootOrder
      value: 25
      objectReference: {fileID: 0}
    - target: {fileID: 4861581741073404467, guid: 0d50aeda72c4662478997e7d55588d03,
        type: 3}
      propertyPath: m_LocalEulerAnglesHint.x
      value: 0
      objectReference: {fileID: 0}
    - target: {fileID: 4861581741073404467, guid: 0d50aeda72c4662478997e7d55588d03,
        type: 3}
      propertyPath: m_LocalEulerAnglesHint.y
      value: 0
      objectReference: {fileID: 0}
    - target: {fileID: 4861581741073404467, guid: 0d50aeda72c4662478997e7d55588d03,
        type: 3}
      propertyPath: m_LocalEulerAnglesHint.z
      value: 0
      objectReference: {fileID: 0}
    m_RemovedComponents: []
  m_SourcePrefab: {fileID: 100100000, guid: 0d50aeda72c4662478997e7d55588d03, type: 3}
--- !u!4 &4997134211171831724 stripped
Transform:
  m_CorrespondingSourceObject: {fileID: 4861581741073404467, guid: 0d50aeda72c4662478997e7d55588d03,
    type: 3}
  m_PrefabInstance: {fileID: 445484467208707487}
  m_PrefabAsset: {fileID: 0}
--- !u!1001 &513484298056443926
PrefabInstance:
  m_ObjectHideFlags: 0
  serializedVersion: 2
  m_Modification:
    m_TransformParent: {fileID: 1848658608965570971}
    m_Modifications:
    - target: {fileID: 3293247596863567107, guid: 80761326030f37c4ca58f97545db667a,
        type: 3}
      propertyPath: m_Name
      value: Bush (10)
      objectReference: {fileID: 0}
    - target: {fileID: 2011049533800236816, guid: 80761326030f37c4ca58f97545db667a,
        type: 3}
      propertyPath: m_LocalPosition.x
      value: 0
      objectReference: {fileID: 0}
    - target: {fileID: 2011049533800236816, guid: 80761326030f37c4ca58f97545db667a,
        type: 3}
      propertyPath: m_LocalPosition.y
      value: 0.15
      objectReference: {fileID: 0}
    - target: {fileID: 2011049533800236816, guid: 80761326030f37c4ca58f97545db667a,
        type: 3}
      propertyPath: m_LocalPosition.z
      value: -15
      objectReference: {fileID: 0}
    - target: {fileID: 2011049533800236816, guid: 80761326030f37c4ca58f97545db667a,
        type: 3}
      propertyPath: m_LocalRotation.x
      value: 0
      objectReference: {fileID: 0}
    - target: {fileID: 2011049533800236816, guid: 80761326030f37c4ca58f97545db667a,
        type: 3}
      propertyPath: m_LocalRotation.y
      value: 0.7071068
      objectReference: {fileID: 0}
    - target: {fileID: 2011049533800236816, guid: 80761326030f37c4ca58f97545db667a,
        type: 3}
      propertyPath: m_LocalRotation.z
      value: 0
      objectReference: {fileID: 0}
    - target: {fileID: 2011049533800236816, guid: 80761326030f37c4ca58f97545db667a,
        type: 3}
      propertyPath: m_LocalRotation.w
      value: 0.7071068
      objectReference: {fileID: 0}
    - target: {fileID: 2011049533800236816, guid: 80761326030f37c4ca58f97545db667a,
        type: 3}
      propertyPath: m_RootOrder
      value: 20
      objectReference: {fileID: 0}
    - target: {fileID: 2011049533800236816, guid: 80761326030f37c4ca58f97545db667a,
        type: 3}
      propertyPath: m_LocalEulerAnglesHint.x
      value: 0
      objectReference: {fileID: 0}
    - target: {fileID: 2011049533800236816, guid: 80761326030f37c4ca58f97545db667a,
        type: 3}
      propertyPath: m_LocalEulerAnglesHint.y
      value: 90
      objectReference: {fileID: 0}
    - target: {fileID: 2011049533800236816, guid: 80761326030f37c4ca58f97545db667a,
        type: 3}
      propertyPath: m_LocalEulerAnglesHint.z
      value: 0
      objectReference: {fileID: 0}
    m_RemovedComponents: []
  m_SourcePrefab: {fileID: 100100000, guid: 80761326030f37c4ca58f97545db667a, type: 3}
--- !u!4 &2074169152192769798 stripped
Transform:
  m_CorrespondingSourceObject: {fileID: 2011049533800236816, guid: 80761326030f37c4ca58f97545db667a,
    type: 3}
  m_PrefabInstance: {fileID: 513484298056443926}
  m_PrefabAsset: {fileID: 0}
--- !u!1001 &882595588853139005
PrefabInstance:
  m_ObjectHideFlags: 0
  serializedVersion: 2
  m_Modification:
    m_TransformParent: {fileID: 1848658608965570971}
    m_Modifications:
    - target: {fileID: 3293247596863567107, guid: 80761326030f37c4ca58f97545db667a,
        type: 3}
      propertyPath: m_Name
      value: Bush (1)
      objectReference: {fileID: 0}
    - target: {fileID: 2011049533800236816, guid: 80761326030f37c4ca58f97545db667a,
        type: 3}
      propertyPath: m_LocalPosition.x
      value: -19.5
      objectReference: {fileID: 0}
    - target: {fileID: 2011049533800236816, guid: 80761326030f37c4ca58f97545db667a,
        type: 3}
      propertyPath: m_LocalPosition.y
      value: 0.15
      objectReference: {fileID: 0}
    - target: {fileID: 2011049533800236816, guid: 80761326030f37c4ca58f97545db667a,
        type: 3}
      propertyPath: m_LocalPosition.z
      value: -5
      objectReference: {fileID: 0}
    - target: {fileID: 2011049533800236816, guid: 80761326030f37c4ca58f97545db667a,
        type: 3}
      propertyPath: m_LocalRotation.x
      value: 0
      objectReference: {fileID: 0}
    - target: {fileID: 2011049533800236816, guid: 80761326030f37c4ca58f97545db667a,
        type: 3}
      propertyPath: m_LocalRotation.y
      value: 0.7071068
      objectReference: {fileID: 0}
    - target: {fileID: 2011049533800236816, guid: 80761326030f37c4ca58f97545db667a,
        type: 3}
      propertyPath: m_LocalRotation.z
      value: 0
      objectReference: {fileID: 0}
    - target: {fileID: 2011049533800236816, guid: 80761326030f37c4ca58f97545db667a,
        type: 3}
      propertyPath: m_LocalRotation.w
      value: 0.7071068
      objectReference: {fileID: 0}
    - target: {fileID: 2011049533800236816, guid: 80761326030f37c4ca58f97545db667a,
        type: 3}
      propertyPath: m_RootOrder
      value: 11
      objectReference: {fileID: 0}
    - target: {fileID: 2011049533800236816, guid: 80761326030f37c4ca58f97545db667a,
        type: 3}
      propertyPath: m_LocalEulerAnglesHint.x
      value: 0
      objectReference: {fileID: 0}
    - target: {fileID: 2011049533800236816, guid: 80761326030f37c4ca58f97545db667a,
        type: 3}
      propertyPath: m_LocalEulerAnglesHint.y
      value: 90
      objectReference: {fileID: 0}
    - target: {fileID: 2011049533800236816, guid: 80761326030f37c4ca58f97545db667a,
        type: 3}
      propertyPath: m_LocalEulerAnglesHint.z
      value: 0
      objectReference: {fileID: 0}
    m_RemovedComponents: []
  m_SourcePrefab: {fileID: 100100000, guid: 80761326030f37c4ca58f97545db667a, type: 3}
--- !u!4 &1717897747732611373 stripped
Transform:
  m_CorrespondingSourceObject: {fileID: 2011049533800236816, guid: 80761326030f37c4ca58f97545db667a,
    type: 3}
  m_PrefabInstance: {fileID: 882595588853139005}
  m_PrefabAsset: {fileID: 0}
--- !u!1001 &1001959050330721340
PrefabInstance:
  m_ObjectHideFlags: 0
  serializedVersion: 2
  m_Modification:
    m_TransformParent: {fileID: 1848658608965570971}
    m_Modifications:
    - target: {fileID: 3293247596863567107, guid: 80761326030f37c4ca58f97545db667a,
        type: 3}
      propertyPath: m_Name
      value: Bush (12)
      objectReference: {fileID: 0}
    - target: {fileID: 2011049533800236816, guid: 80761326030f37c4ca58f97545db667a,
        type: 3}
      propertyPath: m_LocalPosition.x
      value: -0.5
      objectReference: {fileID: 0}
    - target: {fileID: 2011049533800236816, guid: 80761326030f37c4ca58f97545db667a,
        type: 3}
      propertyPath: m_LocalPosition.y
      value: 0.15
      objectReference: {fileID: 0}
    - target: {fileID: 2011049533800236816, guid: 80761326030f37c4ca58f97545db667a,
        type: 3}
      propertyPath: m_LocalPosition.z
      value: 0
      objectReference: {fileID: 0}
    - target: {fileID: 2011049533800236816, guid: 80761326030f37c4ca58f97545db667a,
        type: 3}
      propertyPath: m_LocalRotation.x
      value: 0.00000006657903
      objectReference: {fileID: 0}
    - target: {fileID: 2011049533800236816, guid: 80761326030f37c4ca58f97545db667a,
        type: 3}
      propertyPath: m_LocalRotation.y
      value: -0
      objectReference: {fileID: 0}
    - target: {fileID: 2011049533800236816, guid: 80761326030f37c4ca58f97545db667a,
        type: 3}
      propertyPath: m_LocalRotation.z
      value: -0
      objectReference: {fileID: 0}
    - target: {fileID: 2011049533800236816, guid: 80761326030f37c4ca58f97545db667a,
        type: 3}
      propertyPath: m_LocalRotation.w
      value: 1
      objectReference: {fileID: 0}
    - target: {fileID: 2011049533800236816, guid: 80761326030f37c4ca58f97545db667a,
        type: 3}
      propertyPath: m_RootOrder
      value: 21
      objectReference: {fileID: 0}
    - target: {fileID: 2011049533800236816, guid: 80761326030f37c4ca58f97545db667a,
        type: 3}
      propertyPath: m_LocalEulerAnglesHint.x
      value: 0
      objectReference: {fileID: 0}
    - target: {fileID: 2011049533800236816, guid: 80761326030f37c4ca58f97545db667a,
        type: 3}
      propertyPath: m_LocalEulerAnglesHint.y
      value: 0
      objectReference: {fileID: 0}
    - target: {fileID: 2011049533800236816, guid: 80761326030f37c4ca58f97545db667a,
        type: 3}
      propertyPath: m_LocalEulerAnglesHint.z
      value: 0
      objectReference: {fileID: 0}
    - target: {fileID: 2011049533800236816, guid: 80761326030f37c4ca58f97545db667a,
        type: 3}
      propertyPath: m_LocalScale.x
      value: 0.4
      objectReference: {fileID: 0}
    m_RemovedComponents: []
  m_SourcePrefab: {fileID: 100100000, guid: 80761326030f37c4ca58f97545db667a, type: 3}
--- !u!4 &1589492044363172652 stripped
Transform:
  m_CorrespondingSourceObject: {fileID: 2011049533800236816, guid: 80761326030f37c4ca58f97545db667a,
    type: 3}
  m_PrefabInstance: {fileID: 1001959050330721340}
  m_PrefabAsset: {fileID: 0}
--- !u!1001 &1471142625413223035
PrefabInstance:
  m_ObjectHideFlags: 0
  serializedVersion: 2
  m_Modification:
    m_TransformParent: {fileID: 1848658608965570971}
    m_Modifications:
    - target: {fileID: 3293247596863567107, guid: 80761326030f37c4ca58f97545db667a,
        type: 3}
      propertyPath: m_Name
      value: Bush (4)
      objectReference: {fileID: 0}
    - target: {fileID: 2011049533800236816, guid: 80761326030f37c4ca58f97545db667a,
        type: 3}
      propertyPath: m_LocalPosition.x
      value: -15
      objectReference: {fileID: 0}
    - target: {fileID: 2011049533800236816, guid: 80761326030f37c4ca58f97545db667a,
        type: 3}
      propertyPath: m_LocalPosition.y
      value: 0.15
      objectReference: {fileID: 0}
    - target: {fileID: 2011049533800236816, guid: 80761326030f37c4ca58f97545db667a,
        type: 3}
      propertyPath: m_LocalPosition.z
      value: -14.5
      objectReference: {fileID: 0}
    - target: {fileID: 2011049533800236816, guid: 80761326030f37c4ca58f97545db667a,
        type: 3}
      propertyPath: m_LocalRotation.x
      value: 0.00000006657903
      objectReference: {fileID: 0}
    - target: {fileID: 2011049533800236816, guid: 80761326030f37c4ca58f97545db667a,
        type: 3}
      propertyPath: m_LocalRotation.y
      value: -0
      objectReference: {fileID: 0}
    - target: {fileID: 2011049533800236816, guid: 80761326030f37c4ca58f97545db667a,
        type: 3}
      propertyPath: m_LocalRotation.z
      value: -0
      objectReference: {fileID: 0}
    - target: {fileID: 2011049533800236816, guid: 80761326030f37c4ca58f97545db667a,
        type: 3}
      propertyPath: m_LocalRotation.w
      value: 1
      objectReference: {fileID: 0}
    - target: {fileID: 2011049533800236816, guid: 80761326030f37c4ca58f97545db667a,
        type: 3}
      propertyPath: m_RootOrder
      value: 14
      objectReference: {fileID: 0}
    - target: {fileID: 2011049533800236816, guid: 80761326030f37c4ca58f97545db667a,
        type: 3}
      propertyPath: m_LocalEulerAnglesHint.x
      value: 0
      objectReference: {fileID: 0}
    - target: {fileID: 2011049533800236816, guid: 80761326030f37c4ca58f97545db667a,
        type: 3}
      propertyPath: m_LocalEulerAnglesHint.y
      value: 0
      objectReference: {fileID: 0}
    - target: {fileID: 2011049533800236816, guid: 80761326030f37c4ca58f97545db667a,
        type: 3}
      propertyPath: m_LocalEulerAnglesHint.z
      value: 0
      objectReference: {fileID: 0}
    - target: {fileID: 2011049533800236816, guid: 80761326030f37c4ca58f97545db667a,
        type: 3}
      propertyPath: m_LocalScale.x
      value: 1
      objectReference: {fileID: 0}
    m_RemovedComponents: []
  m_SourcePrefab: {fileID: 100100000, guid: 80761326030f37c4ca58f97545db667a, type: 3}
--- !u!4 &1117493630392604011 stripped
Transform:
  m_CorrespondingSourceObject: {fileID: 2011049533800236816, guid: 80761326030f37c4ca58f97545db667a,
    type: 3}
  m_PrefabInstance: {fileID: 1471142625413223035}
  m_PrefabAsset: {fileID: 0}
--- !u!1001 &1480425637501420697
PrefabInstance:
  m_ObjectHideFlags: 0
  serializedVersion: 2
  m_Modification:
    m_TransformParent: {fileID: 1848658608965570971}
    m_Modifications:
    - target: {fileID: 4652090175675454976, guid: 715c826bb4fc25c429dc7c65bb8f8b43,
        type: 3}
      propertyPath: m_Name
      value: Grass (7)
      objectReference: {fileID: 0}
    - target: {fileID: 8562700260742177811, guid: 715c826bb4fc25c429dc7c65bb8f8b43,
        type: 3}
      propertyPath: m_LocalPosition.x
      value: -10
      objectReference: {fileID: 0}
    - target: {fileID: 8562700260742177811, guid: 715c826bb4fc25c429dc7c65bb8f8b43,
        type: 3}
      propertyPath: m_LocalPosition.y
      value: 0
      objectReference: {fileID: 0}
    - target: {fileID: 8562700260742177811, guid: 715c826bb4fc25c429dc7c65bb8f8b43,
        type: 3}
      propertyPath: m_LocalPosition.z
      value: -10
      objectReference: {fileID: 0}
    - target: {fileID: 8562700260742177811, guid: 715c826bb4fc25c429dc7c65bb8f8b43,
        type: 3}
      propertyPath: m_LocalRotation.x
      value: 0.00000006657903
      objectReference: {fileID: 0}
    - target: {fileID: 8562700260742177811, guid: 715c826bb4fc25c429dc7c65bb8f8b43,
        type: 3}
      propertyPath: m_LocalRotation.y
      value: -0
      objectReference: {fileID: 0}
    - target: {fileID: 8562700260742177811, guid: 715c826bb4fc25c429dc7c65bb8f8b43,
        type: 3}
      propertyPath: m_LocalRotation.z
      value: -0
      objectReference: {fileID: 0}
    - target: {fileID: 8562700260742177811, guid: 715c826bb4fc25c429dc7c65bb8f8b43,
        type: 3}
      propertyPath: m_LocalRotation.w
      value: 1
      objectReference: {fileID: 0}
    - target: {fileID: 8562700260742177811, guid: 715c826bb4fc25c429dc7c65bb8f8b43,
        type: 3}
      propertyPath: m_RootOrder
      value: 5
      objectReference: {fileID: 0}
    - target: {fileID: 8562700260742177811, guid: 715c826bb4fc25c429dc7c65bb8f8b43,
        type: 3}
      propertyPath: m_LocalEulerAnglesHint.x
      value: 0
      objectReference: {fileID: 0}
    - target: {fileID: 8562700260742177811, guid: 715c826bb4fc25c429dc7c65bb8f8b43,
        type: 3}
      propertyPath: m_LocalEulerAnglesHint.y
      value: 0
      objectReference: {fileID: 0}
    - target: {fileID: 8562700260742177811, guid: 715c826bb4fc25c429dc7c65bb8f8b43,
        type: 3}
      propertyPath: m_LocalEulerAnglesHint.z
      value: 0
      objectReference: {fileID: 0}
    m_RemovedComponents: []
  m_SourcePrefab: {fileID: 100100000, guid: 715c826bb4fc25c429dc7c65bb8f8b43, type: 3}
--- !u!4 &7088478634780516490 stripped
Transform:
  m_CorrespondingSourceObject: {fileID: 8562700260742177811, guid: 715c826bb4fc25c429dc7c65bb8f8b43,
    type: 3}
  m_PrefabInstance: {fileID: 1480425637501420697}
  m_PrefabAsset: {fileID: 0}
--- !u!1001 &1508619779227985085
PrefabInstance:
  m_ObjectHideFlags: 0
  serializedVersion: 2
  m_Modification:
    m_TransformParent: {fileID: 1848658608965570971}
    m_Modifications:
    - target: {fileID: 4379603171368236076, guid: d79e5f09437355a44adab193c0858058,
        type: 3}
      propertyPath: m_Name
      value: Concrete (1)
      objectReference: {fileID: 0}
    - target: {fileID: 4379603171368265740, guid: d79e5f09437355a44adab193c0858058,
        type: 3}
      propertyPath: m_LocalPosition.x
      value: -1.98
      objectReference: {fileID: 0}
    - target: {fileID: 4379603171368265740, guid: d79e5f09437355a44adab193c0858058,
        type: 3}
      propertyPath: m_LocalPosition.y
      value: 0.01
      objectReference: {fileID: 0}
    - target: {fileID: 4379603171368265740, guid: d79e5f09437355a44adab193c0858058,
        type: 3}
      propertyPath: m_LocalPosition.z
      value: -3.63
      objectReference: {fileID: 0}
    - target: {fileID: 4379603171368265740, guid: d79e5f09437355a44adab193c0858058,
        type: 3}
      propertyPath: m_LocalRotation.x
      value: 0.00000006657903
      objectReference: {fileID: 0}
    - target: {fileID: 4379603171368265740, guid: d79e5f09437355a44adab193c0858058,
        type: 3}
      propertyPath: m_LocalRotation.y
      value: -0
      objectReference: {fileID: 0}
    - target: {fileID: 4379603171368265740, guid: d79e5f09437355a44adab193c0858058,
        type: 3}
      propertyPath: m_LocalRotation.z
      value: -0
      objectReference: {fileID: 0}
    - target: {fileID: 4379603171368265740, guid: d79e5f09437355a44adab193c0858058,
        type: 3}
      propertyPath: m_LocalRotation.w
      value: 1
      objectReference: {fileID: 0}
    - target: {fileID: 4379603171368265740, guid: d79e5f09437355a44adab193c0858058,
        type: 3}
      propertyPath: m_RootOrder
      value: 27
      objectReference: {fileID: 0}
    - target: {fileID: 4379603171368265740, guid: d79e5f09437355a44adab193c0858058,
        type: 3}
      propertyPath: m_LocalEulerAnglesHint.x
      value: 0
      objectReference: {fileID: 0}
    - target: {fileID: 4379603171368265740, guid: d79e5f09437355a44adab193c0858058,
        type: 3}
      propertyPath: m_LocalEulerAnglesHint.y
      value: 0
      objectReference: {fileID: 0}
    - target: {fileID: 4379603171368265740, guid: d79e5f09437355a44adab193c0858058,
        type: 3}
      propertyPath: m_LocalEulerAnglesHint.z
      value: 0
      objectReference: {fileID: 0}
    - target: {fileID: 4379603171368265740, guid: d79e5f09437355a44adab193c0858058,
        type: 3}
      propertyPath: m_LocalScale.x
      value: 3.2
      objectReference: {fileID: 0}
    - target: {fileID: 4379603171368265740, guid: d79e5f09437355a44adab193c0858058,
        type: 3}
      propertyPath: m_LocalScale.z
      value: 1.95
      objectReference: {fileID: 0}
    m_RemovedComponents: []
  m_SourcePrefab: {fileID: 100100000, guid: d79e5f09437355a44adab193c0858058, type: 3}
--- !u!4 &2893783021215239345 stripped
Transform:
  m_CorrespondingSourceObject: {fileID: 4379603171368265740, guid: d79e5f09437355a44adab193c0858058,
    type: 3}
  m_PrefabInstance: {fileID: 1508619779227985085}
  m_PrefabAsset: {fileID: 0}
--- !u!1001 &1599605658834238732
PrefabInstance:
  m_ObjectHideFlags: 0
  serializedVersion: 2
  m_Modification:
    m_TransformParent: {fileID: 1848658608965570971}
    m_Modifications:
    - target: {fileID: 4652090175675454976, guid: 715c826bb4fc25c429dc7c65bb8f8b43,
        type: 3}
      propertyPath: m_Name
      value: Grass (9)
      objectReference: {fileID: 0}
    - target: {fileID: 8562700260742177811, guid: 715c826bb4fc25c429dc7c65bb8f8b43,
        type: 3}
      propertyPath: m_LocalPosition.x
      value: 0
      objectReference: {fileID: 0}
    - target: {fileID: 8562700260742177811, guid: 715c826bb4fc25c429dc7c65bb8f8b43,
        type: 3}
      propertyPath: m_LocalPosition.y
      value: 0
      objectReference: {fileID: 0}
    - target: {fileID: 8562700260742177811, guid: 715c826bb4fc25c429dc7c65bb8f8b43,
        type: 3}
      propertyPath: m_LocalPosition.z
      value: 0
      objectReference: {fileID: 0}
    - target: {fileID: 8562700260742177811, guid: 715c826bb4fc25c429dc7c65bb8f8b43,
        type: 3}
      propertyPath: m_LocalRotation.x
      value: 0.00000006657903
      objectReference: {fileID: 0}
    - target: {fileID: 8562700260742177811, guid: 715c826bb4fc25c429dc7c65bb8f8b43,
        type: 3}
      propertyPath: m_LocalRotation.y
      value: -0
      objectReference: {fileID: 0}
    - target: {fileID: 8562700260742177811, guid: 715c826bb4fc25c429dc7c65bb8f8b43,
        type: 3}
      propertyPath: m_LocalRotation.z
      value: -0
      objectReference: {fileID: 0}
    - target: {fileID: 8562700260742177811, guid: 715c826bb4fc25c429dc7c65bb8f8b43,
        type: 3}
      propertyPath: m_LocalRotation.w
      value: 1
      objectReference: {fileID: 0}
    - target: {fileID: 8562700260742177811, guid: 715c826bb4fc25c429dc7c65bb8f8b43,
        type: 3}
      propertyPath: m_RootOrder
      value: 7
      objectReference: {fileID: 0}
    - target: {fileID: 8562700260742177811, guid: 715c826bb4fc25c429dc7c65bb8f8b43,
        type: 3}
      propertyPath: m_LocalEulerAnglesHint.x
      value: 0
      objectReference: {fileID: 0}
    - target: {fileID: 8562700260742177811, guid: 715c826bb4fc25c429dc7c65bb8f8b43,
        type: 3}
      propertyPath: m_LocalEulerAnglesHint.y
      value: 0
      objectReference: {fileID: 0}
    - target: {fileID: 8562700260742177811, guid: 715c826bb4fc25c429dc7c65bb8f8b43,
        type: 3}
      propertyPath: m_LocalEulerAnglesHint.z
      value: 0
      objectReference: {fileID: 0}
    - target: {fileID: 8562700260742177811, guid: 715c826bb4fc25c429dc7c65bb8f8b43,
        type: 3}
      propertyPath: m_LocalScale.x
      value: 0.5
      objectReference: {fileID: 0}
    m_RemovedComponents: []
  m_SourcePrefab: {fileID: 100100000, guid: 715c826bb4fc25c429dc7c65bb8f8b43, type: 3}
--- !u!4 &6982306043236342047 stripped
Transform:
  m_CorrespondingSourceObject: {fileID: 8562700260742177811, guid: 715c826bb4fc25c429dc7c65bb8f8b43,
    type: 3}
  m_PrefabInstance: {fileID: 1599605658834238732}
  m_PrefabAsset: {fileID: 0}
--- !u!1001 &1816430242934137625
PrefabInstance:
  m_ObjectHideFlags: 0
  serializedVersion: 2
  m_Modification:
    m_TransformParent: {fileID: 1848658608965570971}
    m_Modifications:
    - target: {fileID: 4652090175675454976, guid: 715c826bb4fc25c429dc7c65bb8f8b43,
        type: 3}
      propertyPath: m_Name
      value: Grass (11)
      objectReference: {fileID: 0}
    - target: {fileID: 8562700260742177811, guid: 715c826bb4fc25c429dc7c65bb8f8b43,
        type: 3}
      propertyPath: m_LocalPosition.x
      value: 0
      objectReference: {fileID: 0}
    - target: {fileID: 8562700260742177811, guid: 715c826bb4fc25c429dc7c65bb8f8b43,
        type: 3}
      propertyPath: m_LocalPosition.y
      value: 0
      objectReference: {fileID: 0}
    - target: {fileID: 8562700260742177811, guid: 715c826bb4fc25c429dc7c65bb8f8b43,
        type: 3}
      propertyPath: m_LocalPosition.z
      value: -10
      objectReference: {fileID: 0}
    - target: {fileID: 8562700260742177811, guid: 715c826bb4fc25c429dc7c65bb8f8b43,
        type: 3}
      propertyPath: m_LocalRotation.x
      value: 0.00000006657903
      objectReference: {fileID: 0}
    - target: {fileID: 8562700260742177811, guid: 715c826bb4fc25c429dc7c65bb8f8b43,
        type: 3}
      propertyPath: m_LocalRotation.y
      value: -0
      objectReference: {fileID: 0}
    - target: {fileID: 8562700260742177811, guid: 715c826bb4fc25c429dc7c65bb8f8b43,
        type: 3}
      propertyPath: m_LocalRotation.z
      value: -0
      objectReference: {fileID: 0}
    - target: {fileID: 8562700260742177811, guid: 715c826bb4fc25c429dc7c65bb8f8b43,
        type: 3}
      propertyPath: m_LocalRotation.w
      value: 1
      objectReference: {fileID: 0}
    - target: {fileID: 8562700260742177811, guid: 715c826bb4fc25c429dc7c65bb8f8b43,
        type: 3}
      propertyPath: m_RootOrder
      value: 9
      objectReference: {fileID: 0}
    - target: {fileID: 8562700260742177811, guid: 715c826bb4fc25c429dc7c65bb8f8b43,
        type: 3}
      propertyPath: m_LocalEulerAnglesHint.x
      value: 0
      objectReference: {fileID: 0}
    - target: {fileID: 8562700260742177811, guid: 715c826bb4fc25c429dc7c65bb8f8b43,
        type: 3}
      propertyPath: m_LocalEulerAnglesHint.y
      value: 0
      objectReference: {fileID: 0}
    - target: {fileID: 8562700260742177811, guid: 715c826bb4fc25c429dc7c65bb8f8b43,
        type: 3}
      propertyPath: m_LocalEulerAnglesHint.z
      value: 0
      objectReference: {fileID: 0}
    m_RemovedComponents: []
  m_SourcePrefab: {fileID: 100100000, guid: 715c826bb4fc25c429dc7c65bb8f8b43, type: 3}
--- !u!4 &8061886623059740426 stripped
Transform:
  m_CorrespondingSourceObject: {fileID: 8562700260742177811, guid: 715c826bb4fc25c429dc7c65bb8f8b43,
    type: 3}
  m_PrefabInstance: {fileID: 1816430242934137625}
  m_PrefabAsset: {fileID: 0}
--- !u!1001 &1847914554294599289
PrefabInstance:
  m_ObjectHideFlags: 0
  serializedVersion: 2
  m_Modification:
    m_TransformParent: {fileID: 1848658608965570971}
    m_Modifications:
    - target: {fileID: 4652090175675454976, guid: 715c826bb4fc25c429dc7c65bb8f8b43,
        type: 3}
      propertyPath: m_Name
      value: Grass (10)
      objectReference: {fileID: 0}
    - target: {fileID: 8562700260742177811, guid: 715c826bb4fc25c429dc7c65bb8f8b43,
        type: 3}
      propertyPath: m_LocalPosition.x
      value: 0
      objectReference: {fileID: 0}
    - target: {fileID: 8562700260742177811, guid: 715c826bb4fc25c429dc7c65bb8f8b43,
        type: 3}
      propertyPath: m_LocalPosition.y
      value: 0
      objectReference: {fileID: 0}
    - target: {fileID: 8562700260742177811, guid: 715c826bb4fc25c429dc7c65bb8f8b43,
        type: 3}
      propertyPath: m_LocalPosition.z
      value: -5
      objectReference: {fileID: 0}
    - target: {fileID: 8562700260742177811, guid: 715c826bb4fc25c429dc7c65bb8f8b43,
        type: 3}
      propertyPath: m_LocalRotation.x
      value: 0.00000006657903
      objectReference: {fileID: 0}
    - target: {fileID: 8562700260742177811, guid: 715c826bb4fc25c429dc7c65bb8f8b43,
        type: 3}
      propertyPath: m_LocalRotation.y
      value: -0
      objectReference: {fileID: 0}
    - target: {fileID: 8562700260742177811, guid: 715c826bb4fc25c429dc7c65bb8f8b43,
        type: 3}
      propertyPath: m_LocalRotation.z
      value: -0
      objectReference: {fileID: 0}
    - target: {fileID: 8562700260742177811, guid: 715c826bb4fc25c429dc7c65bb8f8b43,
        type: 3}
      propertyPath: m_LocalRotation.w
      value: 1
      objectReference: {fileID: 0}
    - target: {fileID: 8562700260742177811, guid: 715c826bb4fc25c429dc7c65bb8f8b43,
        type: 3}
      propertyPath: m_RootOrder
      value: 8
      objectReference: {fileID: 0}
    - target: {fileID: 8562700260742177811, guid: 715c826bb4fc25c429dc7c65bb8f8b43,
        type: 3}
      propertyPath: m_LocalEulerAnglesHint.x
      value: 0
      objectReference: {fileID: 0}
    - target: {fileID: 8562700260742177811, guid: 715c826bb4fc25c429dc7c65bb8f8b43,
        type: 3}
      propertyPath: m_LocalEulerAnglesHint.y
      value: 0
      objectReference: {fileID: 0}
    - target: {fileID: 8562700260742177811, guid: 715c826bb4fc25c429dc7c65bb8f8b43,
        type: 3}
      propertyPath: m_LocalEulerAnglesHint.z
      value: 0
      objectReference: {fileID: 0}
    m_RemovedComponents: []
  m_SourcePrefab: {fileID: 100100000, guid: 715c826bb4fc25c429dc7c65bb8f8b43, type: 3}
--- !u!4 &8030427183844317802 stripped
Transform:
  m_CorrespondingSourceObject: {fileID: 8562700260742177811, guid: 715c826bb4fc25c429dc7c65bb8f8b43,
    type: 3}
  m_PrefabInstance: {fileID: 1847914554294599289}
  m_PrefabAsset: {fileID: 0}
--- !u!1001 &1866969526776259401
PrefabInstance:
  m_ObjectHideFlags: 0
  serializedVersion: 2
  m_Modification:
    m_TransformParent: {fileID: 1848658608965570971}
    m_Modifications:
    - target: {fileID: 8683954612789038458, guid: 2842fbfa21002f54298f0aeb992e6415,
        type: 3}
      propertyPath: m_Name
      value: GardenBed2 (3)
      objectReference: {fileID: 0}
    - target: {fileID: 5681505803307138921, guid: 2842fbfa21002f54298f0aeb992e6415,
        type: 3}
      propertyPath: m_LocalPosition.x
      value: -3.02
      objectReference: {fileID: 0}
    - target: {fileID: 5681505803307138921, guid: 2842fbfa21002f54298f0aeb992e6415,
        type: 3}
      propertyPath: m_LocalPosition.y
      value: 0.15
      objectReference: {fileID: 0}
    - target: {fileID: 5681505803307138921, guid: 2842fbfa21002f54298f0aeb992e6415,
        type: 3}
      propertyPath: m_LocalPosition.z
      value: -3.06
      objectReference: {fileID: 0}
    - target: {fileID: 5681505803307138921, guid: 2842fbfa21002f54298f0aeb992e6415,
        type: 3}
      propertyPath: m_LocalRotation.x
      value: 0.00000006657903
      objectReference: {fileID: 0}
    - target: {fileID: 5681505803307138921, guid: 2842fbfa21002f54298f0aeb992e6415,
        type: 3}
      propertyPath: m_LocalRotation.y
      value: -0
      objectReference: {fileID: 0}
    - target: {fileID: 5681505803307138921, guid: 2842fbfa21002f54298f0aeb992e6415,
        type: 3}
      propertyPath: m_LocalRotation.z
      value: -0
      objectReference: {fileID: 0}
    - target: {fileID: 5681505803307138921, guid: 2842fbfa21002f54298f0aeb992e6415,
        type: 3}
      propertyPath: m_LocalRotation.w
      value: 1
      objectReference: {fileID: 0}
    - target: {fileID: 5681505803307138921, guid: 2842fbfa21002f54298f0aeb992e6415,
        type: 3}
      propertyPath: m_RootOrder
      value: 22
      objectReference: {fileID: 0}
    - target: {fileID: 5681505803307138921, guid: 2842fbfa21002f54298f0aeb992e6415,
        type: 3}
      propertyPath: m_LocalEulerAnglesHint.x
      value: 0
      objectReference: {fileID: 0}
    - target: {fileID: 5681505803307138921, guid: 2842fbfa21002f54298f0aeb992e6415,
        type: 3}
      propertyPath: m_LocalEulerAnglesHint.y
      value: 0
      objectReference: {fileID: 0}
    - target: {fileID: 5681505803307138921, guid: 2842fbfa21002f54298f0aeb992e6415,
        type: 3}
      propertyPath: m_LocalEulerAnglesHint.z
      value: 0
      objectReference: {fileID: 0}
    m_RemovedComponents: []
  m_SourcePrefab: {fileID: 100100000, guid: 2842fbfa21002f54298f0aeb992e6415, type: 3}
--- !u!4 &6282536364433693728 stripped
Transform:
  m_CorrespondingSourceObject: {fileID: 5681505803307138921, guid: 2842fbfa21002f54298f0aeb992e6415,
    type: 3}
  m_PrefabInstance: {fileID: 1866969526776259401}
  m_PrefabAsset: {fileID: 0}
--- !u!1001 &2216800534985519293
PrefabInstance:
  m_ObjectHideFlags: 0
  serializedVersion: 2
  m_Modification:
    m_TransformParent: {fileID: 1848658608965570971}
    m_Modifications:
    - target: {fileID: 3293247596863567107, guid: 80761326030f37c4ca58f97545db667a,
        type: 3}
      propertyPath: m_Name
      value: Bush (5)
      objectReference: {fileID: 0}
    - target: {fileID: 2011049533800236816, guid: 80761326030f37c4ca58f97545db667a,
        type: 3}
      propertyPath: m_LocalPosition.x
      value: -10
      objectReference: {fileID: 0}
    - target: {fileID: 2011049533800236816, guid: 80761326030f37c4ca58f97545db667a,
        type: 3}
      propertyPath: m_LocalPosition.y
      value: 0.15
      objectReference: {fileID: 0}
    - target: {fileID: 2011049533800236816, guid: 80761326030f37c4ca58f97545db667a,
        type: 3}
      propertyPath: m_LocalPosition.z
      value: -14.5
      objectReference: {fileID: 0}
    - target: {fileID: 2011049533800236816, guid: 80761326030f37c4ca58f97545db667a,
        type: 3}
      propertyPath: m_LocalRotation.x
      value: 0.00000006657903
      objectReference: {fileID: 0}
    - target: {fileID: 2011049533800236816, guid: 80761326030f37c4ca58f97545db667a,
        type: 3}
      propertyPath: m_LocalRotation.y
      value: -0
      objectReference: {fileID: 0}
    - target: {fileID: 2011049533800236816, guid: 80761326030f37c4ca58f97545db667a,
        type: 3}
      propertyPath: m_LocalRotation.z
      value: -0
      objectReference: {fileID: 0}
    - target: {fileID: 2011049533800236816, guid: 80761326030f37c4ca58f97545db667a,
        type: 3}
      propertyPath: m_LocalRotation.w
      value: 1
      objectReference: {fileID: 0}
    - target: {fileID: 2011049533800236816, guid: 80761326030f37c4ca58f97545db667a,
        type: 3}
      propertyPath: m_RootOrder
      value: 15
      objectReference: {fileID: 0}
    - target: {fileID: 2011049533800236816, guid: 80761326030f37c4ca58f97545db667a,
        type: 3}
      propertyPath: m_LocalEulerAnglesHint.x
      value: 0
      objectReference: {fileID: 0}
    - target: {fileID: 2011049533800236816, guid: 80761326030f37c4ca58f97545db667a,
        type: 3}
      propertyPath: m_LocalEulerAnglesHint.y
      value: 0
      objectReference: {fileID: 0}
    - target: {fileID: 2011049533800236816, guid: 80761326030f37c4ca58f97545db667a,
        type: 3}
      propertyPath: m_LocalEulerAnglesHint.z
      value: 0
      objectReference: {fileID: 0}
    - target: {fileID: 2011049533800236816, guid: 80761326030f37c4ca58f97545db667a,
        type: 3}
      propertyPath: m_LocalScale.x
      value: 1
      objectReference: {fileID: 0}
    m_RemovedComponents: []
  m_SourcePrefab: {fileID: 100100000, guid: 80761326030f37c4ca58f97545db667a, type: 3}
--- !u!4 &372398756673746861 stripped
Transform:
  m_CorrespondingSourceObject: {fileID: 2011049533800236816, guid: 80761326030f37c4ca58f97545db667a,
    type: 3}
  m_PrefabInstance: {fileID: 2216800534985519293}
  m_PrefabAsset: {fileID: 0}
--- !u!1001 &2331733073983490616
PrefabInstance:
  m_ObjectHideFlags: 0
  serializedVersion: 2
  m_Modification:
    m_TransformParent: {fileID: 1848658608965570971}
    m_Modifications:
    - target: {fileID: 3293247596863567107, guid: 80761326030f37c4ca58f97545db667a,
        type: 3}
      propertyPath: m_Name
      value: Bush (3)
      objectReference: {fileID: 0}
    - target: {fileID: 2011049533800236816, guid: 80761326030f37c4ca58f97545db667a,
        type: 3}
      propertyPath: m_LocalPosition.x
      value: -19.5
      objectReference: {fileID: 0}
    - target: {fileID: 2011049533800236816, guid: 80761326030f37c4ca58f97545db667a,
        type: 3}
      propertyPath: m_LocalPosition.y
      value: 0.15
      objectReference: {fileID: 0}
    - target: {fileID: 2011049533800236816, guid: 80761326030f37c4ca58f97545db667a,
        type: 3}
      propertyPath: m_LocalPosition.z
      value: -15
      objectReference: {fileID: 0}
    - target: {fileID: 2011049533800236816, guid: 80761326030f37c4ca58f97545db667a,
        type: 3}
      propertyPath: m_LocalRotation.x
      value: 0
      objectReference: {fileID: 0}
    - target: {fileID: 2011049533800236816, guid: 80761326030f37c4ca58f97545db667a,
        type: 3}
      propertyPath: m_LocalRotation.y
      value: 0.7071068
      objectReference: {fileID: 0}
    - target: {fileID: 2011049533800236816, guid: 80761326030f37c4ca58f97545db667a,
        type: 3}
      propertyPath: m_LocalRotation.z
      value: 0
      objectReference: {fileID: 0}
    - target: {fileID: 2011049533800236816, guid: 80761326030f37c4ca58f97545db667a,
        type: 3}
      propertyPath: m_LocalRotation.w
      value: 0.7071068
      objectReference: {fileID: 0}
    - target: {fileID: 2011049533800236816, guid: 80761326030f37c4ca58f97545db667a,
        type: 3}
      propertyPath: m_RootOrder
      value: 13
      objectReference: {fileID: 0}
    - target: {fileID: 2011049533800236816, guid: 80761326030f37c4ca58f97545db667a,
        type: 3}
      propertyPath: m_LocalEulerAnglesHint.x
      value: 0
      objectReference: {fileID: 0}
    - target: {fileID: 2011049533800236816, guid: 80761326030f37c4ca58f97545db667a,
        type: 3}
      propertyPath: m_LocalEulerAnglesHint.y
      value: 90
      objectReference: {fileID: 0}
    - target: {fileID: 2011049533800236816, guid: 80761326030f37c4ca58f97545db667a,
        type: 3}
      propertyPath: m_LocalEulerAnglesHint.z
      value: 0
      objectReference: {fileID: 0}
    m_RemovedComponents: []
  m_SourcePrefab: {fileID: 100100000, guid: 80761326030f37c4ca58f97545db667a, type: 3}
--- !u!4 &4301874450295426344 stripped
Transform:
  m_CorrespondingSourceObject: {fileID: 2011049533800236816, guid: 80761326030f37c4ca58f97545db667a,
    type: 3}
  m_PrefabInstance: {fileID: 2331733073983490616}
  m_PrefabAsset: {fileID: 0}
--- !u!1001 &3025530594902209605
PrefabInstance:
  m_ObjectHideFlags: 0
  serializedVersion: 2
  m_Modification:
    m_TransformParent: {fileID: 1848658608965570971}
    m_Modifications:
    - target: {fileID: 3293247596863567107, guid: 80761326030f37c4ca58f97545db667a,
        type: 3}
      propertyPath: m_Name
      value: Bush (6)
      objectReference: {fileID: 0}
    - target: {fileID: 2011049533800236816, guid: 80761326030f37c4ca58f97545db667a,
        type: 3}
      propertyPath: m_LocalPosition.x
      value: -5
      objectReference: {fileID: 0}
    - target: {fileID: 2011049533800236816, guid: 80761326030f37c4ca58f97545db667a,
        type: 3}
      propertyPath: m_LocalPosition.y
      value: 0.15
      objectReference: {fileID: 0}
    - target: {fileID: 2011049533800236816, guid: 80761326030f37c4ca58f97545db667a,
        type: 3}
      propertyPath: m_LocalPosition.z
      value: -14.5
      objectReference: {fileID: 0}
    - target: {fileID: 2011049533800236816, guid: 80761326030f37c4ca58f97545db667a,
        type: 3}
      propertyPath: m_LocalRotation.x
      value: 0.00000006657903
      objectReference: {fileID: 0}
    - target: {fileID: 2011049533800236816, guid: 80761326030f37c4ca58f97545db667a,
        type: 3}
      propertyPath: m_LocalRotation.y
      value: -0
      objectReference: {fileID: 0}
    - target: {fileID: 2011049533800236816, guid: 80761326030f37c4ca58f97545db667a,
        type: 3}
      propertyPath: m_LocalRotation.z
      value: -0
      objectReference: {fileID: 0}
    - target: {fileID: 2011049533800236816, guid: 80761326030f37c4ca58f97545db667a,
        type: 3}
      propertyPath: m_LocalRotation.w
      value: 1
      objectReference: {fileID: 0}
    - target: {fileID: 2011049533800236816, guid: 80761326030f37c4ca58f97545db667a,
        type: 3}
      propertyPath: m_RootOrder
      value: 16
      objectReference: {fileID: 0}
    - target: {fileID: 2011049533800236816, guid: 80761326030f37c4ca58f97545db667a,
        type: 3}
      propertyPath: m_LocalEulerAnglesHint.x
      value: 0
      objectReference: {fileID: 0}
    - target: {fileID: 2011049533800236816, guid: 80761326030f37c4ca58f97545db667a,
        type: 3}
      propertyPath: m_LocalEulerAnglesHint.y
      value: 0
      objectReference: {fileID: 0}
    - target: {fileID: 2011049533800236816, guid: 80761326030f37c4ca58f97545db667a,
        type: 3}
      propertyPath: m_LocalEulerAnglesHint.z
      value: 0
      objectReference: {fileID: 0}
    - target: {fileID: 2011049533800236816, guid: 80761326030f37c4ca58f97545db667a,
        type: 3}
      propertyPath: m_LocalScale.x
      value: 1
      objectReference: {fileID: 0}
    m_RemovedComponents: []
  m_SourcePrefab: {fileID: 100100000, guid: 80761326030f37c4ca58f97545db667a, type: 3}
--- !u!4 &3608639968451769173 stripped
Transform:
  m_CorrespondingSourceObject: {fileID: 2011049533800236816, guid: 80761326030f37c4ca58f97545db667a,
    type: 3}
  m_PrefabInstance: {fileID: 3025530594902209605}
  m_PrefabAsset: {fileID: 0}
--- !u!1001 &4771898285636615915
PrefabInstance:
  m_ObjectHideFlags: 0
  serializedVersion: 2
  m_Modification:
    m_TransformParent: {fileID: 1848658608965570971}
    m_Modifications:
    - target: {fileID: 3293247596863567107, guid: 80761326030f37c4ca58f97545db667a,
        type: 3}
      propertyPath: m_Name
      value: Bush (8)
      objectReference: {fileID: 0}
    - target: {fileID: 2011049533800236816, guid: 80761326030f37c4ca58f97545db667a,
        type: 3}
      propertyPath: m_LocalPosition.x
      value: 0
      objectReference: {fileID: 0}
    - target: {fileID: 2011049533800236816, guid: 80761326030f37c4ca58f97545db667a,
        type: 3}
      propertyPath: m_LocalPosition.y
      value: 0.15
      objectReference: {fileID: 0}
    - target: {fileID: 2011049533800236816, guid: 80761326030f37c4ca58f97545db667a,
        type: 3}
      propertyPath: m_LocalPosition.z
      value: -5
      objectReference: {fileID: 0}
    - target: {fileID: 2011049533800236816, guid: 80761326030f37c4ca58f97545db667a,
        type: 3}
      propertyPath: m_LocalRotation.x
      value: 0
      objectReference: {fileID: 0}
    - target: {fileID: 2011049533800236816, guid: 80761326030f37c4ca58f97545db667a,
        type: 3}
      propertyPath: m_LocalRotation.y
      value: 0.7071068
      objectReference: {fileID: 0}
    - target: {fileID: 2011049533800236816, guid: 80761326030f37c4ca58f97545db667a,
        type: 3}
      propertyPath: m_LocalRotation.z
      value: 0
      objectReference: {fileID: 0}
    - target: {fileID: 2011049533800236816, guid: 80761326030f37c4ca58f97545db667a,
        type: 3}
      propertyPath: m_LocalRotation.w
      value: 0.7071068
      objectReference: {fileID: 0}
    - target: {fileID: 2011049533800236816, guid: 80761326030f37c4ca58f97545db667a,
        type: 3}
      propertyPath: m_RootOrder
      value: 18
      objectReference: {fileID: 0}
    - target: {fileID: 2011049533800236816, guid: 80761326030f37c4ca58f97545db667a,
        type: 3}
      propertyPath: m_LocalEulerAnglesHint.x
      value: 0
      objectReference: {fileID: 0}
    - target: {fileID: 2011049533800236816, guid: 80761326030f37c4ca58f97545db667a,
        type: 3}
      propertyPath: m_LocalEulerAnglesHint.y
      value: 90
      objectReference: {fileID: 0}
    - target: {fileID: 2011049533800236816, guid: 80761326030f37c4ca58f97545db667a,
        type: 3}
      propertyPath: m_LocalEulerAnglesHint.z
      value: 0
      objectReference: {fileID: 0}
    m_RemovedComponents: []
  m_SourcePrefab: {fileID: 100100000, guid: 80761326030f37c4ca58f97545db667a, type: 3}
--- !u!4 &6472128756038941179 stripped
Transform:
  m_CorrespondingSourceObject: {fileID: 2011049533800236816, guid: 80761326030f37c4ca58f97545db667a,
    type: 3}
  m_PrefabInstance: {fileID: 4771898285636615915}
  m_PrefabAsset: {fileID: 0}
--- !u!1001 &5458743899292053671
PrefabInstance:
  m_ObjectHideFlags: 0
  serializedVersion: 2
  m_Modification:
    m_TransformParent: {fileID: 1848658608965570971}
    m_Modifications:
    - target: {fileID: 4652090175675454976, guid: 715c826bb4fc25c429dc7c65bb8f8b43,
        type: 3}
      propertyPath: m_Name
      value: Grass (4)
      objectReference: {fileID: 0}
    - target: {fileID: 8562700260742177811, guid: 715c826bb4fc25c429dc7c65bb8f8b43,
        type: 3}
      propertyPath: m_LocalPosition.x
      value: -10
      objectReference: {fileID: 0}
    - target: {fileID: 8562700260742177811, guid: 715c826bb4fc25c429dc7c65bb8f8b43,
        type: 3}
      propertyPath: m_LocalPosition.y
      value: 0
      objectReference: {fileID: 0}
    - target: {fileID: 8562700260742177811, guid: 715c826bb4fc25c429dc7c65bb8f8b43,
        type: 3}
      propertyPath: m_LocalPosition.z
      value: -5
      objectReference: {fileID: 0}
    - target: {fileID: 8562700260742177811, guid: 715c826bb4fc25c429dc7c65bb8f8b43,
        type: 3}
      propertyPath: m_LocalRotation.x
      value: 0.00000006657903
      objectReference: {fileID: 0}
    - target: {fileID: 8562700260742177811, guid: 715c826bb4fc25c429dc7c65bb8f8b43,
        type: 3}
      propertyPath: m_LocalRotation.y
      value: -0
      objectReference: {fileID: 0}
    - target: {fileID: 8562700260742177811, guid: 715c826bb4fc25c429dc7c65bb8f8b43,
        type: 3}
      propertyPath: m_LocalRotation.z
      value: -0
      objectReference: {fileID: 0}
    - target: {fileID: 8562700260742177811, guid: 715c826bb4fc25c429dc7c65bb8f8b43,
        type: 3}
      propertyPath: m_LocalRotation.w
      value: 1
      objectReference: {fileID: 0}
    - target: {fileID: 8562700260742177811, guid: 715c826bb4fc25c429dc7c65bb8f8b43,
        type: 3}
      propertyPath: m_RootOrder
      value: 2
      objectReference: {fileID: 0}
    - target: {fileID: 8562700260742177811, guid: 715c826bb4fc25c429dc7c65bb8f8b43,
        type: 3}
      propertyPath: m_LocalEulerAnglesHint.x
      value: 0
      objectReference: {fileID: 0}
    - target: {fileID: 8562700260742177811, guid: 715c826bb4fc25c429dc7c65bb8f8b43,
        type: 3}
      propertyPath: m_LocalEulerAnglesHint.y
      value: 0
      objectReference: {fileID: 0}
    - target: {fileID: 8562700260742177811, guid: 715c826bb4fc25c429dc7c65bb8f8b43,
        type: 3}
      propertyPath: m_LocalEulerAnglesHint.z
      value: 0
      objectReference: {fileID: 0}
    m_RemovedComponents: []
  m_SourcePrefab: {fileID: 100100000, guid: 715c826bb4fc25c429dc7c65bb8f8b43, type: 3}
--- !u!4 &4401573892625044660 stripped
Transform:
  m_CorrespondingSourceObject: {fileID: 8562700260742177811, guid: 715c826bb4fc25c429dc7c65bb8f8b43,
    type: 3}
  m_PrefabInstance: {fileID: 5458743899292053671}
  m_PrefabAsset: {fileID: 0}
--- !u!1001 &5564897477498936583
PrefabInstance:
  m_ObjectHideFlags: 0
  serializedVersion: 2
  m_Modification:
    m_TransformParent: {fileID: 1848658608965570971}
    m_Modifications:
    - target: {fileID: 3293247596863567107, guid: 80761326030f37c4ca58f97545db667a,
        type: 3}
      propertyPath: m_Name
      value: Bush (7)
      objectReference: {fileID: 0}
    - target: {fileID: 2011049533800236816, guid: 80761326030f37c4ca58f97545db667a,
        type: 3}
      propertyPath: m_LocalPosition.x
      value: 0
      objectReference: {fileID: 0}
    - target: {fileID: 2011049533800236816, guid: 80761326030f37c4ca58f97545db667a,
        type: 3}
      propertyPath: m_LocalPosition.y
      value: 0.15
      objectReference: {fileID: 0}
    - target: {fileID: 2011049533800236816, guid: 80761326030f37c4ca58f97545db667a,
        type: 3}
      propertyPath: m_LocalPosition.z
      value: -14.5
      objectReference: {fileID: 0}
    - target: {fileID: 2011049533800236816, guid: 80761326030f37c4ca58f97545db667a,
        type: 3}
      propertyPath: m_LocalRotation.x
      value: 0.00000006657903
      objectReference: {fileID: 0}
    - target: {fileID: 2011049533800236816, guid: 80761326030f37c4ca58f97545db667a,
        type: 3}
      propertyPath: m_LocalRotation.y
      value: -0
      objectReference: {fileID: 0}
    - target: {fileID: 2011049533800236816, guid: 80761326030f37c4ca58f97545db667a,
        type: 3}
      propertyPath: m_LocalRotation.z
      value: -0
      objectReference: {fileID: 0}
    - target: {fileID: 2011049533800236816, guid: 80761326030f37c4ca58f97545db667a,
        type: 3}
      propertyPath: m_LocalRotation.w
      value: 1
      objectReference: {fileID: 0}
    - target: {fileID: 2011049533800236816, guid: 80761326030f37c4ca58f97545db667a,
        type: 3}
      propertyPath: m_RootOrder
      value: 17
      objectReference: {fileID: 0}
    - target: {fileID: 2011049533800236816, guid: 80761326030f37c4ca58f97545db667a,
        type: 3}
      propertyPath: m_LocalEulerAnglesHint.x
      value: 0
      objectReference: {fileID: 0}
    - target: {fileID: 2011049533800236816, guid: 80761326030f37c4ca58f97545db667a,
        type: 3}
      propertyPath: m_LocalEulerAnglesHint.y
      value: 0
      objectReference: {fileID: 0}
    - target: {fileID: 2011049533800236816, guid: 80761326030f37c4ca58f97545db667a,
        type: 3}
      propertyPath: m_LocalEulerAnglesHint.z
      value: 0
      objectReference: {fileID: 0}
    - target: {fileID: 2011049533800236816, guid: 80761326030f37c4ca58f97545db667a,
        type: 3}
      propertyPath: m_LocalScale.x
      value: 1
      objectReference: {fileID: 0}
    m_RemovedComponents: []
  m_SourcePrefab: {fileID: 100100000, guid: 80761326030f37c4ca58f97545db667a, type: 3}
--- !u!4 &6256293870777817623 stripped
Transform:
  m_CorrespondingSourceObject: {fileID: 2011049533800236816, guid: 80761326030f37c4ca58f97545db667a,
    type: 3}
  m_PrefabInstance: {fileID: 5564897477498936583}
  m_PrefabAsset: {fileID: 0}
--- !u!1001 &6170729070679045822
PrefabInstance:
  m_ObjectHideFlags: 0
  serializedVersion: 2
  m_Modification:
    m_TransformParent: {fileID: 1848658608965570971}
    m_Modifications:
    - target: {fileID: 4652090175675454976, guid: 715c826bb4fc25c429dc7c65bb8f8b43,
        type: 3}
      propertyPath: m_Name
      value: Grass (2)
      objectReference: {fileID: 0}
    - target: {fileID: 8562700260742177811, guid: 715c826bb4fc25c429dc7c65bb8f8b43,
        type: 3}
      propertyPath: m_LocalPosition.x
      value: -17.5
      objectReference: {fileID: 0}
    - target: {fileID: 8562700260742177811, guid: 715c826bb4fc25c429dc7c65bb8f8b43,
        type: 3}
      propertyPath: m_LocalPosition.y
      value: 0
      objectReference: {fileID: 0}
    - target: {fileID: 8562700260742177811, guid: 715c826bb4fc25c429dc7c65bb8f8b43,
        type: 3}
      propertyPath: m_LocalPosition.z
      value: 0
      objectReference: {fileID: 0}
    - target: {fileID: 8562700260742177811, guid: 715c826bb4fc25c429dc7c65bb8f8b43,
        type: 3}
      propertyPath: m_LocalRotation.x
      value: 0.00000006657903
      objectReference: {fileID: 0}
    - target: {fileID: 8562700260742177811, guid: 715c826bb4fc25c429dc7c65bb8f8b43,
        type: 3}
      propertyPath: m_LocalRotation.y
      value: -0
      objectReference: {fileID: 0}
    - target: {fileID: 8562700260742177811, guid: 715c826bb4fc25c429dc7c65bb8f8b43,
        type: 3}
      propertyPath: m_LocalRotation.z
      value: -0
      objectReference: {fileID: 0}
    - target: {fileID: 8562700260742177811, guid: 715c826bb4fc25c429dc7c65bb8f8b43,
        type: 3}
      propertyPath: m_LocalRotation.w
      value: 1
      objectReference: {fileID: 0}
    - target: {fileID: 8562700260742177811, guid: 715c826bb4fc25c429dc7c65bb8f8b43,
        type: 3}
      propertyPath: m_RootOrder
      value: 0
      objectReference: {fileID: 0}
    - target: {fileID: 8562700260742177811, guid: 715c826bb4fc25c429dc7c65bb8f8b43,
        type: 3}
      propertyPath: m_LocalEulerAnglesHint.x
      value: 0
      objectReference: {fileID: 0}
    - target: {fileID: 8562700260742177811, guid: 715c826bb4fc25c429dc7c65bb8f8b43,
        type: 3}
      propertyPath: m_LocalEulerAnglesHint.y
      value: 0
      objectReference: {fileID: 0}
    - target: {fileID: 8562700260742177811, guid: 715c826bb4fc25c429dc7c65bb8f8b43,
        type: 3}
      propertyPath: m_LocalEulerAnglesHint.z
      value: 0
      objectReference: {fileID: 0}
    - target: {fileID: 8562700260742177811, guid: 715c826bb4fc25c429dc7c65bb8f8b43,
        type: 3}
      propertyPath: m_LocalScale.x
      value: 0.5
      objectReference: {fileID: 0}
    m_RemovedComponents: []
  m_SourcePrefab: {fileID: 100100000, guid: 715c826bb4fc25c429dc7c65bb8f8b43, type: 3}
--- !u!4 &2555238498452804269 stripped
Transform:
  m_CorrespondingSourceObject: {fileID: 8562700260742177811, guid: 715c826bb4fc25c429dc7c65bb8f8b43,
    type: 3}
  m_PrefabInstance: {fileID: 6170729070679045822}
  m_PrefabAsset: {fileID: 0}
--- !u!1001 &6190478127912935952
PrefabInstance:
  m_ObjectHideFlags: 0
  serializedVersion: 2
  m_Modification:
    m_TransformParent: {fileID: 1848658608965570971}
    m_Modifications:
    - target: {fileID: 3293247596863567107, guid: 80761326030f37c4ca58f97545db667a,
        type: 3}
      propertyPath: m_Name
      value: Bush (9)
      objectReference: {fileID: 0}
    - target: {fileID: 2011049533800236816, guid: 80761326030f37c4ca58f97545db667a,
        type: 3}
      propertyPath: m_LocalPosition.x
      value: 0
      objectReference: {fileID: 0}
    - target: {fileID: 2011049533800236816, guid: 80761326030f37c4ca58f97545db667a,
        type: 3}
      propertyPath: m_LocalPosition.y
      value: 0.15
      objectReference: {fileID: 0}
    - target: {fileID: 2011049533800236816, guid: 80761326030f37c4ca58f97545db667a,
        type: 3}
      propertyPath: m_LocalPosition.z
      value: -10
      objectReference: {fileID: 0}
    - target: {fileID: 2011049533800236816, guid: 80761326030f37c4ca58f97545db667a,
        type: 3}
      propertyPath: m_LocalRotation.x
      value: 0
      objectReference: {fileID: 0}
    - target: {fileID: 2011049533800236816, guid: 80761326030f37c4ca58f97545db667a,
        type: 3}
      propertyPath: m_LocalRotation.y
      value: 0.7071068
      objectReference: {fileID: 0}
    - target: {fileID: 2011049533800236816, guid: 80761326030f37c4ca58f97545db667a,
        type: 3}
      propertyPath: m_LocalRotation.z
      value: 0
      objectReference: {fileID: 0}
    - target: {fileID: 2011049533800236816, guid: 80761326030f37c4ca58f97545db667a,
        type: 3}
      propertyPath: m_LocalRotation.w
      value: 0.7071068
      objectReference: {fileID: 0}
    - target: {fileID: 2011049533800236816, guid: 80761326030f37c4ca58f97545db667a,
        type: 3}
      propertyPath: m_RootOrder
      value: 19
      objectReference: {fileID: 0}
    - target: {fileID: 2011049533800236816, guid: 80761326030f37c4ca58f97545db667a,
        type: 3}
      propertyPath: m_LocalEulerAnglesHint.x
      value: 0
      objectReference: {fileID: 0}
    - target: {fileID: 2011049533800236816, guid: 80761326030f37c4ca58f97545db667a,
        type: 3}
      propertyPath: m_LocalEulerAnglesHint.y
      value: 90
      objectReference: {fileID: 0}
    - target: {fileID: 2011049533800236816, guid: 80761326030f37c4ca58f97545db667a,
        type: 3}
      propertyPath: m_LocalEulerAnglesHint.z
      value: 0
      objectReference: {fileID: 0}
    m_RemovedComponents: []
  m_SourcePrefab: {fileID: 100100000, guid: 80761326030f37c4ca58f97545db667a, type: 3}
--- !u!4 &5620582401831052544 stripped
Transform:
  m_CorrespondingSourceObject: {fileID: 2011049533800236816, guid: 80761326030f37c4ca58f97545db667a,
    type: 3}
  m_PrefabInstance: {fileID: 6190478127912935952}
  m_PrefabAsset: {fileID: 0}
--- !u!1001 &6523559993179732905
PrefabInstance:
  m_ObjectHideFlags: 0
  serializedVersion: 2
  m_Modification:
    m_TransformParent: {fileID: 1848658608965570971}
    m_Modifications:
    - target: {fileID: 2958007416753304825, guid: b096b6abeb206c348b2758c176ecb51e,
        type: 3}
      propertyPath: m_Name
      value: Tree2
      objectReference: {fileID: 0}
    - target: {fileID: 2258464821934278378, guid: b096b6abeb206c348b2758c176ecb51e,
        type: 3}
      propertyPath: m_LocalPosition.x
      value: -16.95
      objectReference: {fileID: 0}
    - target: {fileID: 2258464821934278378, guid: b096b6abeb206c348b2758c176ecb51e,
        type: 3}
      propertyPath: m_LocalPosition.y
      value: 0.15
      objectReference: {fileID: 0}
    - target: {fileID: 2258464821934278378, guid: b096b6abeb206c348b2758c176ecb51e,
        type: 3}
      propertyPath: m_LocalPosition.z
      value: -0.81
      objectReference: {fileID: 0}
    - target: {fileID: 2258464821934278378, guid: b096b6abeb206c348b2758c176ecb51e,
        type: 3}
      propertyPath: m_LocalRotation.x
      value: 0.00000006657903
      objectReference: {fileID: 0}
    - target: {fileID: 2258464821934278378, guid: b096b6abeb206c348b2758c176ecb51e,
        type: 3}
      propertyPath: m_LocalRotation.y
      value: -0
      objectReference: {fileID: 0}
    - target: {fileID: 2258464821934278378, guid: b096b6abeb206c348b2758c176ecb51e,
        type: 3}
      propertyPath: m_LocalRotation.z
      value: -0
      objectReference: {fileID: 0}
    - target: {fileID: 2258464821934278378, guid: b096b6abeb206c348b2758c176ecb51e,
        type: 3}
      propertyPath: m_LocalRotation.w
      value: 1
      objectReference: {fileID: 0}
    - target: {fileID: 2258464821934278378, guid: b096b6abeb206c348b2758c176ecb51e,
        type: 3}
      propertyPath: m_RootOrder
      value: 26
      objectReference: {fileID: 0}
    - target: {fileID: 2258464821934278378, guid: b096b6abeb206c348b2758c176ecb51e,
        type: 3}
      propertyPath: m_LocalEulerAnglesHint.x
      value: 0
      objectReference: {fileID: 0}
    - target: {fileID: 2258464821934278378, guid: b096b6abeb206c348b2758c176ecb51e,
        type: 3}
      propertyPath: m_LocalEulerAnglesHint.y
      value: 0
      objectReference: {fileID: 0}
    - target: {fileID: 2258464821934278378, guid: b096b6abeb206c348b2758c176ecb51e,
        type: 3}
      propertyPath: m_LocalEulerAnglesHint.z
      value: 0
      objectReference: {fileID: 0}
    m_RemovedComponents: []
  m_SourcePrefab: {fileID: 100100000, guid: b096b6abeb206c348b2758c176ecb51e, type: 3}
--- !u!4 &5035018379194711363 stripped
Transform:
  m_CorrespondingSourceObject: {fileID: 2258464821934278378, guid: b096b6abeb206c348b2758c176ecb51e,
    type: 3}
  m_PrefabInstance: {fileID: 6523559993179732905}
  m_PrefabAsset: {fileID: 0}
--- !u!1001 &6710745237859410798
PrefabInstance:
  m_ObjectHideFlags: 0
  serializedVersion: 2
  m_Modification:
    m_TransformParent: {fileID: 1848658608965570971}
    m_Modifications:
    - target: {fileID: 4379603171368236076, guid: d79e5f09437355a44adab193c0858058,
        type: 3}
      propertyPath: m_Name
      value: Concrete (2)
      objectReference: {fileID: 0}
    - target: {fileID: 4379603171368265740, guid: d79e5f09437355a44adab193c0858058,
        type: 3}
      propertyPath: m_LocalPosition.x
      value: -2.5
      objectReference: {fileID: 0}
    - target: {fileID: 4379603171368265740, guid: d79e5f09437355a44adab193c0858058,
        type: 3}
      propertyPath: m_LocalPosition.y
      value: 0
      objectReference: {fileID: 0}
    - target: {fileID: 4379603171368265740, guid: d79e5f09437355a44adab193c0858058,
        type: 3}
      propertyPath: m_LocalPosition.z
      value: 0
      objectReference: {fileID: 0}
    - target: {fileID: 4379603171368265740, guid: d79e5f09437355a44adab193c0858058,
        type: 3}
      propertyPath: m_LocalRotation.x
      value: 0.00000006657903
      objectReference: {fileID: 0}
    - target: {fileID: 4379603171368265740, guid: d79e5f09437355a44adab193c0858058,
        type: 3}
      propertyPath: m_LocalRotation.y
      value: -0
      objectReference: {fileID: 0}
    - target: {fileID: 4379603171368265740, guid: d79e5f09437355a44adab193c0858058,
        type: 3}
      propertyPath: m_LocalRotation.z
      value: -0
      objectReference: {fileID: 0}
    - target: {fileID: 4379603171368265740, guid: d79e5f09437355a44adab193c0858058,
        type: 3}
      propertyPath: m_LocalRotation.w
      value: 1
      objectReference: {fileID: 0}
    - target: {fileID: 4379603171368265740, guid: d79e5f09437355a44adab193c0858058,
        type: 3}
      propertyPath: m_RootOrder
      value: 28
      objectReference: {fileID: 0}
    - target: {fileID: 4379603171368265740, guid: d79e5f09437355a44adab193c0858058,
        type: 3}
      propertyPath: m_LocalEulerAnglesHint.x
      value: 0
      objectReference: {fileID: 0}
    - target: {fileID: 4379603171368265740, guid: d79e5f09437355a44adab193c0858058,
        type: 3}
      propertyPath: m_LocalEulerAnglesHint.y
      value: 0
      objectReference: {fileID: 0}
    - target: {fileID: 4379603171368265740, guid: d79e5f09437355a44adab193c0858058,
        type: 3}
      propertyPath: m_LocalEulerAnglesHint.z
      value: 0
      objectReference: {fileID: 0}
    - target: {fileID: 4379603171368265740, guid: d79e5f09437355a44adab193c0858058,
        type: 3}
      propertyPath: m_LocalScale.x
      value: 3
      objectReference: {fileID: 0}
    - target: {fileID: 4379603171368265740, guid: d79e5f09437355a44adab193c0858058,
        type: 3}
      propertyPath: m_LocalScale.z
      value: 1
      objectReference: {fileID: 0}
    m_RemovedComponents: []
  m_SourcePrefab: {fileID: 100100000, guid: d79e5f09437355a44adab193c0858058, type: 3}
--- !u!4 &7054364196595911522 stripped
Transform:
  m_CorrespondingSourceObject: {fileID: 4379603171368265740, guid: d79e5f09437355a44adab193c0858058,
    type: 3}
  m_PrefabInstance: {fileID: 6710745237859410798}
  m_PrefabAsset: {fileID: 0}
--- !u!1001 &7157137786191403073
PrefabInstance:
  m_ObjectHideFlags: 0
  serializedVersion: 2
  m_Modification:
    m_TransformParent: {fileID: 1848658608965570971}
    m_Modifications:
    - target: {fileID: 8683954612789038458, guid: 2842fbfa21002f54298f0aeb992e6415,
        type: 3}
      propertyPath: m_Name
      value: GardenBed2 (4)
      objectReference: {fileID: 0}
    - target: {fileID: 5681505803307138921, guid: 2842fbfa21002f54298f0aeb992e6415,
        type: 3}
      propertyPath: m_LocalPosition.x
      value: -7.68
      objectReference: {fileID: 0}
    - target: {fileID: 5681505803307138921, guid: 2842fbfa21002f54298f0aeb992e6415,
        type: 3}
      propertyPath: m_LocalPosition.y
      value: 0.15
      objectReference: {fileID: 0}
    - target: {fileID: 5681505803307138921, guid: 2842fbfa21002f54298f0aeb992e6415,
        type: 3}
      propertyPath: m_LocalPosition.z
      value: -3.06
      objectReference: {fileID: 0}
    - target: {fileID: 5681505803307138921, guid: 2842fbfa21002f54298f0aeb992e6415,
        type: 3}
      propertyPath: m_LocalRotation.x
      value: 0.00000006657903
      objectReference: {fileID: 0}
    - target: {fileID: 5681505803307138921, guid: 2842fbfa21002f54298f0aeb992e6415,
        type: 3}
      propertyPath: m_LocalRotation.y
      value: -0
      objectReference: {fileID: 0}
    - target: {fileID: 5681505803307138921, guid: 2842fbfa21002f54298f0aeb992e6415,
        type: 3}
      propertyPath: m_LocalRotation.z
      value: -0
      objectReference: {fileID: 0}
    - target: {fileID: 5681505803307138921, guid: 2842fbfa21002f54298f0aeb992e6415,
        type: 3}
      propertyPath: m_LocalRotation.w
      value: 1
      objectReference: {fileID: 0}
    - target: {fileID: 5681505803307138921, guid: 2842fbfa21002f54298f0aeb992e6415,
        type: 3}
      propertyPath: m_RootOrder
      value: 29
      objectReference: {fileID: 0}
    - target: {fileID: 5681505803307138921, guid: 2842fbfa21002f54298f0aeb992e6415,
        type: 3}
      propertyPath: m_LocalEulerAnglesHint.x
      value: 0
      objectReference: {fileID: 0}
    - target: {fileID: 5681505803307138921, guid: 2842fbfa21002f54298f0aeb992e6415,
        type: 3}
      propertyPath: m_LocalEulerAnglesHint.y
      value: 0
      objectReference: {fileID: 0}
    - target: {fileID: 5681505803307138921, guid: 2842fbfa21002f54298f0aeb992e6415,
        type: 3}
      propertyPath: m_LocalEulerAnglesHint.z
      value: 0
      objectReference: {fileID: 0}
    m_RemovedComponents: []
  m_SourcePrefab: {fileID: 100100000, guid: 2842fbfa21002f54298f0aeb992e6415, type: 3}
--- !u!4 &3281859176212981544 stripped
Transform:
  m_CorrespondingSourceObject: {fileID: 5681505803307138921, guid: 2842fbfa21002f54298f0aeb992e6415,
    type: 3}
  m_PrefabInstance: {fileID: 7157137786191403073}
  m_PrefabAsset: {fileID: 0}
--- !u!1001 &7431044911710124905
PrefabInstance:
  m_ObjectHideFlags: 0
  serializedVersion: 2
  m_Modification:
    m_TransformParent: {fileID: 1848658608965570971}
    m_Modifications:
    - target: {fileID: 3293247596863567107, guid: 80761326030f37c4ca58f97545db667a,
        type: 3}
      propertyPath: m_Name
      value: Bush (2)
      objectReference: {fileID: 0}
    - target: {fileID: 2011049533800236816, guid: 80761326030f37c4ca58f97545db667a,
        type: 3}
      propertyPath: m_LocalPosition.x
      value: -19.5
      objectReference: {fileID: 0}
    - target: {fileID: 2011049533800236816, guid: 80761326030f37c4ca58f97545db667a,
        type: 3}
      propertyPath: m_LocalPosition.y
      value: 0.15
      objectReference: {fileID: 0}
    - target: {fileID: 2011049533800236816, guid: 80761326030f37c4ca58f97545db667a,
        type: 3}
      propertyPath: m_LocalPosition.z
      value: -10
      objectReference: {fileID: 0}
    - target: {fileID: 2011049533800236816, guid: 80761326030f37c4ca58f97545db667a,
        type: 3}
      propertyPath: m_LocalRotation.x
      value: 0
      objectReference: {fileID: 0}
    - target: {fileID: 2011049533800236816, guid: 80761326030f37c4ca58f97545db667a,
        type: 3}
      propertyPath: m_LocalRotation.y
      value: 0.7071068
      objectReference: {fileID: 0}
    - target: {fileID: 2011049533800236816, guid: 80761326030f37c4ca58f97545db667a,
        type: 3}
      propertyPath: m_LocalRotation.z
      value: 0
      objectReference: {fileID: 0}
    - target: {fileID: 2011049533800236816, guid: 80761326030f37c4ca58f97545db667a,
        type: 3}
      propertyPath: m_LocalRotation.w
      value: 0.7071068
      objectReference: {fileID: 0}
    - target: {fileID: 2011049533800236816, guid: 80761326030f37c4ca58f97545db667a,
        type: 3}
      propertyPath: m_RootOrder
      value: 12
      objectReference: {fileID: 0}
    - target: {fileID: 2011049533800236816, guid: 80761326030f37c4ca58f97545db667a,
        type: 3}
      propertyPath: m_LocalEulerAnglesHint.x
      value: 0
      objectReference: {fileID: 0}
    - target: {fileID: 2011049533800236816, guid: 80761326030f37c4ca58f97545db667a,
        type: 3}
      propertyPath: m_LocalEulerAnglesHint.y
      value: 90
      objectReference: {fileID: 0}
    - target: {fileID: 2011049533800236816, guid: 80761326030f37c4ca58f97545db667a,
        type: 3}
      propertyPath: m_LocalEulerAnglesHint.z
      value: 0
      objectReference: {fileID: 0}
    m_RemovedComponents: []
  m_SourcePrefab: {fileID: 100100000, guid: 80761326030f37c4ca58f97545db667a, type: 3}
--- !u!4 &8991701761015446649 stripped
Transform:
  m_CorrespondingSourceObject: {fileID: 2011049533800236816, guid: 80761326030f37c4ca58f97545db667a,
    type: 3}
  m_PrefabInstance: {fileID: 7431044911710124905}
  m_PrefabAsset: {fileID: 0}
--- !u!1001 &7733601667059869560
PrefabInstance:
  m_ObjectHideFlags: 0
  serializedVersion: 2
  m_Modification:
    m_TransformParent: {fileID: 1848658608965570971}
    m_Modifications:
    - target: {fileID: 4652090175675454976, guid: 715c826bb4fc25c429dc7c65bb8f8b43,
        type: 3}
      propertyPath: m_Name
      value: Grass (6)
      objectReference: {fileID: 0}
    - target: {fileID: 8562700260742177811, guid: 715c826bb4fc25c429dc7c65bb8f8b43,
        type: 3}
      propertyPath: m_LocalPosition.x
      value: -5
      objectReference: {fileID: 0}
    - target: {fileID: 8562700260742177811, guid: 715c826bb4fc25c429dc7c65bb8f8b43,
        type: 3}
      propertyPath: m_LocalPosition.y
      value: 0
      objectReference: {fileID: 0}
    - target: {fileID: 8562700260742177811, guid: 715c826bb4fc25c429dc7c65bb8f8b43,
        type: 3}
      propertyPath: m_LocalPosition.z
      value: -10
      objectReference: {fileID: 0}
    - target: {fileID: 8562700260742177811, guid: 715c826bb4fc25c429dc7c65bb8f8b43,
        type: 3}
      propertyPath: m_LocalRotation.x
      value: 0.00000006657903
      objectReference: {fileID: 0}
    - target: {fileID: 8562700260742177811, guid: 715c826bb4fc25c429dc7c65bb8f8b43,
        type: 3}
      propertyPath: m_LocalRotation.y
      value: -0
      objectReference: {fileID: 0}
    - target: {fileID: 8562700260742177811, guid: 715c826bb4fc25c429dc7c65bb8f8b43,
        type: 3}
      propertyPath: m_LocalRotation.z
      value: -0
      objectReference: {fileID: 0}
    - target: {fileID: 8562700260742177811, guid: 715c826bb4fc25c429dc7c65bb8f8b43,
        type: 3}
      propertyPath: m_LocalRotation.w
      value: 1
      objectReference: {fileID: 0}
    - target: {fileID: 8562700260742177811, guid: 715c826bb4fc25c429dc7c65bb8f8b43,
        type: 3}
      propertyPath: m_RootOrder
      value: 4
      objectReference: {fileID: 0}
    - target: {fileID: 8562700260742177811, guid: 715c826bb4fc25c429dc7c65bb8f8b43,
        type: 3}
      propertyPath: m_LocalEulerAnglesHint.x
      value: 0
      objectReference: {fileID: 0}
    - target: {fileID: 8562700260742177811, guid: 715c826bb4fc25c429dc7c65bb8f8b43,
        type: 3}
      propertyPath: m_LocalEulerAnglesHint.y
      value: 0
      objectReference: {fileID: 0}
    - target: {fileID: 8562700260742177811, guid: 715c826bb4fc25c429dc7c65bb8f8b43,
        type: 3}
      propertyPath: m_LocalEulerAnglesHint.z
      value: 0
      objectReference: {fileID: 0}
    m_RemovedComponents: []
  m_SourcePrefab: {fileID: 100100000, guid: 715c826bb4fc25c429dc7c65bb8f8b43, type: 3}
--- !u!4 &2127835619904602987 stripped
Transform:
  m_CorrespondingSourceObject: {fileID: 8562700260742177811, guid: 715c826bb4fc25c429dc7c65bb8f8b43,
    type: 3}
  m_PrefabInstance: {fileID: 7733601667059869560}
  m_PrefabAsset: {fileID: 0}
--- !u!1001 &7922234492878301328
PrefabInstance:
  m_ObjectHideFlags: 0
  serializedVersion: 2
  m_Modification:
    m_TransformParent: {fileID: 1848658608965570971}
    m_Modifications:
    - target: {fileID: 3293247596863567107, guid: 80761326030f37c4ca58f97545db667a,
        type: 3}
      propertyPath: m_Name
      value: Bush (14)
      objectReference: {fileID: 0}
    - target: {fileID: 2011049533800236816, guid: 80761326030f37c4ca58f97545db667a,
        type: 3}
      propertyPath: m_LocalPosition.x
      value: -1.75
      objectReference: {fileID: 0}
    - target: {fileID: 2011049533800236816, guid: 80761326030f37c4ca58f97545db667a,
        type: 3}
      propertyPath: m_LocalPosition.y
      value: 0.15
      objectReference: {fileID: 0}
    - target: {fileID: 2011049533800236816, guid: 80761326030f37c4ca58f97545db667a,
        type: 3}
      propertyPath: m_LocalPosition.z
      value: 0
      objectReference: {fileID: 0}
    - target: {fileID: 2011049533800236816, guid: 80761326030f37c4ca58f97545db667a,
        type: 3}
      propertyPath: m_LocalRotation.x
      value: 0.00000006657903
      objectReference: {fileID: 0}
    - target: {fileID: 2011049533800236816, guid: 80761326030f37c4ca58f97545db667a,
        type: 3}
      propertyPath: m_LocalRotation.y
      value: -0
      objectReference: {fileID: 0}
    - target: {fileID: 2011049533800236816, guid: 80761326030f37c4ca58f97545db667a,
        type: 3}
      propertyPath: m_LocalRotation.z
      value: -0
      objectReference: {fileID: 0}
    - target: {fileID: 2011049533800236816, guid: 80761326030f37c4ca58f97545db667a,
        type: 3}
      propertyPath: m_LocalRotation.w
      value: 1
      objectReference: {fileID: 0}
    - target: {fileID: 2011049533800236816, guid: 80761326030f37c4ca58f97545db667a,
        type: 3}
      propertyPath: m_RootOrder
      value: 24
      objectReference: {fileID: 0}
    - target: {fileID: 2011049533800236816, guid: 80761326030f37c4ca58f97545db667a,
        type: 3}
      propertyPath: m_LocalEulerAnglesHint.x
      value: 0
      objectReference: {fileID: 0}
    - target: {fileID: 2011049533800236816, guid: 80761326030f37c4ca58f97545db667a,
        type: 3}
      propertyPath: m_LocalEulerAnglesHint.y
      value: 0
      objectReference: {fileID: 0}
    - target: {fileID: 2011049533800236816, guid: 80761326030f37c4ca58f97545db667a,
        type: 3}
      propertyPath: m_LocalEulerAnglesHint.z
      value: 0
      objectReference: {fileID: 0}
    - target: {fileID: 2011049533800236816, guid: 80761326030f37c4ca58f97545db667a,
        type: 3}
      propertyPath: m_LocalScale.x
      value: 0.15
      objectReference: {fileID: 0}
    - target: {fileID: 2011049533800236816, guid: 80761326030f37c4ca58f97545db667a,
        type: 3}
      propertyPath: m_LocalScale.y
      value: 2
      objectReference: {fileID: 0}
    - target: {fileID: 2011049533800236816, guid: 80761326030f37c4ca58f97545db667a,
        type: 3}
      propertyPath: m_LocalScale.z
      value: 1
      objectReference: {fileID: 0}
    m_RemovedComponents: []
  m_SourcePrefab: {fileID: 100100000, guid: 80761326030f37c4ca58f97545db667a, type: 3}
--- !u!4 &8510044805000818560 stripped
Transform:
  m_CorrespondingSourceObject: {fileID: 2011049533800236816, guid: 80761326030f37c4ca58f97545db667a,
    type: 3}
  m_PrefabInstance: {fileID: 7922234492878301328}
  m_PrefabAsset: {fileID: 0}
--- !u!1001 &8526042488996871982
PrefabInstance:
  m_ObjectHideFlags: 0
  serializedVersion: 2
  m_Modification:
    m_TransformParent: {fileID: 1848658608965570971}
    m_Modifications:
    - target: {fileID: 4652090175675454976, guid: 715c826bb4fc25c429dc7c65bb8f8b43,
        type: 3}
      propertyPath: m_Name
      value: Grass (3)
      objectReference: {fileID: 0}
    - target: {fileID: 8562700260742177811, guid: 715c826bb4fc25c429dc7c65bb8f8b43,
        type: 3}
      propertyPath: m_LocalPosition.x
      value: -5
      objectReference: {fileID: 0}
    - target: {fileID: 8562700260742177811, guid: 715c826bb4fc25c429dc7c65bb8f8b43,
        type: 3}
      propertyPath: m_LocalPosition.y
      value: 0
      objectReference: {fileID: 0}
    - target: {fileID: 8562700260742177811, guid: 715c826bb4fc25c429dc7c65bb8f8b43,
        type: 3}
      propertyPath: m_LocalPosition.z
      value: -5
      objectReference: {fileID: 0}
    - target: {fileID: 8562700260742177811, guid: 715c826bb4fc25c429dc7c65bb8f8b43,
        type: 3}
      propertyPath: m_LocalRotation.x
      value: 0.00000006657903
      objectReference: {fileID: 0}
    - target: {fileID: 8562700260742177811, guid: 715c826bb4fc25c429dc7c65bb8f8b43,
        type: 3}
      propertyPath: m_LocalRotation.y
      value: -0
      objectReference: {fileID: 0}
    - target: {fileID: 8562700260742177811, guid: 715c826bb4fc25c429dc7c65bb8f8b43,
        type: 3}
      propertyPath: m_LocalRotation.z
      value: -0
      objectReference: {fileID: 0}
    - target: {fileID: 8562700260742177811, guid: 715c826bb4fc25c429dc7c65bb8f8b43,
        type: 3}
      propertyPath: m_LocalRotation.w
      value: 1
      objectReference: {fileID: 0}
    - target: {fileID: 8562700260742177811, guid: 715c826bb4fc25c429dc7c65bb8f8b43,
        type: 3}
      propertyPath: m_RootOrder
      value: 1
      objectReference: {fileID: 0}
    - target: {fileID: 8562700260742177811, guid: 715c826bb4fc25c429dc7c65bb8f8b43,
        type: 3}
      propertyPath: m_LocalEulerAnglesHint.x
      value: 0
      objectReference: {fileID: 0}
    - target: {fileID: 8562700260742177811, guid: 715c826bb4fc25c429dc7c65bb8f8b43,
        type: 3}
      propertyPath: m_LocalEulerAnglesHint.y
      value: 0
      objectReference: {fileID: 0}
    - target: {fileID: 8562700260742177811, guid: 715c826bb4fc25c429dc7c65bb8f8b43,
        type: 3}
      propertyPath: m_LocalEulerAnglesHint.z
      value: 0
      objectReference: {fileID: 0}
    m_RemovedComponents: []
  m_SourcePrefab: {fileID: 100100000, guid: 715c826bb4fc25c429dc7c65bb8f8b43, type: 3}
--- !u!4 &37793502832433981 stripped
Transform:
  m_CorrespondingSourceObject: {fileID: 8562700260742177811, guid: 715c826bb4fc25c429dc7c65bb8f8b43,
    type: 3}
  m_PrefabInstance: {fileID: 8526042488996871982}
  m_PrefabAsset: {fileID: 0}
--- !u!1001 &8699615196310735120
PrefabInstance:
  m_ObjectHideFlags: 0
  serializedVersion: 2
  m_Modification:
    m_TransformParent: {fileID: 1848658608965570971}
    m_Modifications:
    - target: {fileID: 3293247596863567107, guid: 80761326030f37c4ca58f97545db667a,
        type: 3}
      propertyPath: m_Name
      value: Bush (13)
      objectReference: {fileID: 0}
    - target: {fileID: 2011049533800236816, guid: 80761326030f37c4ca58f97545db667a,
        type: 3}
      propertyPath: m_LocalPosition.x
      value: -17.5
      objectReference: {fileID: 0}
    - target: {fileID: 2011049533800236816, guid: 80761326030f37c4ca58f97545db667a,
        type: 3}
      propertyPath: m_LocalPosition.y
      value: 0.15
      objectReference: {fileID: 0}
    - target: {fileID: 2011049533800236816, guid: 80761326030f37c4ca58f97545db667a,
        type: 3}
      propertyPath: m_LocalPosition.z
      value: -0.0000000060249
      objectReference: {fileID: 0}
    - target: {fileID: 2011049533800236816, guid: 80761326030f37c4ca58f97545db667a,
        type: 3}
      propertyPath: m_LocalRotation.x
      value: 0.00000006657903
      objectReference: {fileID: 0}
    - target: {fileID: 2011049533800236816, guid: 80761326030f37c4ca58f97545db667a,
        type: 3}
      propertyPath: m_LocalRotation.y
      value: -0
      objectReference: {fileID: 0}
    - target: {fileID: 2011049533800236816, guid: 80761326030f37c4ca58f97545db667a,
        type: 3}
      propertyPath: m_LocalRotation.z
      value: -0
      objectReference: {fileID: 0}
    - target: {fileID: 2011049533800236816, guid: 80761326030f37c4ca58f97545db667a,
        type: 3}
      propertyPath: m_LocalRotation.w
      value: 1
      objectReference: {fileID: 0}
    - target: {fileID: 2011049533800236816, guid: 80761326030f37c4ca58f97545db667a,
        type: 3}
      propertyPath: m_RootOrder
      value: 23
      objectReference: {fileID: 0}
    - target: {fileID: 2011049533800236816, guid: 80761326030f37c4ca58f97545db667a,
        type: 3}
      propertyPath: m_LocalEulerAnglesHint.x
      value: 0
      objectReference: {fileID: 0}
    - target: {fileID: 2011049533800236816, guid: 80761326030f37c4ca58f97545db667a,
        type: 3}
      propertyPath: m_LocalEulerAnglesHint.y
      value: 0
      objectReference: {fileID: 0}
    - target: {fileID: 2011049533800236816, guid: 80761326030f37c4ca58f97545db667a,
        type: 3}
      propertyPath: m_LocalEulerAnglesHint.z
      value: 0
      objectReference: {fileID: 0}
    - target: {fileID: 2011049533800236816, guid: 80761326030f37c4ca58f97545db667a,
        type: 3}
      propertyPath: m_LocalScale.x
      value: 0.15
      objectReference: {fileID: 0}
    - target: {fileID: 2011049533800236816, guid: 80761326030f37c4ca58f97545db667a,
        type: 3}
      propertyPath: m_LocalScale.y
      value: 2
      objectReference: {fileID: 0}
    - target: {fileID: 2011049533800236816, guid: 80761326030f37c4ca58f97545db667a,
        type: 3}
      propertyPath: m_LocalScale.z
      value: 1
      objectReference: {fileID: 0}
    m_RemovedComponents: []
  m_SourcePrefab: {fileID: 100100000, guid: 80761326030f37c4ca58f97545db667a, type: 3}
--- !u!4 &7157225899372432896 stripped
Transform:
  m_CorrespondingSourceObject: {fileID: 2011049533800236816, guid: 80761326030f37c4ca58f97545db667a,
    type: 3}
  m_PrefabInstance: {fileID: 8699615196310735120}
  m_PrefabAsset: {fileID: 0}
--- !u!1001 &9090681315191942631
PrefabInstance:
  m_ObjectHideFlags: 0
  serializedVersion: 2
  m_Modification:
    m_TransformParent: {fileID: 1848658608965570971}
    m_Modifications:
    - target: {fileID: 4652090175675454976, guid: 715c826bb4fc25c429dc7c65bb8f8b43,
        type: 3}
      propertyPath: m_Name
      value: Grass (8)
      objectReference: {fileID: 0}
    - target: {fileID: 8562700260742177811, guid: 715c826bb4fc25c429dc7c65bb8f8b43,
        type: 3}
      propertyPath: m_LocalPosition.x
      value: -15
      objectReference: {fileID: 0}
    - target: {fileID: 8562700260742177811, guid: 715c826bb4fc25c429dc7c65bb8f8b43,
        type: 3}
      propertyPath: m_LocalPosition.y
      value: 0
      objectReference: {fileID: 0}
    - target: {fileID: 8562700260742177811, guid: 715c826bb4fc25c429dc7c65bb8f8b43,
        type: 3}
      propertyPath: m_LocalPosition.z
      value: -10
      objectReference: {fileID: 0}
    - target: {fileID: 8562700260742177811, guid: 715c826bb4fc25c429dc7c65bb8f8b43,
        type: 3}
      propertyPath: m_LocalRotation.x
      value: 0.00000006657903
      objectReference: {fileID: 0}
    - target: {fileID: 8562700260742177811, guid: 715c826bb4fc25c429dc7c65bb8f8b43,
        type: 3}
      propertyPath: m_LocalRotation.y
      value: -0
      objectReference: {fileID: 0}
    - target: {fileID: 8562700260742177811, guid: 715c826bb4fc25c429dc7c65bb8f8b43,
        type: 3}
      propertyPath: m_LocalRotation.z
      value: -0
      objectReference: {fileID: 0}
    - target: {fileID: 8562700260742177811, guid: 715c826bb4fc25c429dc7c65bb8f8b43,
        type: 3}
      propertyPath: m_LocalRotation.w
      value: 1
      objectReference: {fileID: 0}
    - target: {fileID: 8562700260742177811, guid: 715c826bb4fc25c429dc7c65bb8f8b43,
        type: 3}
      propertyPath: m_RootOrder
      value: 6
      objectReference: {fileID: 0}
    - target: {fileID: 8562700260742177811, guid: 715c826bb4fc25c429dc7c65bb8f8b43,
        type: 3}
      propertyPath: m_LocalEulerAnglesHint.x
      value: 0
      objectReference: {fileID: 0}
    - target: {fileID: 8562700260742177811, guid: 715c826bb4fc25c429dc7c65bb8f8b43,
        type: 3}
      propertyPath: m_LocalEulerAnglesHint.y
      value: 0
      objectReference: {fileID: 0}
    - target: {fileID: 8562700260742177811, guid: 715c826bb4fc25c429dc7c65bb8f8b43,
        type: 3}
      propertyPath: m_LocalEulerAnglesHint.z
      value: 0
      objectReference: {fileID: 0}
    m_RemovedComponents: []
  m_SourcePrefab: {fileID: 100100000, guid: 715c826bb4fc25c429dc7c65bb8f8b43, type: 3}
--- !u!4 &647468281630116340 stripped
Transform:
  m_CorrespondingSourceObject: {fileID: 8562700260742177811, guid: 715c826bb4fc25c429dc7c65bb8f8b43,
    type: 3}
  m_PrefabInstance: {fileID: 9090681315191942631}
  m_PrefabAsset: {fileID: 0}
--- !u!1001 &9160766040903657000
PrefabInstance:
  m_ObjectHideFlags: 0
  serializedVersion: 2
  m_Modification:
    m_TransformParent: {fileID: 1848658608965570971}
    m_Modifications:
    - target: {fileID: 4652090175675454976, guid: 715c826bb4fc25c429dc7c65bb8f8b43,
        type: 3}
      propertyPath: m_Name
      value: Grass (5)
      objectReference: {fileID: 0}
    - target: {fileID: 8562700260742177811, guid: 715c826bb4fc25c429dc7c65bb8f8b43,
        type: 3}
      propertyPath: m_LocalPosition.x
      value: -15
      objectReference: {fileID: 0}
    - target: {fileID: 8562700260742177811, guid: 715c826bb4fc25c429dc7c65bb8f8b43,
        type: 3}
      propertyPath: m_LocalPosition.y
      value: 0
      objectReference: {fileID: 0}
    - target: {fileID: 8562700260742177811, guid: 715c826bb4fc25c429dc7c65bb8f8b43,
        type: 3}
      propertyPath: m_LocalPosition.z
      value: -5
      objectReference: {fileID: 0}
    - target: {fileID: 8562700260742177811, guid: 715c826bb4fc25c429dc7c65bb8f8b43,
        type: 3}
      propertyPath: m_LocalRotation.x
      value: 0.00000006657903
      objectReference: {fileID: 0}
    - target: {fileID: 8562700260742177811, guid: 715c826bb4fc25c429dc7c65bb8f8b43,
        type: 3}
      propertyPath: m_LocalRotation.y
      value: -0
      objectReference: {fileID: 0}
    - target: {fileID: 8562700260742177811, guid: 715c826bb4fc25c429dc7c65bb8f8b43,
        type: 3}
      propertyPath: m_LocalRotation.z
      value: -0
      objectReference: {fileID: 0}
    - target: {fileID: 8562700260742177811, guid: 715c826bb4fc25c429dc7c65bb8f8b43,
        type: 3}
      propertyPath: m_LocalRotation.w
      value: 1
      objectReference: {fileID: 0}
    - target: {fileID: 8562700260742177811, guid: 715c826bb4fc25c429dc7c65bb8f8b43,
        type: 3}
      propertyPath: m_RootOrder
      value: 3
      objectReference: {fileID: 0}
    - target: {fileID: 8562700260742177811, guid: 715c826bb4fc25c429dc7c65bb8f8b43,
        type: 3}
      propertyPath: m_LocalEulerAnglesHint.x
      value: 0
      objectReference: {fileID: 0}
    - target: {fileID: 8562700260742177811, guid: 715c826bb4fc25c429dc7c65bb8f8b43,
        type: 3}
      propertyPath: m_LocalEulerAnglesHint.y
      value: 0
      objectReference: {fileID: 0}
    - target: {fileID: 8562700260742177811, guid: 715c826bb4fc25c429dc7c65bb8f8b43,
        type: 3}
      propertyPath: m_LocalEulerAnglesHint.z
      value: 0
      objectReference: {fileID: 0}
    m_RemovedComponents: []
  m_SourcePrefab: {fileID: 100100000, guid: 715c826bb4fc25c429dc7c65bb8f8b43, type: 3}
--- !u!4 &717557406043243067 stripped
Transform:
  m_CorrespondingSourceObject: {fileID: 8562700260742177811, guid: 715c826bb4fc25c429dc7c65bb8f8b43,
    type: 3}
  m_PrefabInstance: {fileID: 9160766040903657000}
  m_PrefabAsset: {fileID: 0}
