%YAML 1.1
%TAG !u! tag:unity3d.com,2011:
--- !u!1 &791299016716552589
GameObject:
  m_ObjectHideFlags: 0
  m_CorrespondingSourceObject: {fileID: 0}
  m_PrefabInstance: {fileID: 0}
  m_PrefabAsset: {fileID: 0}
  serializedVersion: 6
  m_Component:
  - component: {fileID: 4166795947638660281}
  m_Layer: 0
  m_Name: Road 2
  m_TagString: Untagged
  m_Icon: {fileID: 0}
  m_NavMeshLayer: 0
  m_StaticEditorFlags: 0
  m_IsActive: 1
--- !u!4 &4166795947638660281
Transform:
  m_ObjectHideFlags: 0
  m_CorrespondingSourceObject: {fileID: 0}
  m_PrefabInstance: {fileID: 0}
  m_PrefabAsset: {fileID: 0}
  m_GameObject: {fileID: 791299016716552589}
  m_LocalRotation: {x: 0, y: 0, z: 0, w: 1}
  m_LocalPosition: {x: 0, y: 0, z: 0}
  m_LocalScale: {x: 1, y: 1, z: 1}
  m_Children:
  - {fileID: 6927936386994020743}
  - {fileID: 2878114269719406242}
  - {fileID: 5916717600047417676}
  - {fileID: 7258282043071872088}
  - {fileID: 3592506821829808609}
  - {fileID: 2406825674689749691}
  - {fileID: 6689026915887527080}
  - {fileID: 975725424766877152}
  - {fileID: 2705552293839118665}
  - {fileID: 2681190843246175416}
  - {fileID: 3955518916844207747}
  - {fileID: 6451670410418406307}
  - {fileID: 523399494307824496}
  - {fileID: 2961499037298315608}
  - {fileID: 486718125901641656}
  m_Father: {fileID: 0}
  m_RootOrder: 0
  m_LocalEulerAnglesHint: {x: 0, y: 0, z: 0}
--- !u!1001 &220352548244693561
PrefabInstance:
  m_ObjectHideFlags: 0
  serializedVersion: 2
  m_Modification:
    m_TransformParent: {fileID: 4166795947638660281}
    m_Modifications:
    - target: {fileID: 2039245585612996978, guid: 35da5507e9a93994686b0bf084c49232,
        type: 3}
      propertyPath: m_Name
      value: Pole
      objectReference: {fileID: 0}
    - target: {fileID: 3033036732571972449, guid: 35da5507e9a93994686b0bf084c49232,
        type: 3}
      propertyPath: m_LocalPosition.x
      value: -7.5
      objectReference: {fileID: 0}
    - target: {fileID: 3033036732571972449, guid: 35da5507e9a93994686b0bf084c49232,
        type: 3}
      propertyPath: m_LocalPosition.y
      value: 0.15
      objectReference: {fileID: 0}
    - target: {fileID: 3033036732571972449, guid: 35da5507e9a93994686b0bf084c49232,
        type: 3}
      propertyPath: m_LocalPosition.z
      value: 4.75
      objectReference: {fileID: 0}
    - target: {fileID: 3033036732571972449, guid: 35da5507e9a93994686b0bf084c49232,
        type: 3}
      propertyPath: m_LocalRotation.x
      value: 0.00000006657903
      objectReference: {fileID: 0}
    - target: {fileID: 3033036732571972449, guid: 35da5507e9a93994686b0bf084c49232,
        type: 3}
      propertyPath: m_LocalRotation.y
      value: -0
      objectReference: {fileID: 0}
    - target: {fileID: 3033036732571972449, guid: 35da5507e9a93994686b0bf084c49232,
        type: 3}
      propertyPath: m_LocalRotation.z
      value: -0
      objectReference: {fileID: 0}
    - target: {fileID: 3033036732571972449, guid: 35da5507e9a93994686b0bf084c49232,
        type: 3}
      propertyPath: m_LocalRotation.w
      value: 1
      objectReference: {fileID: 0}
    - target: {fileID: 3033036732571972449, guid: 35da5507e9a93994686b0bf084c49232,
        type: 3}
      propertyPath: m_RootOrder
      value: 13
      objectReference: {fileID: 0}
    - target: {fileID: 3033036732571972449, guid: 35da5507e9a93994686b0bf084c49232,
        type: 3}
      propertyPath: m_LocalEulerAnglesHint.x
      value: 0
      objectReference: {fileID: 0}
    - target: {fileID: 3033036732571972449, guid: 35da5507e9a93994686b0bf084c49232,
        type: 3}
      propertyPath: m_LocalEulerAnglesHint.y
      value: 0
      objectReference: {fileID: 0}
    - target: {fileID: 3033036732571972449, guid: 35da5507e9a93994686b0bf084c49232,
        type: 3}
      propertyPath: m_LocalEulerAnglesHint.z
      value: 0
      objectReference: {fileID: 0}
    - target: {fileID: 2152072767712131160, guid: 35da5507e9a93994686b0bf084c49232,
        type: 3}
      propertyPath: m_RootOrder
      value: 1
      objectReference: {fileID: 0}
    m_RemovedComponents: []
  m_SourcePrefab: {fileID: 100100000, guid: 35da5507e9a93994686b0bf084c49232, type: 3}
--- !u!4 &2961499037298315608 stripped
Transform:
  m_CorrespondingSourceObject: {fileID: 3033036732571972449, guid: 35da5507e9a93994686b0bf084c49232,
    type: 3}
  m_PrefabInstance: {fileID: 220352548244693561}
  m_PrefabAsset: {fileID: 0}
--- !u!1001 &715576651534018938
PrefabInstance:
  m_ObjectHideFlags: 0
  serializedVersion: 2
  m_Modification:
    m_TransformParent: {fileID: 4166795947638660281}
    m_Modifications:
    - target: {fileID: 7161099984030003137, guid: f696eb7debaf4b441900725afa91a463,
        type: 3}
      propertyPath: m_Name
      value: Pavement (2)
      objectReference: {fileID: 0}
    - target: {fileID: 7161099984030003137, guid: f696eb7debaf4b441900725afa91a463,
        type: 3}
      propertyPath: m_IsActive
      value: 1
      objectReference: {fileID: 0}
    - target: {fileID: 6141238249168772562, guid: f696eb7debaf4b441900725afa91a463,
        type: 3}
      propertyPath: m_LocalPosition.x
      value: 0
      objectReference: {fileID: 0}
    - target: {fileID: 6141238249168772562, guid: f696eb7debaf4b441900725afa91a463,
        type: 3}
      propertyPath: m_LocalPosition.y
      value: 0
      objectReference: {fileID: 0}
    - target: {fileID: 6141238249168772562, guid: f696eb7debaf4b441900725afa91a463,
        type: 3}
      propertyPath: m_LocalPosition.z
      value: 20
      objectReference: {fileID: 0}
    - target: {fileID: 6141238249168772562, guid: f696eb7debaf4b441900725afa91a463,
        type: 3}
      propertyPath: m_LocalRotation.x
      value: 0.00000006657903
      objectReference: {fileID: 0}
    - target: {fileID: 6141238249168772562, guid: f696eb7debaf4b441900725afa91a463,
        type: 3}
      propertyPath: m_LocalRotation.y
      value: -0
      objectReference: {fileID: 0}
    - target: {fileID: 6141238249168772562, guid: f696eb7debaf4b441900725afa91a463,
        type: 3}
      propertyPath: m_LocalRotation.z
      value: -0
      objectReference: {fileID: 0}
    - target: {fileID: 6141238249168772562, guid: f696eb7debaf4b441900725afa91a463,
        type: 3}
      propertyPath: m_LocalRotation.w
      value: 1
      objectReference: {fileID: 0}
    - target: {fileID: 6141238249168772562, guid: f696eb7debaf4b441900725afa91a463,
        type: 3}
      propertyPath: m_RootOrder
      value: 6
      objectReference: {fileID: 0}
    - target: {fileID: 6141238249168772562, guid: f696eb7debaf4b441900725afa91a463,
        type: 3}
      propertyPath: m_LocalEulerAnglesHint.x
      value: 0
      objectReference: {fileID: 0}
    - target: {fileID: 6141238249168772562, guid: f696eb7debaf4b441900725afa91a463,
        type: 3}
      propertyPath: m_LocalEulerAnglesHint.y
      value: 0
      objectReference: {fileID: 0}
    - target: {fileID: 6141238249168772562, guid: f696eb7debaf4b441900725afa91a463,
        type: 3}
      propertyPath: m_LocalEulerAnglesHint.z
      value: 0
      objectReference: {fileID: 0}
    m_RemovedComponents: []
  m_SourcePrefab: {fileID: 100100000, guid: f696eb7debaf4b441900725afa91a463, type: 3}
--- !u!4 &6689026915887527080 stripped
Transform:
  m_CorrespondingSourceObject: {fileID: 6141238249168772562, guid: f696eb7debaf4b441900725afa91a463,
    type: 3}
  m_PrefabInstance: {fileID: 715576651534018938}
  m_PrefabAsset: {fileID: 0}
--- !u!1001 &915074772107026033
PrefabInstance:
  m_ObjectHideFlags: 0
  serializedVersion: 2
  m_Modification:
    m_TransformParent: {fileID: 4166795947638660281}
    m_Modifications:
    - target: {fileID: 7161099984030003137, guid: f696eb7debaf4b441900725afa91a463,
        type: 3}
      propertyPath: m_Name
      value: Pavement (5)
      objectReference: {fileID: 0}
    - target: {fileID: 7161099984030003137, guid: f696eb7debaf4b441900725afa91a463,
        type: 3}
      propertyPath: m_IsActive
      value: 1
      objectReference: {fileID: 0}
    - target: {fileID: 6141238249168772562, guid: f696eb7debaf4b441900725afa91a463,
        type: 3}
      propertyPath: m_LocalPosition.x
      value: -10
      objectReference: {fileID: 0}
    - target: {fileID: 6141238249168772562, guid: f696eb7debaf4b441900725afa91a463,
        type: 3}
      propertyPath: m_LocalPosition.y
      value: 0
      objectReference: {fileID: 0}
    - target: {fileID: 6141238249168772562, guid: f696eb7debaf4b441900725afa91a463,
        type: 3}
      propertyPath: m_LocalPosition.z
      value: 20
      objectReference: {fileID: 0}
    - target: {fileID: 6141238249168772562, guid: f696eb7debaf4b441900725afa91a463,
        type: 3}
      propertyPath: m_LocalRotation.x
      value: 0.00000006657903
      objectReference: {fileID: 0}
    - target: {fileID: 6141238249168772562, guid: f696eb7debaf4b441900725afa91a463,
        type: 3}
      propertyPath: m_LocalRotation.y
      value: -0
      objectReference: {fileID: 0}
    - target: {fileID: 6141238249168772562, guid: f696eb7debaf4b441900725afa91a463,
        type: 3}
      propertyPath: m_LocalRotation.z
      value: -0
      objectReference: {fileID: 0}
    - target: {fileID: 6141238249168772562, guid: f696eb7debaf4b441900725afa91a463,
        type: 3}
      propertyPath: m_LocalRotation.w
      value: 1
      objectReference: {fileID: 0}
    - target: {fileID: 6141238249168772562, guid: f696eb7debaf4b441900725afa91a463,
        type: 3}
      propertyPath: m_RootOrder
      value: 11
      objectReference: {fileID: 0}
    - target: {fileID: 6141238249168772562, guid: f696eb7debaf4b441900725afa91a463,
        type: 3}
      propertyPath: m_LocalEulerAnglesHint.x
      value: 0
      objectReference: {fileID: 0}
    - target: {fileID: 6141238249168772562, guid: f696eb7debaf4b441900725afa91a463,
        type: 3}
      propertyPath: m_LocalEulerAnglesHint.y
      value: 0
      objectReference: {fileID: 0}
    - target: {fileID: 6141238249168772562, guid: f696eb7debaf4b441900725afa91a463,
        type: 3}
      propertyPath: m_LocalEulerAnglesHint.z
      value: 0
      objectReference: {fileID: 0}
    m_RemovedComponents: []
  m_SourcePrefab: {fileID: 100100000, guid: f696eb7debaf4b441900725afa91a463, type: 3}
--- !u!4 &6451670410418406307 stripped
Transform:
  m_CorrespondingSourceObject: {fileID: 6141238249168772562, guid: f696eb7debaf4b441900725afa91a463,
    type: 3}
  m_PrefabInstance: {fileID: 915074772107026033}
  m_PrefabAsset: {fileID: 0}
--- !u!1001 &2402572212430009692
PrefabInstance:
  m_ObjectHideFlags: 0
  serializedVersion: 2
  m_Modification:
    m_TransformParent: {fileID: 4166795947638660281}
    m_Modifications:
    - target: {fileID: 3619064201676088311, guid: 794ec9ebf7fab0d47b017c074d5f5f1a,
        type: 3}
      propertyPath: m_Name
      value: Road_1 (5)
      objectReference: {fileID: 0}
    - target: {fileID: 3619064201676088311, guid: 794ec9ebf7fab0d47b017c074d5f5f1a,
        type: 3}
      propertyPath: m_IsActive
      value: 1
      objectReference: {fileID: 0}
    - target: {fileID: 315857183926030820, guid: 794ec9ebf7fab0d47b017c074d5f5f1a,
        type: 3}
      propertyPath: m_LocalPosition.x
      value: -15
      objectReference: {fileID: 0}
    - target: {fileID: 315857183926030820, guid: 794ec9ebf7fab0d47b017c074d5f5f1a,
        type: 3}
      propertyPath: m_LocalPosition.y
      value: 0
      objectReference: {fileID: 0}
    - target: {fileID: 315857183926030820, guid: 794ec9ebf7fab0d47b017c074d5f5f1a,
        type: 3}
      propertyPath: m_LocalPosition.z
      value: 5
      objectReference: {fileID: 0}
    - target: {fileID: 315857183926030820, guid: 794ec9ebf7fab0d47b017c074d5f5f1a,
        type: 3}
      propertyPath: m_LocalRotation.x
      value: -0
      objectReference: {fileID: 0}
    - target: {fileID: 315857183926030820, guid: 794ec9ebf7fab0d47b017c074d5f5f1a,
        type: 3}
      propertyPath: m_LocalRotation.y
      value: 1
      objectReference: {fileID: 0}
    - target: {fileID: 315857183926030820, guid: 794ec9ebf7fab0d47b017c074d5f5f1a,
        type: 3}
      propertyPath: m_LocalRotation.z
      value: -0
      objectReference: {fileID: 0}
    - target: {fileID: 315857183926030820, guid: 794ec9ebf7fab0d47b017c074d5f5f1a,
        type: 3}
      propertyPath: m_LocalRotation.w
      value: 0
      objectReference: {fileID: 0}
    - target: {fileID: 315857183926030820, guid: 794ec9ebf7fab0d47b017c074d5f5f1a,
        type: 3}
      propertyPath: m_RootOrder
      value: 9
      objectReference: {fileID: 0}
    - target: {fileID: 315857183926030820, guid: 794ec9ebf7fab0d47b017c074d5f5f1a,
        type: 3}
      propertyPath: m_LocalEulerAnglesHint.x
      value: 0
      objectReference: {fileID: 0}
    - target: {fileID: 315857183926030820, guid: 794ec9ebf7fab0d47b017c074d5f5f1a,
        type: 3}
      propertyPath: m_LocalEulerAnglesHint.y
      value: 180
      objectReference: {fileID: 0}
    - target: {fileID: 315857183926030820, guid: 794ec9ebf7fab0d47b017c074d5f5f1a,
        type: 3}
      propertyPath: m_LocalEulerAnglesHint.z
      value: 0
      objectReference: {fileID: 0}
    m_RemovedComponents: []
  m_SourcePrefab: {fileID: 100100000, guid: 794ec9ebf7fab0d47b017c074d5f5f1a, type: 3}
--- !u!4 &2681190843246175416 stripped
Transform:
  m_CorrespondingSourceObject: {fileID: 315857183926030820, guid: 794ec9ebf7fab0d47b017c074d5f5f1a,
    type: 3}
  m_PrefabInstance: {fileID: 2402572212430009692}
  m_PrefabAsset: {fileID: 0}
--- !u!1001 &2444939018717933741
PrefabInstance:
  m_ObjectHideFlags: 0
  serializedVersion: 2
  m_Modification:
    m_TransformParent: {fileID: 4166795947638660281}
    m_Modifications:
    - target: {fileID: 3619064201676088311, guid: 794ec9ebf7fab0d47b017c074d5f5f1a,
        type: 3}
      propertyPath: m_Name
      value: Road_1 (4)
      objectReference: {fileID: 0}
    - target: {fileID: 3619064201676088311, guid: 794ec9ebf7fab0d47b017c074d5f5f1a,
        type: 3}
      propertyPath: m_IsActive
      value: 1
      objectReference: {fileID: 0}
    - target: {fileID: 315857183926030820, guid: 794ec9ebf7fab0d47b017c074d5f5f1a,
        type: 3}
      propertyPath: m_LocalPosition.x
      value: -10
      objectReference: {fileID: 0}
    - target: {fileID: 315857183926030820, guid: 794ec9ebf7fab0d47b017c074d5f5f1a,
        type: 3}
      propertyPath: m_LocalPosition.y
      value: 0
      objectReference: {fileID: 0}
    - target: {fileID: 315857183926030820, guid: 794ec9ebf7fab0d47b017c074d5f5f1a,
        type: 3}
      propertyPath: m_LocalPosition.z
      value: 15
      objectReference: {fileID: 0}
    - target: {fileID: 315857183926030820, guid: 794ec9ebf7fab0d47b017c074d5f5f1a,
        type: 3}
      propertyPath: m_LocalRotation.x
      value: 0.00000006657903
      objectReference: {fileID: 0}
    - target: {fileID: 315857183926030820, guid: 794ec9ebf7fab0d47b017c074d5f5f1a,
        type: 3}
      propertyPath: m_LocalRotation.y
      value: -0
      objectReference: {fileID: 0}
    - target: {fileID: 315857183926030820, guid: 794ec9ebf7fab0d47b017c074d5f5f1a,
        type: 3}
      propertyPath: m_LocalRotation.z
      value: -0
      objectReference: {fileID: 0}
    - target: {fileID: 315857183926030820, guid: 794ec9ebf7fab0d47b017c074d5f5f1a,
        type: 3}
      propertyPath: m_LocalRotation.w
      value: 1
      objectReference: {fileID: 0}
    - target: {fileID: 315857183926030820, guid: 794ec9ebf7fab0d47b017c074d5f5f1a,
        type: 3}
      propertyPath: m_RootOrder
      value: 8
      objectReference: {fileID: 0}
    - target: {fileID: 315857183926030820, guid: 794ec9ebf7fab0d47b017c074d5f5f1a,
        type: 3}
      propertyPath: m_LocalEulerAnglesHint.x
      value: 0
      objectReference: {fileID: 0}
    - target: {fileID: 315857183926030820, guid: 794ec9ebf7fab0d47b017c074d5f5f1a,
        type: 3}
      propertyPath: m_LocalEulerAnglesHint.y
      value: 0
      objectReference: {fileID: 0}
    - target: {fileID: 315857183926030820, guid: 794ec9ebf7fab0d47b017c074d5f5f1a,
        type: 3}
      propertyPath: m_LocalEulerAnglesHint.z
      value: 0
      objectReference: {fileID: 0}
    m_RemovedComponents: []
  m_SourcePrefab: {fileID: 100100000, guid: 794ec9ebf7fab0d47b017c074d5f5f1a, type: 3}
--- !u!4 &2705552293839118665 stripped
Transform:
  m_CorrespondingSourceObject: {fileID: 315857183926030820, guid: 794ec9ebf7fab0d47b017c074d5f5f1a,
    type: 3}
  m_PrefabInstance: {fileID: 2444939018717933741}
  m_PrefabAsset: {fileID: 0}
--- !u!1001 &2563458319497901894
PrefabInstance:
  m_ObjectHideFlags: 0
  serializedVersion: 2
  m_Modification:
    m_TransformParent: {fileID: 4166795947638660281}
    m_Modifications:
    - target: {fileID: 3619064201676088311, guid: 794ec9ebf7fab0d47b017c074d5f5f1a,
        type: 3}
      propertyPath: m_Name
      value: Road_1
      objectReference: {fileID: 0}
    - target: {fileID: 3619064201676088311, guid: 794ec9ebf7fab0d47b017c074d5f5f1a,
        type: 3}
      propertyPath: m_IsActive
      value: 1
      objectReference: {fileID: 0}
    - target: {fileID: 315857183926030820, guid: 794ec9ebf7fab0d47b017c074d5f5f1a,
        type: 3}
      propertyPath: m_LocalPosition.x
      value: 0
      objectReference: {fileID: 0}
    - target: {fileID: 315857183926030820, guid: 794ec9ebf7fab0d47b017c074d5f5f1a,
        type: 3}
      propertyPath: m_LocalPosition.y
      value: 0
      objectReference: {fileID: 0}
    - target: {fileID: 315857183926030820, guid: 794ec9ebf7fab0d47b017c074d5f5f1a,
        type: 3}
      propertyPath: m_LocalPosition.z
      value: 15
      objectReference: {fileID: 0}
    - target: {fileID: 315857183926030820, guid: 794ec9ebf7fab0d47b017c074d5f5f1a,
        type: 3}
      propertyPath: m_LocalRotation.x
      value: 0.00000006657903
      objectReference: {fileID: 0}
    - target: {fileID: 315857183926030820, guid: 794ec9ebf7fab0d47b017c074d5f5f1a,
        type: 3}
      propertyPath: m_LocalRotation.y
      value: -0
      objectReference: {fileID: 0}
    - target: {fileID: 315857183926030820, guid: 794ec9ebf7fab0d47b017c074d5f5f1a,
        type: 3}
      propertyPath: m_LocalRotation.z
      value: -0
      objectReference: {fileID: 0}
    - target: {fileID: 315857183926030820, guid: 794ec9ebf7fab0d47b017c074d5f5f1a,
        type: 3}
      propertyPath: m_LocalRotation.w
      value: 1
      objectReference: {fileID: 0}
    - target: {fileID: 315857183926030820, guid: 794ec9ebf7fab0d47b017c074d5f5f1a,
        type: 3}
      propertyPath: m_RootOrder
      value: 1
      objectReference: {fileID: 0}
    - target: {fileID: 315857183926030820, guid: 794ec9ebf7fab0d47b017c074d5f5f1a,
        type: 3}
      propertyPath: m_LocalEulerAnglesHint.x
      value: 0
      objectReference: {fileID: 0}
    - target: {fileID: 315857183926030820, guid: 794ec9ebf7fab0d47b017c074d5f5f1a,
        type: 3}
      propertyPath: m_LocalEulerAnglesHint.y
      value: 0
      objectReference: {fileID: 0}
    - target: {fileID: 315857183926030820, guid: 794ec9ebf7fab0d47b017c074d5f5f1a,
        type: 3}
      propertyPath: m_LocalEulerAnglesHint.z
      value: 0
      objectReference: {fileID: 0}
    m_RemovedComponents: []
  m_SourcePrefab: {fileID: 100100000, guid: 794ec9ebf7fab0d47b017c074d5f5f1a, type: 3}
--- !u!4 &2878114269719406242 stripped
Transform:
  m_CorrespondingSourceObject: {fileID: 315857183926030820, guid: 794ec9ebf7fab0d47b017c074d5f5f1a,
    type: 3}
  m_PrefabInstance: {fileID: 2563458319497901894}
  m_PrefabAsset: {fileID: 0}
--- !u!1001 &3266516862304759825
PrefabInstance:
  m_ObjectHideFlags: 0
  serializedVersion: 2
  m_Modification:
    m_TransformParent: {fileID: 4166795947638660281}
    m_Modifications:
    - target: {fileID: 2039245585612996978, guid: 35da5507e9a93994686b0bf084c49232,
        type: 3}
      propertyPath: m_Name
      value: Pole (1)
      objectReference: {fileID: 0}
    - target: {fileID: 3033036732571972449, guid: 35da5507e9a93994686b0bf084c49232,
        type: 3}
      propertyPath: m_LocalPosition.x
      value: -7.658001
      objectReference: {fileID: 0}
    - target: {fileID: 3033036732571972449, guid: 35da5507e9a93994686b0bf084c49232,
        type: 3}
      propertyPath: m_LocalPosition.y
      value: 0.15
      objectReference: {fileID: 0}
    - target: {fileID: 3033036732571972449, guid: 35da5507e9a93994686b0bf084c49232,
        type: 3}
      propertyPath: m_LocalPosition.z
      value: 15.25
      objectReference: {fileID: 0}
    - target: {fileID: 3033036732571972449, guid: 35da5507e9a93994686b0bf084c49232,
        type: 3}
      propertyPath: m_LocalRotation.x
      value: -0
      objectReference: {fileID: 0}
    - target: {fileID: 3033036732571972449, guid: 35da5507e9a93994686b0bf084c49232,
        type: 3}
      propertyPath: m_LocalRotation.y
      value: 1
      objectReference: {fileID: 0}
    - target: {fileID: 3033036732571972449, guid: 35da5507e9a93994686b0bf084c49232,
        type: 3}
      propertyPath: m_LocalRotation.z
      value: -0
      objectReference: {fileID: 0}
    - target: {fileID: 3033036732571972449, guid: 35da5507e9a93994686b0bf084c49232,
        type: 3}
      propertyPath: m_LocalRotation.w
      value: 0
      objectReference: {fileID: 0}
    - target: {fileID: 3033036732571972449, guid: 35da5507e9a93994686b0bf084c49232,
        type: 3}
      propertyPath: m_RootOrder
      value: 12
      objectReference: {fileID: 0}
    - target: {fileID: 3033036732571972449, guid: 35da5507e9a93994686b0bf084c49232,
        type: 3}
      propertyPath: m_LocalEulerAnglesHint.x
      value: 0
      objectReference: {fileID: 0}
    - target: {fileID: 3033036732571972449, guid: 35da5507e9a93994686b0bf084c49232,
        type: 3}
      propertyPath: m_LocalEulerAnglesHint.y
      value: 180
      objectReference: {fileID: 0}
    - target: {fileID: 3033036732571972449, guid: 35da5507e9a93994686b0bf084c49232,
        type: 3}
      propertyPath: m_LocalEulerAnglesHint.z
      value: 0
      objectReference: {fileID: 0}
    - target: {fileID: 2152072767712131160, guid: 35da5507e9a93994686b0bf084c49232,
        type: 3}
      propertyPath: m_RootOrder
      value: 1
      objectReference: {fileID: 0}
    m_RemovedComponents: []
  m_SourcePrefab: {fileID: 100100000, guid: 35da5507e9a93994686b0bf084c49232, type: 3}
--- !u!4 &523399494307824496 stripped
Transform:
  m_CorrespondingSourceObject: {fileID: 3033036732571972449, guid: 35da5507e9a93994686b0bf084c49232,
    type: 3}
  m_PrefabInstance: {fileID: 3266516862304759825}
  m_PrefabAsset: {fileID: 0}
--- !u!1001 &3827768133636537429
PrefabInstance:
  m_ObjectHideFlags: 0
  serializedVersion: 2
  m_Modification:
    m_TransformParent: {fileID: 4166795947638660281}
    m_Modifications:
    - target: {fileID: 7161099984030003137, guid: f696eb7debaf4b441900725afa91a463,
        type: 3}
      propertyPath: m_Name
      value: Pavement
      objectReference: {fileID: 0}
    - target: {fileID: 7161099984030003137, guid: f696eb7debaf4b441900725afa91a463,
        type: 3}
      propertyPath: m_IsActive
      value: 1
      objectReference: {fileID: 0}
    - target: {fileID: 6141238249168772562, guid: f696eb7debaf4b441900725afa91a463,
        type: 3}
      propertyPath: m_LocalPosition.x
      value: 0
      objectReference: {fileID: 0}
    - target: {fileID: 6141238249168772562, guid: f696eb7debaf4b441900725afa91a463,
        type: 3}
      propertyPath: m_LocalPosition.y
      value: 0
      objectReference: {fileID: 0}
    - target: {fileID: 6141238249168772562, guid: f696eb7debaf4b441900725afa91a463,
        type: 3}
      propertyPath: m_LocalPosition.z
      value: 5
      objectReference: {fileID: 0}
    - target: {fileID: 6141238249168772562, guid: f696eb7debaf4b441900725afa91a463,
        type: 3}
      propertyPath: m_LocalRotation.x
      value: 0.00000006657903
      objectReference: {fileID: 0}
    - target: {fileID: 6141238249168772562, guid: f696eb7debaf4b441900725afa91a463,
        type: 3}
      propertyPath: m_LocalRotation.y
      value: -0
      objectReference: {fileID: 0}
    - target: {fileID: 6141238249168772562, guid: f696eb7debaf4b441900725afa91a463,
        type: 3}
      propertyPath: m_LocalRotation.z
      value: -0
      objectReference: {fileID: 0}
    - target: {fileID: 6141238249168772562, guid: f696eb7debaf4b441900725afa91a463,
        type: 3}
      propertyPath: m_LocalRotation.w
      value: 1
      objectReference: {fileID: 0}
    - target: {fileID: 6141238249168772562, guid: f696eb7debaf4b441900725afa91a463,
        type: 3}
      propertyPath: m_RootOrder
      value: 0
      objectReference: {fileID: 0}
    - target: {fileID: 6141238249168772562, guid: f696eb7debaf4b441900725afa91a463,
        type: 3}
      propertyPath: m_LocalEulerAnglesHint.x
      value: 0
      objectReference: {fileID: 0}
    - target: {fileID: 6141238249168772562, guid: f696eb7debaf4b441900725afa91a463,
        type: 3}
      propertyPath: m_LocalEulerAnglesHint.y
      value: 0
      objectReference: {fileID: 0}
    - target: {fileID: 6141238249168772562, guid: f696eb7debaf4b441900725afa91a463,
        type: 3}
      propertyPath: m_LocalEulerAnglesHint.z
      value: 0
      objectReference: {fileID: 0}
    m_RemovedComponents: []
  m_SourcePrefab: {fileID: 100100000, guid: f696eb7debaf4b441900725afa91a463, type: 3}
--- !u!4 &6927936386994020743 stripped
Transform:
  m_CorrespondingSourceObject: {fileID: 6141238249168772562, guid: f696eb7debaf4b441900725afa91a463,
    type: 3}
  m_PrefabInstance: {fileID: 3827768133636537429}
  m_PrefabAsset: {fileID: 0}
--- !u!1001 &3871129223527645189
PrefabInstance:
  m_ObjectHideFlags: 0
  serializedVersion: 2
  m_Modification:
    m_TransformParent: {fileID: 4166795947638660281}
    m_Modifications:
    - target: {fileID: 3619064201676088311, guid: 794ec9ebf7fab0d47b017c074d5f5f1a,
        type: 3}
      propertyPath: m_Name
      value: Road_1 (3)
      objectReference: {fileID: 0}
    - target: {fileID: 3619064201676088311, guid: 794ec9ebf7fab0d47b017c074d5f5f1a,
        type: 3}
      propertyPath: m_IsActive
      value: 1
      objectReference: {fileID: 0}
    - target: {fileID: 315857183926030820, guid: 794ec9ebf7fab0d47b017c074d5f5f1a,
        type: 3}
      propertyPath: m_LocalPosition.x
      value: -10
      objectReference: {fileID: 0}
    - target: {fileID: 315857183926030820, guid: 794ec9ebf7fab0d47b017c074d5f5f1a,
        type: 3}
      propertyPath: m_LocalPosition.y
      value: 0
      objectReference: {fileID: 0}
    - target: {fileID: 315857183926030820, guid: 794ec9ebf7fab0d47b017c074d5f5f1a,
        type: 3}
      propertyPath: m_LocalPosition.z
      value: 5
      objectReference: {fileID: 0}
    - target: {fileID: 315857183926030820, guid: 794ec9ebf7fab0d47b017c074d5f5f1a,
        type: 3}
      propertyPath: m_LocalRotation.x
      value: -0
      objectReference: {fileID: 0}
    - target: {fileID: 315857183926030820, guid: 794ec9ebf7fab0d47b017c074d5f5f1a,
        type: 3}
      propertyPath: m_LocalRotation.y
      value: 1
      objectReference: {fileID: 0}
    - target: {fileID: 315857183926030820, guid: 794ec9ebf7fab0d47b017c074d5f5f1a,
        type: 3}
      propertyPath: m_LocalRotation.z
      value: -0
      objectReference: {fileID: 0}
    - target: {fileID: 315857183926030820, guid: 794ec9ebf7fab0d47b017c074d5f5f1a,
        type: 3}
      propertyPath: m_LocalRotation.w
      value: 0
      objectReference: {fileID: 0}
    - target: {fileID: 315857183926030820, guid: 794ec9ebf7fab0d47b017c074d5f5f1a,
        type: 3}
      propertyPath: m_RootOrder
      value: 4
      objectReference: {fileID: 0}
    - target: {fileID: 315857183926030820, guid: 794ec9ebf7fab0d47b017c074d5f5f1a,
        type: 3}
      propertyPath: m_LocalEulerAnglesHint.x
      value: 0
      objectReference: {fileID: 0}
    - target: {fileID: 315857183926030820, guid: 794ec9ebf7fab0d47b017c074d5f5f1a,
        type: 3}
      propertyPath: m_LocalEulerAnglesHint.y
      value: 180
      objectReference: {fileID: 0}
    - target: {fileID: 315857183926030820, guid: 794ec9ebf7fab0d47b017c074d5f5f1a,
        type: 3}
      propertyPath: m_LocalEulerAnglesHint.z
      value: 0
      objectReference: {fileID: 0}
    m_RemovedComponents: []
  m_SourcePrefab: {fileID: 100100000, guid: 794ec9ebf7fab0d47b017c074d5f5f1a, type: 3}
--- !u!4 &3592506821829808609 stripped
Transform:
  m_CorrespondingSourceObject: {fileID: 315857183926030820, guid: 794ec9ebf7fab0d47b017c074d5f5f1a,
    type: 3}
  m_PrefabInstance: {fileID: 3871129223527645189}
  m_PrefabAsset: {fileID: 0}
--- !u!1001 &4575608733926982054
PrefabInstance:
  m_ObjectHideFlags: 0
  serializedVersion: 2
  m_Modification:
    m_TransformParent: {fileID: 4166795947638660281}
    m_Modifications:
    - target: {fileID: 1145499460867851277, guid: f6d4a824d8e5a8243ba74bb5a43e96b0,
        type: 3}
      propertyPath: m_Name
      value: FireHydrant
      objectReference: {fileID: 0}
    - target: {fileID: 4161036231984608798, guid: f6d4a824d8e5a8243ba74bb5a43e96b0,
        type: 3}
      propertyPath: m_LocalPosition.x
      value: -5
      objectReference: {fileID: 0}
    - target: {fileID: 4161036231984608798, guid: f6d4a824d8e5a8243ba74bb5a43e96b0,
        type: 3}
      propertyPath: m_LocalPosition.y
      value: 0.15
      objectReference: {fileID: 0}
    - target: {fileID: 4161036231984608798, guid: f6d4a824d8e5a8243ba74bb5a43e96b0,
        type: 3}
      propertyPath: m_LocalPosition.z
      value: 4.78
      objectReference: {fileID: 0}
    - target: {fileID: 4161036231984608798, guid: f6d4a824d8e5a8243ba74bb5a43e96b0,
        type: 3}
      propertyPath: m_LocalRotation.x
      value: 0.00000006657903
      objectReference: {fileID: 0}
    - target: {fileID: 4161036231984608798, guid: f6d4a824d8e5a8243ba74bb5a43e96b0,
        type: 3}
      propertyPath: m_LocalRotation.y
      value: -0
      objectReference: {fileID: 0}
    - target: {fileID: 4161036231984608798, guid: f6d4a824d8e5a8243ba74bb5a43e96b0,
        type: 3}
      propertyPath: m_LocalRotation.z
      value: -0
      objectReference: {fileID: 0}
    - target: {fileID: 4161036231984608798, guid: f6d4a824d8e5a8243ba74bb5a43e96b0,
        type: 3}
      propertyPath: m_LocalRotation.w
      value: 1
      objectReference: {fileID: 0}
    - target: {fileID: 4161036231984608798, guid: f6d4a824d8e5a8243ba74bb5a43e96b0,
        type: 3}
      propertyPath: m_RootOrder
      value: 14
      objectReference: {fileID: 0}
    - target: {fileID: 4161036231984608798, guid: f6d4a824d8e5a8243ba74bb5a43e96b0,
        type: 3}
      propertyPath: m_LocalEulerAnglesHint.x
      value: 0
      objectReference: {fileID: 0}
    - target: {fileID: 4161036231984608798, guid: f6d4a824d8e5a8243ba74bb5a43e96b0,
        type: 3}
      propertyPath: m_LocalEulerAnglesHint.y
      value: 0
      objectReference: {fileID: 0}
    - target: {fileID: 4161036231984608798, guid: f6d4a824d8e5a8243ba74bb5a43e96b0,
        type: 3}
      propertyPath: m_LocalEulerAnglesHint.z
      value: 0
      objectReference: {fileID: 0}
    m_RemovedComponents: []
  m_SourcePrefab: {fileID: 100100000, guid: f6d4a824d8e5a8243ba74bb5a43e96b0, type: 3}
--- !u!4 &486718125901641656 stripped
Transform:
  m_CorrespondingSourceObject: {fileID: 4161036231984608798, guid: f6d4a824d8e5a8243ba74bb5a43e96b0,
    type: 3}
  m_PrefabInstance: {fileID: 4575608733926982054}
  m_PrefabAsset: {fileID: 0}
--- !u!1001 &6232490541306239144
PrefabInstance:
  m_ObjectHideFlags: 0
  serializedVersion: 2
  m_Modification:
    m_TransformParent: {fileID: 4166795947638660281}
    m_Modifications:
    - target: {fileID: 3619064201676088311, guid: 794ec9ebf7fab0d47b017c074d5f5f1a,
        type: 3}
      propertyPath: m_Name
      value: Road_1 (1)
      objectReference: {fileID: 0}
    - target: {fileID: 3619064201676088311, guid: 794ec9ebf7fab0d47b017c074d5f5f1a,
        type: 3}
      propertyPath: m_IsActive
      value: 1
      objectReference: {fileID: 0}
    - target: {fileID: 315857183926030820, guid: 794ec9ebf7fab0d47b017c074d5f5f1a,
        type: 3}
      propertyPath: m_LocalPosition.x
      value: -5
      objectReference: {fileID: 0}
    - target: {fileID: 315857183926030820, guid: 794ec9ebf7fab0d47b017c074d5f5f1a,
        type: 3}
      propertyPath: m_LocalPosition.y
      value: 0
      objectReference: {fileID: 0}
    - target: {fileID: 315857183926030820, guid: 794ec9ebf7fab0d47b017c074d5f5f1a,
        type: 3}
      propertyPath: m_LocalPosition.z
      value: 5
      objectReference: {fileID: 0}
    - target: {fileID: 315857183926030820, guid: 794ec9ebf7fab0d47b017c074d5f5f1a,
        type: 3}
      propertyPath: m_LocalRotation.x
      value: -0
      objectReference: {fileID: 0}
    - target: {fileID: 315857183926030820, guid: 794ec9ebf7fab0d47b017c074d5f5f1a,
        type: 3}
      propertyPath: m_LocalRotation.y
      value: 1
      objectReference: {fileID: 0}
    - target: {fileID: 315857183926030820, guid: 794ec9ebf7fab0d47b017c074d5f5f1a,
        type: 3}
      propertyPath: m_LocalRotation.z
      value: -0
      objectReference: {fileID: 0}
    - target: {fileID: 315857183926030820, guid: 794ec9ebf7fab0d47b017c074d5f5f1a,
        type: 3}
      propertyPath: m_LocalRotation.w
      value: 0
      objectReference: {fileID: 0}
    - target: {fileID: 315857183926030820, guid: 794ec9ebf7fab0d47b017c074d5f5f1a,
        type: 3}
      propertyPath: m_RootOrder
      value: 2
      objectReference: {fileID: 0}
    - target: {fileID: 315857183926030820, guid: 794ec9ebf7fab0d47b017c074d5f5f1a,
        type: 3}
      propertyPath: m_LocalEulerAnglesHint.x
      value: 0
      objectReference: {fileID: 0}
    - target: {fileID: 315857183926030820, guid: 794ec9ebf7fab0d47b017c074d5f5f1a,
        type: 3}
      propertyPath: m_LocalEulerAnglesHint.y
      value: 180
      objectReference: {fileID: 0}
    - target: {fileID: 315857183926030820, guid: 794ec9ebf7fab0d47b017c074d5f5f1a,
        type: 3}
      propertyPath: m_LocalEulerAnglesHint.z
      value: 0
      objectReference: {fileID: 0}
    m_RemovedComponents: []
  m_SourcePrefab: {fileID: 100100000, guid: 794ec9ebf7fab0d47b017c074d5f5f1a, type: 3}
--- !u!4 &5916717600047417676 stripped
Transform:
  m_CorrespondingSourceObject: {fileID: 315857183926030820, guid: 794ec9ebf7fab0d47b017c074d5f5f1a,
    type: 3}
  m_PrefabInstance: {fileID: 6232490541306239144}
  m_PrefabAsset: {fileID: 0}
--- !u!1001 &6390738424541012018
PrefabInstance:
  m_ObjectHideFlags: 0
  serializedVersion: 2
  m_Modification:
    m_TransformParent: {fileID: 4166795947638660281}
    m_Modifications:
    - target: {fileID: 7161099984030003137, guid: f696eb7debaf4b441900725afa91a463,
        type: 3}
      propertyPath: m_Name
      value: Pavement (3)
      objectReference: {fileID: 0}
    - target: {fileID: 7161099984030003137, guid: f696eb7debaf4b441900725afa91a463,
        type: 3}
      propertyPath: m_IsActive
      value: 1
      objectReference: {fileID: 0}
    - target: {fileID: 6141238249168772562, guid: f696eb7debaf4b441900725afa91a463,
        type: 3}
      propertyPath: m_LocalPosition.x
      value: -5
      objectReference: {fileID: 0}
    - target: {fileID: 6141238249168772562, guid: f696eb7debaf4b441900725afa91a463,
        type: 3}
      propertyPath: m_LocalPosition.y
      value: 0
      objectReference: {fileID: 0}
    - target: {fileID: 6141238249168772562, guid: f696eb7debaf4b441900725afa91a463,
        type: 3}
      propertyPath: m_LocalPosition.z
      value: 20
      objectReference: {fileID: 0}
    - target: {fileID: 6141238249168772562, guid: f696eb7debaf4b441900725afa91a463,
        type: 3}
      propertyPath: m_LocalRotation.x
      value: 0.00000006657903
      objectReference: {fileID: 0}
    - target: {fileID: 6141238249168772562, guid: f696eb7debaf4b441900725afa91a463,
        type: 3}
      propertyPath: m_LocalRotation.y
      value: -0
      objectReference: {fileID: 0}
    - target: {fileID: 6141238249168772562, guid: f696eb7debaf4b441900725afa91a463,
        type: 3}
      propertyPath: m_LocalRotation.z
      value: -0
      objectReference: {fileID: 0}
    - target: {fileID: 6141238249168772562, guid: f696eb7debaf4b441900725afa91a463,
        type: 3}
      propertyPath: m_LocalRotation.w
      value: 1
      objectReference: {fileID: 0}
    - target: {fileID: 6141238249168772562, guid: f696eb7debaf4b441900725afa91a463,
        type: 3}
      propertyPath: m_RootOrder
      value: 7
      objectReference: {fileID: 0}
    - target: {fileID: 6141238249168772562, guid: f696eb7debaf4b441900725afa91a463,
        type: 3}
      propertyPath: m_LocalEulerAnglesHint.x
      value: 0
      objectReference: {fileID: 0}
    - target: {fileID: 6141238249168772562, guid: f696eb7debaf4b441900725afa91a463,
        type: 3}
      propertyPath: m_LocalEulerAnglesHint.y
      value: 0
      objectReference: {fileID: 0}
    - target: {fileID: 6141238249168772562, guid: f696eb7debaf4b441900725afa91a463,
        type: 3}
      propertyPath: m_LocalEulerAnglesHint.z
      value: 0
      objectReference: {fileID: 0}
    m_RemovedComponents: []
  m_SourcePrefab: {fileID: 100100000, guid: f696eb7debaf4b441900725afa91a463, type: 3}
--- !u!4 &975725424766877152 stripped
Transform:
  m_CorrespondingSourceObject: {fileID: 6141238249168772562, guid: f696eb7debaf4b441900725afa91a463,
    type: 3}
  m_PrefabInstance: {fileID: 6390738424541012018}
  m_PrefabAsset: {fileID: 0}
--- !u!1001 &6978538043918495164
PrefabInstance:
  m_ObjectHideFlags: 0
  serializedVersion: 2
  m_Modification:
    m_TransformParent: {fileID: 4166795947638660281}
    m_Modifications:
    - target: {fileID: 3619064201676088311, guid: 794ec9ebf7fab0d47b017c074d5f5f1a,
        type: 3}
      propertyPath: m_Name
      value: Road_1 (2)
      objectReference: {fileID: 0}
    - target: {fileID: 3619064201676088311, guid: 794ec9ebf7fab0d47b017c074d5f5f1a,
        type: 3}
      propertyPath: m_IsActive
      value: 1
      objectReference: {fileID: 0}
    - target: {fileID: 315857183926030820, guid: 794ec9ebf7fab0d47b017c074d5f5f1a,
        type: 3}
      propertyPath: m_LocalPosition.x
      value: -5
      objectReference: {fileID: 0}
    - target: {fileID: 315857183926030820, guid: 794ec9ebf7fab0d47b017c074d5f5f1a,
        type: 3}
      propertyPath: m_LocalPosition.y
      value: 0
      objectReference: {fileID: 0}
    - target: {fileID: 315857183926030820, guid: 794ec9ebf7fab0d47b017c074d5f5f1a,
        type: 3}
      propertyPath: m_LocalPosition.z
      value: 15
      objectReference: {fileID: 0}
    - target: {fileID: 315857183926030820, guid: 794ec9ebf7fab0d47b017c074d5f5f1a,
        type: 3}
      propertyPath: m_LocalRotation.x
      value: 0.00000006657903
      objectReference: {fileID: 0}
    - target: {fileID: 315857183926030820, guid: 794ec9ebf7fab0d47b017c074d5f5f1a,
        type: 3}
      propertyPath: m_LocalRotation.y
      value: -0
      objectReference: {fileID: 0}
    - target: {fileID: 315857183926030820, guid: 794ec9ebf7fab0d47b017c074d5f5f1a,
        type: 3}
      propertyPath: m_LocalRotation.z
      value: -0
      objectReference: {fileID: 0}
    - target: {fileID: 315857183926030820, guid: 794ec9ebf7fab0d47b017c074d5f5f1a,
        type: 3}
      propertyPath: m_LocalRotation.w
      value: 1
      objectReference: {fileID: 0}
    - target: {fileID: 315857183926030820, guid: 794ec9ebf7fab0d47b017c074d5f5f1a,
        type: 3}
      propertyPath: m_RootOrder
      value: 3
      objectReference: {fileID: 0}
    - target: {fileID: 315857183926030820, guid: 794ec9ebf7fab0d47b017c074d5f5f1a,
        type: 3}
      propertyPath: m_LocalEulerAnglesHint.x
      value: 0
      objectReference: {fileID: 0}
    - target: {fileID: 315857183926030820, guid: 794ec9ebf7fab0d47b017c074d5f5f1a,
        type: 3}
      propertyPath: m_LocalEulerAnglesHint.y
      value: 0
      objectReference: {fileID: 0}
    - target: {fileID: 315857183926030820, guid: 794ec9ebf7fab0d47b017c074d5f5f1a,
        type: 3}
      propertyPath: m_LocalEulerAnglesHint.z
      value: 0
      objectReference: {fileID: 0}
    m_RemovedComponents: []
  m_SourcePrefab: {fileID: 100100000, guid: 794ec9ebf7fab0d47b017c074d5f5f1a, type: 3}
--- !u!4 &7258282043071872088 stripped
Transform:
  m_CorrespondingSourceObject: {fileID: 315857183926030820, guid: 794ec9ebf7fab0d47b017c074d5f5f1a,
    type: 3}
  m_PrefabInstance: {fileID: 6978538043918495164}
  m_PrefabAsset: {fileID: 0}
--- !u!1001 &7196432079258198865
PrefabInstance:
  m_ObjectHideFlags: 0
  serializedVersion: 2
  m_Modification:
    m_TransformParent: {fileID: 4166795947638660281}
    m_Modifications:
    - target: {fileID: 7161099984030003137, guid: f696eb7debaf4b441900725afa91a463,
        type: 3}
      propertyPath: m_Name
      value: Pavement (4)
      objectReference: {fileID: 0}
    - target: {fileID: 7161099984030003137, guid: f696eb7debaf4b441900725afa91a463,
        type: 3}
      propertyPath: m_IsActive
      value: 1
      objectReference: {fileID: 0}
    - target: {fileID: 6141238249168772562, guid: f696eb7debaf4b441900725afa91a463,
        type: 3}
      propertyPath: m_LocalPosition.x
      value: -10
      objectReference: {fileID: 0}
    - target: {fileID: 6141238249168772562, guid: f696eb7debaf4b441900725afa91a463,
        type: 3}
      propertyPath: m_LocalPosition.y
      value: 0
      objectReference: {fileID: 0}
    - target: {fileID: 6141238249168772562, guid: f696eb7debaf4b441900725afa91a463,
        type: 3}
      propertyPath: m_LocalPosition.z
      value: 5
      objectReference: {fileID: 0}
    - target: {fileID: 6141238249168772562, guid: f696eb7debaf4b441900725afa91a463,
        type: 3}
      propertyPath: m_LocalRotation.x
      value: 0.00000006657903
      objectReference: {fileID: 0}
    - target: {fileID: 6141238249168772562, guid: f696eb7debaf4b441900725afa91a463,
        type: 3}
      propertyPath: m_LocalRotation.y
      value: -0
      objectReference: {fileID: 0}
    - target: {fileID: 6141238249168772562, guid: f696eb7debaf4b441900725afa91a463,
        type: 3}
      propertyPath: m_LocalRotation.z
      value: -0
      objectReference: {fileID: 0}
    - target: {fileID: 6141238249168772562, guid: f696eb7debaf4b441900725afa91a463,
        type: 3}
      propertyPath: m_LocalRotation.w
      value: 1
      objectReference: {fileID: 0}
    - target: {fileID: 6141238249168772562, guid: f696eb7debaf4b441900725afa91a463,
        type: 3}
      propertyPath: m_RootOrder
      value: 10
      objectReference: {fileID: 0}
    - target: {fileID: 6141238249168772562, guid: f696eb7debaf4b441900725afa91a463,
        type: 3}
      propertyPath: m_LocalEulerAnglesHint.x
      value: 0
      objectReference: {fileID: 0}
    - target: {fileID: 6141238249168772562, guid: f696eb7debaf4b441900725afa91a463,
        type: 3}
      propertyPath: m_LocalEulerAnglesHint.y
      value: 0
      objectReference: {fileID: 0}
    - target: {fileID: 6141238249168772562, guid: f696eb7debaf4b441900725afa91a463,
        type: 3}
      propertyPath: m_LocalEulerAnglesHint.z
      value: 0
      objectReference: {fileID: 0}
    m_RemovedComponents: []
  m_SourcePrefab: {fileID: 100100000, guid: f696eb7debaf4b441900725afa91a463, type: 3}
--- !u!4 &3955518916844207747 stripped
Transform:
  m_CorrespondingSourceObject: {fileID: 6141238249168772562, guid: f696eb7debaf4b441900725afa91a463,
    type: 3}
  m_PrefabInstance: {fileID: 7196432079258198865}
  m_PrefabAsset: {fileID: 0}
--- !u!1001 &8384801548233031529
PrefabInstance:
  m_ObjectHideFlags: 0
  serializedVersion: 2
  m_Modification:
    m_TransformParent: {fileID: 4166795947638660281}
    m_Modifications:
    - target: {fileID: 7161099984030003137, guid: f696eb7debaf4b441900725afa91a463,
        type: 3}
      propertyPath: m_Name
      value: Pavement (1)
      objectReference: {fileID: 0}
    - target: {fileID: 7161099984030003137, guid: f696eb7debaf4b441900725afa91a463,
        type: 3}
      propertyPath: m_IsActive
      value: 1
      objectReference: {fileID: 0}
    - target: {fileID: 6141238249168772562, guid: f696eb7debaf4b441900725afa91a463,
        type: 3}
      propertyPath: m_LocalPosition.x
      value: -5
      objectReference: {fileID: 0}
    - target: {fileID: 6141238249168772562, guid: f696eb7debaf4b441900725afa91a463,
        type: 3}
      propertyPath: m_LocalPosition.y
      value: 0
      objectReference: {fileID: 0}
    - target: {fileID: 6141238249168772562, guid: f696eb7debaf4b441900725afa91a463,
        type: 3}
      propertyPath: m_LocalPosition.z
      value: 5
      objectReference: {fileID: 0}
    - target: {fileID: 6141238249168772562, guid: f696eb7debaf4b441900725afa91a463,
        type: 3}
      propertyPath: m_LocalRotation.x
      value: 0.00000006657903
      objectReference: {fileID: 0}
    - target: {fileID: 6141238249168772562, guid: f696eb7debaf4b441900725afa91a463,
        type: 3}
      propertyPath: m_LocalRotation.y
      value: -0
      objectReference: {fileID: 0}
    - target: {fileID: 6141238249168772562, guid: f696eb7debaf4b441900725afa91a463,
        type: 3}
      propertyPath: m_LocalRotation.z
      value: -0
      objectReference: {fileID: 0}
    - target: {fileID: 6141238249168772562, guid: f696eb7debaf4b441900725afa91a463,
        type: 3}
      propertyPath: m_LocalRotation.w
      value: 1
      objectReference: {fileID: 0}
    - target: {fileID: 6141238249168772562, guid: f696eb7debaf4b441900725afa91a463,
        type: 3}
      propertyPath: m_RootOrder
      value: 5
      objectReference: {fileID: 0}
    - target: {fileID: 6141238249168772562, guid: f696eb7debaf4b441900725afa91a463,
        type: 3}
      propertyPath: m_LocalEulerAnglesHint.x
      value: 0
      objectReference: {fileID: 0}
    - target: {fileID: 6141238249168772562, guid: f696eb7debaf4b441900725afa91a463,
        type: 3}
      propertyPath: m_LocalEulerAnglesHint.y
      value: 0
      objectReference: {fileID: 0}
    - target: {fileID: 6141238249168772562, guid: f696eb7debaf4b441900725afa91a463,
        type: 3}
      propertyPath: m_LocalEulerAnglesHint.z
      value: 0
      objectReference: {fileID: 0}
    m_RemovedComponents: []
  m_SourcePrefab: {fileID: 100100000, guid: f696eb7debaf4b441900725afa91a463, type: 3}
--- !u!4 &2406825674689749691 stripped
Transform:
  m_CorrespondingSourceObject: {fileID: 6141238249168772562, guid: f696eb7debaf4b441900725afa91a463,
    type: 3}
  m_PrefabInstance: {fileID: 8384801548233031529}
  m_PrefabAsset: {fileID: 0}
